Project/formal/id_ex_cover_cover/engine_0/trace1.vcd
$version Generated by Yosys-SMTBMC $end
$timescale 1ns $end
$var integer 32 t smt_step $end
$var event 1 ! smt_clock $end
$scope module id_ex_wrapper $end
$scope module _witness_ $end
$var wire 5 n0 anyseq_auto_setundef_cc_533_execute_1005 $end
$var wire 32 n1 anyseq_auto_setundef_cc_533_execute_1007 $end
$upscope $end
$var wire 1 n2 clk $end
$var wire 6 n3 cycle_count $end
$var wire 1 n4 ex_is_jump $end
$var wire 5 n5 ex_rd_addr $end
$var wire 1 n6 ex_reg_write $end
$var wire 32 n7 ex_rs2_data $end
$var wire 1 n8 flush $end
$var wire 3 n9 id_branch_funct3 $end
$var wire 1 n10 id_conv_init $end
$var wire 1 n11 id_conv_start $end
$var wire 3 n12 id_ex_branch_funct3 $end
$var wire 1 n13 id_ex_conv_start $end
$var wire 1 n14 id_ex_is_branch $end
$var wire 1 n15 id_ex_is_jal $end
$var wire 1 n16 id_ex_is_jalr $end
$var wire 5 n17 id_ex_rd_addr $end
$var wire 1 n18 id_ex_reg_write $end
$var wire 32 n19 id_ex_rs1_data $end
$var wire 32 n20 id_ex_rs2_data $end
$var wire 1 n21 id_is_branch $end
$var wire 1 n22 id_is_jal $end
$var wire 1 n23 id_is_jalr $end
$var wire 2 n24 id_mem_size $end
$var wire 32 n25 id_pc_if $end
$var wire 5 n26 id_rd_addr $end
$var wire 1 n27 id_reg_write $end
$var wire 5 n28 id_rs1_addr $end
$var wire 32 n29 id_rs1_data $end
$var wire 5 n30 id_rs2_addr $end
$var wire 32 n31 id_rs2_data $end
$var wire 32 n32 instr_i $end
$var wire 32 n33 pc_i $end
$var wire 1 n34 rst_n $end
$var wire 1 n35 seen_conv_start $end
$var wire 1 n36 seen_instr $end
$var wire 1 n37 stall $end
$scope module u_ex $end
$var wire 3 n38 branch_funct3_i $end
$var wire 1 n39 branch_taken $end
$var wire 1 n40 clk $end
$var wire 1 n41 conv_busy $end
$var wire 1 n42 conv_start_i $end
$var wire 1 n43 conv_start_i_r $end
$var wire 1 n44 conv_start_pulse $end
$var wire 1 n45 conv_start_pulse_o $end
$var wire 2 n46 conv_status $end
$var wire 1 n47 eq $end
$var wire 1 n48 flush_o $end
$var wire 1 n49 is_branch_i $end
$var wire 1 n50 is_jal_i $end
$var wire 1 n51 is_jalr_i $end
$var wire 1 n52 is_jump $end
$var wire 1 n53 is_jump_o $end
$var wire 32 n54 jalr_target $end
$var wire 1 n55 lt $end
$var wire 1 n56 ltu $end
$var wire 5 n57 rd_addr_i $end
$var wire 5 n58 rd_addr_o $end
$var wire 1 n59 reg_write_i $end
$var wire 1 n60 reg_write_o $end
$var wire 32 n61 rs1_data_i $end
$var wire 32 n62 rs2_data_i $end
$var wire 32 n63 rs2_data_o $end
$var wire 1 n64 rst_n $end
$var wire 1 n65 stall_o $end
$scope module u_conv_pe $end
$var wire 1 n66 clk $end
$var wire 4 n67 cnt_r $end
$var wire 1 n68 conv_busy $end
$var wire 1 n69 conv_done $end
$var wire 1 n70 conv_start $end
$var wire 2 n71 conv_status $end
$var wire 32 n72 operand_a $end
$var wire 32 n73 operand_b $end
$var wire 1 n74 rst_n $end
$var wire 2 n75 state_r $end
$upscope $end
$upscope $end
$scope module u_id $end
$var wire 3 n76 branch_funct3_o $end
$var wire 1 n77 clk $end
$var wire 1 n78 conv_init $end
$var wire 1 n79 conv_init_o $end
$var wire 1 n80 conv_start $end
$var wire 1 n81 conv_start_o $end
$var wire 3 n82 funct3 $end
$var wire 7 n83 funct7 $end
$var wire 32 n84 imm_b $end
$var wire 32 n85 imm_i $end
$var wire 32 n86 imm_j $end
$var wire 32 n87 imm_s $end
$var wire 32 n88 imm_u $end
$var wire 32 n89 instr_i $end
$var wire 1 n90 is_branch $end
$var wire 1 n91 is_branch_o $end
$var wire 1 n92 is_jal $end
$var wire 1 n93 is_jal_o $end
$var wire 1 n94 is_jalr $end
$var wire 1 n95 is_jalr_o $end
$var wire 2 n96 mem_size $end
$var wire 2 n97 mem_size_o $end
$var wire 7 n98 opcode $end
$var wire 32 n99 pc_if_i $end
$var wire 32 n100 pc_if_o $end
$var wire 5 n101 rd $end
$var wire 5 n102 rd_addr_o $end
$var wire 1 n103 reg_write $end
$var wire 1 n104 reg_write_o $end
$var wire 5 n105 rs1 $end
$var wire 5 n106 rs1_addr_o $end
$var wire 32 n107 rs1_data $end
$var wire 32 n108 rs1_data_o $end
$var wire 5 n109 rs2 $end
$var wire 5 n110 rs2_addr_o $end
$var wire 32 n111 rs2_data $end
$var wire 32 n112 rs2_data_o $end
$var wire 1 n113 rst_n $end
$scope module u_regfile $end
$var wire 1 n114 clk $end
$var wire 5 n115 rd_addr $end
$var wire 32 n116 rd_data $end
$var wire 32 n155 regs<00> $end
$var wire 32 n128 regs<01> $end
$var wire 32 n131 regs<02> $end
$var wire 32 n130 regs<03> $end
$var wire 32 n129 regs<04> $end
$var wire 32 n134 regs<05> $end
$var wire 32 n127 regs<06> $end
$var wire 32 n126 regs<07> $end
$var wire 32 n137 regs<08> $end
$var wire 32 n144 regs<09> $end
$var wire 32 n143 regs<0a> $end
$var wire 32 n138 regs<0b> $end
$var wire 32 n151 regs<0c> $end
$var wire 32 n132 regs<0d> $end
$var wire 32 n157 regs<0e> $end
$var wire 32 n140 regs<0f> $end
$var wire 32 n153 regs<10> $end
$var wire 32 n154 regs<11> $end
$var wire 32 n135 regs<12> $end
$var wire 32 n146 regs<13> $end
$var wire 32 n139 regs<14> $end
$var wire 32 n133 regs<15> $end
$var wire 32 n156 regs<16> $end
$var wire 32 n136 regs<17> $end
$var wire 32 n147 regs<18> $end
$var wire 32 n148 regs<19> $end
$var wire 32 n142 regs<1a> $end
$var wire 32 n152 regs<1b> $end
$var wire 32 n145 regs<1c> $end
$var wire 32 n149 regs<1d> $end
$var wire 32 n150 regs<1e> $end
$var wire 32 n141 regs<1f> $end
$var wire 5 n117 rs1_addr $end
$var wire 32 n118 rs1_data $end
$var wire 5 n119 rs2_addr $end
$var wire 32 n120 rs2_data $end
$var wire 1 n121 rst_n $end
$var wire 1 n122 we $end
$upscope $end
$var wire 5 n123 wb_addr_i $end
$var wire 32 n124 wb_data_i $end
$var wire 1 n125 wb_we_i $end
$upscope $end
$upscope $end
$enddefinitions $end
#0
1!
b00000000000000000000000000000000 t
b1 n2
b1 n40
b1 n66
b1 n77
b1 n114
b00000 n0
b00000000000000000000000000000000 n1
b001001 n3
b0 n4
b00100 n5
b1 n6
b00000000000000110000000000000000 n7
b0 n8
b000 n9
b0 n10
b0 n11
b000 n12
b1 n13
b0 n14
b0 n15
b0 n16
b00100 n17
b1 n18
b00000000000000100000000000000000 n19
b00000000000000110000000000000000 n20
b0 n21
b0 n22
b0 n23
b00 n24
b00000000000000000000000000000000 n25
b00000 n26
b1 n27
b00000 n28
b00000000000000000000000000000000 n29
b00000 n30
b00000000000000000000000000000000 n31
b00000000000000000000000000010011 n32
b00000000000000000000000000000000 n33
b1 n34
b1 n35
b1 n36
b0 n37
b000 n38
b0 n39
b0 n41
b1 n42
b0 n43
b1 n44
b1 n45
b00 n46
b0 n47
b0 n48
b0 n49
b0 n50
b0 n51
b0 n52
b0 n53
b00000000000000000000000000000000 n54
b1 n55
b1 n56
b00100 n57
b00100 n58
b1 n59
b1 n60
b00000000000000100000000000000000 n61
b00000000000000110000000000000000 n62
b00000000000000110000000000000000 n63
b1 n64
b0 n65
b0011 n67
b0 n68
b0 n69
b1 n70
b00 n71
b00000000000000100000000000000000 n72
b00000000000000110000000000000000 n73
b1 n74
b00 n75
b000 n76
b0 n78
b0 n79
b0 n80
b0 n81
b000 n82
b0000000 n83
b00000000000000000000000000000000 n84
b00000000000000000000000000000000 n85
b00000000000000000000000000000000 n86
b00000000000000000000000000000000 n87
b00000000000000000000000000000000 n88
b00000000000000000000000000010011 n89
b0 n90
b0 n91
b0 n92
b0 n93
b0 n94
b0 n95
b00 n96
b00 n97
b0010011 n98
b00000000000000000000000000000000 n99
b00000000000000000000000000000000 n100
b00000 n101
b00000 n102
b1 n103
b1 n104
b00000 n105
b00000 n106
b00000000000000000000000000000000 n107
b00000000000000000000000000000000 n108
b00000 n109
b00000 n110
b00000000000000000000000000000000 n111
b00000000000000000000000000000000 n112
b1 n113
b00000 n115
b00000000000000000000000000000000 n116
b00000 n117
b00000000000000000000000000000000 n118
b00000 n119
b00000000000000000000000000000000 n120
b1 n121
b0 n122
b00000 n123
b00000000000000000000000000000000 n124
b0 n125
bxxxxxxxxxxxxxxxxxxxxxxxxxxxxxxxx n126
bxxxxxxxxxxxxxxxxxxxxxxxxxxxxxxxx n127
bxxxxxxxxxxxxxxxxxxxxxxxxxxxxxxxx n128
bxxxxxxxxxxxxxxxxxxxxxxxxxxxxxxxx n129
bxxxxxxxxxxxxxxxxxxxxxxxxxxxxxxxx n130
bxxxxxxxxxxxxxxxxxxxxxxxxxxxxxxxx n131
bxxxxxxxxxxxxxxxxxxxxxxxxxxxxxxxx n132
bxxxxxxxxxxxxxxxxxxxxxxxxxxxxxxxx n133
bxxxxxxxxxxxxxxxxxxxxxxxxxxxxxxxx n134
bxxxxxxxxxxxxxxxxxxxxxxxxxxxxxxxx n135
bxxxxxxxxxxxxxxxxxxxxxxxxxxxxxxxx n136
bxxxxxxxxxxxxxxxxxxxxxxxxxxxxxxxx n137
bxxxxxxxxxxxxxxxxxxxxxxxxxxxxxxxx n138
bxxxxxxxxxxxxxxxxxxxxxxxxxxxxxxxx n139
bxxxxxxxxxxxxxxxxxxxxxxxxxxxxxxxx n140
bxxxxxxxxxxxxxxxxxxxxxxxxxxxxxxxx n141
bxxxxxxxxxxxxxxxxxxxxxxxxxxxxxxxx n142
bxxxxxxxxxxxxxxxxxxxxxxxxxxxxxxxx n143
bxxxxxxxxxxxxxxxxxxxxxxxxxxxxxxxx n144
bxxxxxxxxxxxxxxxxxxxxxxxxxxxxxxxx n145
bxxxxxxxxxxxxxxxxxxxxxxxxxxxxxxxx n146
bxxxxxxxxxxxxxxxxxxxxxxxxxxxxxxxx n147
bxxxxxxxxxxxxxxxxxxxxxxxxxxxxxxxx n148
bxxxxxxxxxxxxxxxxxxxxxxxxxxxxxxxx n149
bxxxxxxxxxxxxxxxxxxxxxxxxxxxxxxxx n150
bxxxxxxxxxxxxxxxxxxxxxxxxxxxxxxxx n151
bxxxxxxxxxxxxxxxxxxxxxxxxxxxxxxxx n152
bxxxxxxxxxxxxxxxxxxxxxxxxxxxxxxxx n153
bxxxxxxxxxxxxxxxxxxxxxxxxxxxxxxxx n154
b00000010000000000000000000000000 n155
bxxxxxxxxxxxxxxxxxxxxxxxxxxxxxxxx n156
bxxxxxxxxxxxxxxxxxxxxxxxxxxxxxxxx n157
#5
b0 n2
b0 n40
b0 n66
b0 n77
b0 n114
#10
1!
b00000000000000000000000000000001 t
b1 n2
b1 n40
b1 n66
b1 n77
b1 n114
b00000 n0
b00000000000000000000000000000000 n1
b001010 n3
b0 n4
b00000 n5
b1 n6
b00000000000000000000000000000000 n7
b0 n8
b000 n9
b0 n10
b0 n11
b000 n12
b0 n13
b0 n14
b0 n15
b0 n16
b00000 n17
b1 n18
b00000000000000000000000000000000 n19
b00000000000000000000000000000000 n20
b0 n21
b0 n22
b0 n23
b00 n24
b00000000000000000000000000000000 n25
b00000 n26
b1 n27
b00000 n28
b00000000000000000000000000000000 n29
b00000 n30
b00000000000000000000000000000000 n31
b00000000000000000000000000010011 n32
b00000000000000000000000000000000 n33
b1 n34
b1 n35
b1 n36
b1 n37
b000 n38
b0 n39
b1 n41
b0 n42
b1 n43
b0 n44
b0 n45
b01 n46
b1 n47
b0 n48
b0 n49
b0 n50
b0 n51
b0 n52
b0 n53
b00000000000000000000000000000000 n54
b0 n55
b0 n56
b00000 n57
b00000 n58
b1 n59
b1 n60
b00000000000000000000000000000000 n61
b00000000000000000000000000000000 n62
b00000000000000000000000000000000 n63
b1 n64
b1 n65
b0000 n67
b1 n68
b0 n69
b0 n70
b01 n71
b00000000000000000000000000000000 n72
b00000000000000000000000000000000 n73
b1 n74
b01 n75
b000 n76
b0 n78
b0 n79
b0 n80
b0 n81
b000 n82
b0000000 n83
b00000000000000000000000000000000 n84
b00000000000000000000000000000000 n85
b00000000000000000000000000000000 n86
b00000000000000000000000000000000 n87
b00000000000000000000000000000000 n88
b00000000000000000000000000010011 n89
b0 n90
b0 n91
b0 n92
b0 n93
b0 n94
b0 n95
b00 n96
b00 n97
b0010011 n98
b00000000000000000000000000000000 n99
b00000000000000000000000000000000 n100
b00000 n101
b00000 n102
b1 n103
b1 n104
b00000 n105
b00000 n106
b00000000000000000000000000000000 n107
b00000000000000000000000000000000 n108
b00000 n109
b00000 n110
b00000000000000000000000000000000 n111
b00000000000000000000000000000000 n112
b1 n113
b00000 n115
b00000000000000000000000000000000 n116
b00000 n117
b00000000000000000000000000000000 n118
b00000 n119
b00000000000000000000000000000000 n120
b1 n121
b0 n122
b00000 n123
b00000000000000000000000000000000 n124
b0 n125
bxxxxxxxxxxxxxxxxxxxxxxxxxxxxxxxx n126
bxxxxxxxxxxxxxxxxxxxxxxxxxxxxxxxx n127
bxxxxxxxxxxxxxxxxxxxxxxxxxxxxxxxx n128
bxxxxxxxxxxxxxxxxxxxxxxxxxxxxxxxx n129
bxxxxxxxxxxxxxxxxxxxxxxxxxxxxxxxx n130
bxxxxxxxxxxxxxxxxxxxxxxxxxxxxxxxx n131
bxxxxxxxxxxxxxxxxxxxxxxxxxxxxxxxx n132
bxxxxxxxxxxxxxxxxxxxxxxxxxxxxxxxx n133
bxxxxxxxxxxxxxxxxxxxxxxxxxxxxxxxx n134
bxxxxxxxxxxxxxxxxxxxxxxxxxxxxxxxx n135
bxxxxxxxxxxxxxxxxxxxxxxxxxxxxxxxx n136
bxxxxxxxxxxxxxxxxxxxxxxxxxxxxxxxx n137
bxxxxxxxxxxxxxxxxxxxxxxxxxxxxxxxx n138
bxxxxxxxxxxxxxxxxxxxxxxxxxxxxxxxx n139
bxxxxxxxxxxxxxxxxxxxxxxxxxxxxxxxx n140
bxxxxxxxxxxxxxxxxxxxxxxxxxxxxxxxx n141
bxxxxxxxxxxxxxxxxxxxxxxxxxxxxxxxx n142
bxxxxxxxxxxxxxxxxxxxxxxxxxxxxxxxx n143
bxxxxxxxxxxxxxxxxxxxxxxxxxxxxxxxx n144
bxxxxxxxxxxxxxxxxxxxxxxxxxxxxxxxx n145
bxxxxxxxxxxxxxxxxxxxxxxxxxxxxxxxx n146
bxxxxxxxxxxxxxxxxxxxxxxxxxxxxxxxx n147
bxxxxxxxxxxxxxxxxxxxxxxxxxxxxxxxx n148
bxxxxxxxxxxxxxxxxxxxxxxxxxxxxxxxx n149
bxxxxxxxxxxxxxxxxxxxxxxxxxxxxxxxx n150
bxxxxxxxxxxxxxxxxxxxxxxxxxxxxxxxx n151
bxxxxxxxxxxxxxxxxxxxxxxxxxxxxxxxx n152
bxxxxxxxxxxxxxxxxxxxxxxxxxxxxxxxx n153
bxxxxxxxxxxxxxxxxxxxxxxxxxxxxxxxx n154
b00000010000000000000000000000000 n155
bxxxxxxxxxxxxxxxxxxxxxxxxxxxxxxxx n156
bxxxxxxxxxxxxxxxxxxxxxxxxxxxxxxxx n157
#15
b0 n2
b0 n40
b0 n66
b0 n77
b0 n114
#20
1!
b00000000000000000000000000000010 t
b1 n2
b1 n40
b1 n66
b1 n77
b1 n114
b00000 n0
b00000000000000000000000000000000 n1
b001011 n3
b0 n4
b00000 n5
b1 n6
b00000000000000000000000000000000 n7
b0 n8
b000 n9
b0 n10
b0 n11
b000 n12
b0 n13
b0 n14
b0 n15
b0 n16
b00000 n17
b1 n18
b00000000000000000000000000000000 n19
b00000000000000000000000000000000 n20
b0 n21
b0 n22
b0 n23
b00 n24
b00000000000000000000000000000000 n25
b00000 n26
b1 n27
b00000 n28
b00000000000000000000000000000000 n29
b00000 n30
b00000000000000000000000000000000 n31
b00000000000000000000000000010011 n32
b00000000000000000000000000000000 n33
b1 n34
b1 n35
b1 n36
b1 n37
b000 n38
b0 n39
b1 n41
b0 n42
b0 n43
b0 n44
b0 n45
b01 n46
b1 n47
b0 n48
b0 n49
b0 n50
b0 n51
b0 n52
b0 n53
b00000000000000000000000000000000 n54
b0 n55
b0 n56
b00000 n57
b00000 n58
b1 n59
b1 n60
b00000000000000000000000000000000 n61
b00000000000000000000000000000000 n62
b00000000000000000000000000000000 n63
b1 n64
b1 n65
b0001 n67
b1 n68
b0 n69
b0 n70
b01 n71
b00000000000000000000000000000000 n72
b00000000000000000000000000000000 n73
b1 n74
b01 n75
b000 n76
b0 n78
b0 n79
b0 n80
b0 n81
b000 n82
b0000000 n83
b00000000000000000000000000000000 n84
b00000000000000000000000000000000 n85
b00000000000000000000000000000000 n86
b00000000000000000000000000000000 n87
b00000000000000000000000000000000 n88
b00000000000000000000000000010011 n89
b0 n90
b0 n91
b0 n92
b0 n93
b0 n94
b0 n95
b00 n96
b00 n97
b0010011 n98
b00000000000000000000000000000000 n99
b00000000000000000000000000000000 n100
b00000 n101
b00000 n102
b1 n103
b1 n104
b00000 n105
b00000 n106
b00000000000000000000000000000000 n107
b00000000000000000000000000000000 n108
b00000 n109
b00000 n110
b00000000000000000000000000000000 n111
b00000000000000000000000000000000 n112
b1 n113
b00000 n115
b00000000000000000000000000000000 n116
b00000 n117
b00000000000000000000000000000000 n118
b00000 n119
b00000000000000000000000000000000 n120
b1 n121
b0 n122
b00000 n123
b00000000000000000000000000000000 n124
b0 n125
bxxxxxxxxxxxxxxxxxxxxxxxxxxxxxxxx n126
bxxxxxxxxxxxxxxxxxxxxxxxxxxxxxxxx n127
bxxxxxxxxxxxxxxxxxxxxxxxxxxxxxxxx n128
bxxxxxxxxxxxxxxxxxxxxxxxxxxxxxxxx n129
bxxxxxxxxxxxxxxxxxxxxxxxxxxxxxxxx n130
bxxxxxxxxxxxxxxxxxxxxxxxxxxxxxxxx n131
bxxxxxxxxxxxxxxxxxxxxxxxxxxxxxxxx n132
bxxxxxxxxxxxxxxxxxxxxxxxxxxxxxxxx n133
bxxxxxxxxxxxxxxxxxxxxxxxxxxxxxxxx n134
bxxxxxxxxxxxxxxxxxxxxxxxxxxxxxxxx n135
bxxxxxxxxxxxxxxxxxxxxxxxxxxxxxxxx n136
bxxxxxxxxxxxxxxxxxxxxxxxxxxxxxxxx n137
bxxxxxxxxxxxxxxxxxxxxxxxxxxxxxxxx n138
bxxxxxxxxxxxxxxxxxxxxxxxxxxxxxxxx n139
bxxxxxxxxxxxxxxxxxxxxxxxxxxxxxxxx n140
bxxxxxxxxxxxxxxxxxxxxxxxxxxxxxxxx n141
bxxxxxxxxxxxxxxxxxxxxxxxxxxxxxxxx n142
bxxxxxxxxxxxxxxxxxxxxxxxxxxxxxxxx n143
bxxxxxxxxxxxxxxxxxxxxxxxxxxxxxxxx n144
bxxxxxxxxxxxxxxxxxxxxxxxxxxxxxxxx n145
bxxxxxxxxxxxxxxxxxxxxxxxxxxxxxxxx n146
bxxxxxxxxxxxxxxxxxxxxxxxxxxxxxxxx n147
bxxxxxxxxxxxxxxxxxxxxxxxxxxxxxxxx n148
bxxxxxxxxxxxxxxxxxxxxxxxxxxxxxxxx n149
bxxxxxxxxxxxxxxxxxxxxxxxxxxxxxxxx n150
bxxxxxxxxxxxxxxxxxxxxxxxxxxxxxxxx n151
bxxxxxxxxxxxxxxxxxxxxxxxxxxxxxxxx n152
bxxxxxxxxxxxxxxxxxxxxxxxxxxxxxxxx n153
bxxxxxxxxxxxxxxxxxxxxxxxxxxxxxxxx n154
b00000010000000000000000000000000 n155
bxxxxxxxxxxxxxxxxxxxxxxxxxxxxxxxx n156
bxxxxxxxxxxxxxxxxxxxxxxxxxxxxxxxx n157
#25
b0 n2
b0 n40
b0 n66
b0 n77
b0 n114
#30
1!
b00000000000000000000000000000011 t
b1 n2
b1 n40
b1 n66
b1 n77
b1 n114
b00000 n0
b00000000000000000000000000000000 n1
b001100 n3
b0 n4
b00000 n5
b1 n6
b00000000000000000000000000000000 n7
b0 n8
b000 n9
b0 n10
b0 n11
b000 n12
b0 n13
b0 n14
b0 n15
b0 n16
b00000 n17
b1 n18
b00000000000000000000000000000000 n19
b00000000000000000000000000000000 n20
b0 n21
b0 n22
b0 n23
b00 n24
b00000000000000000000000000000000 n25
b00000 n26
b1 n27
b00000 n28
b00000000000000000000000000000000 n29
b00000 n30
b00000000000000000000000000000000 n31
b00000000000000000000000000010011 n32
b00000000000000000000000000000000 n33
b1 n34
b1 n35
b1 n36
b1 n37
b000 n38
b0 n39
b1 n41
b0 n42
b0 n43
b0 n44
b0 n45
b01 n46
b1 n47
b0 n48
b0 n49
b0 n50
b0 n51
b0 n52
b0 n53
b00000000000000000000000000000000 n54
b0 n55
b0 n56
b00000 n57
b00000 n58
b1 n59
b1 n60
b00000000000000000000000000000000 n61
b00000000000000000000000000000000 n62
b00000000000000000000000000000000 n63
b1 n64
b1 n65
b0010 n67
b1 n68
b0 n69
b0 n70
b01 n71
b00000000000000000000000000000000 n72
b00000000000000000000000000000000 n73
b1 n74
b01 n75
b000 n76
b0 n78
b0 n79
b0 n80
b0 n81
b000 n82
b0000000 n83
b00000000000000000000000000000000 n84
b00000000000000000000000000000000 n85
b00000000000000000000000000000000 n86
b00000000000000000000000000000000 n87
b00000000000000000000000000000000 n88
b00000000000000000000000000010011 n89
b0 n90
b0 n91
b0 n92
b0 n93
b0 n94
b0 n95
b00 n96
b00 n97
b0010011 n98
b00000000000000000000000000000000 n99
b00000000000000000000000000000000 n100
b00000 n101
b00000 n102
b1 n103
b1 n104
b00000 n105
b00000 n106
b00000000000000000000000000000000 n107
b00000000000000000000000000000000 n108
b00000 n109
b00000 n110
b00000000000000000000000000000000 n111
b00000000000000000000000000000000 n112
b1 n113
b00000 n115
b00000000000000000000000000000000 n116
b00000 n117
b00000000000000000000000000000000 n118
b00000 n119
b00000000000000000000000000000000 n120
b1 n121
b0 n122
b00000 n123
b00000000000000000000000000000000 n124
b0 n125
bxxxxxxxxxxxxxxxxxxxxxxxxxxxxxxxx n126
bxxxxxxxxxxxxxxxxxxxxxxxxxxxxxxxx n127
bxxxxxxxxxxxxxxxxxxxxxxxxxxxxxxxx n128
bxxxxxxxxxxxxxxxxxxxxxxxxxxxxxxxx n129
bxxxxxxxxxxxxxxxxxxxxxxxxxxxxxxxx n130
bxxxxxxxxxxxxxxxxxxxxxxxxxxxxxxxx n131
bxxxxxxxxxxxxxxxxxxxxxxxxxxxxxxxx n132
bxxxxxxxxxxxxxxxxxxxxxxxxxxxxxxxx n133
bxxxxxxxxxxxxxxxxxxxxxxxxxxxxxxxx n134
bxxxxxxxxxxxxxxxxxxxxxxxxxxxxxxxx n135
bxxxxxxxxxxxxxxxxxxxxxxxxxxxxxxxx n136
bxxxxxxxxxxxxxxxxxxxxxxxxxxxxxxxx n137
bxxxxxxxxxxxxxxxxxxxxxxxxxxxxxxxx n138
bxxxxxxxxxxxxxxxxxxxxxxxxxxxxxxxx n139
bxxxxxxxxxxxxxxxxxxxxxxxxxxxxxxxx n140
bxxxxxxxxxxxxxxxxxxxxxxxxxxxxxxxx n141
bxxxxxxxxxxxxxxxxxxxxxxxxxxxxxxxx n142
bxxxxxxxxxxxxxxxxxxxxxxxxxxxxxxxx n143
bxxxxxxxxxxxxxxxxxxxxxxxxxxxxxxxx n144
bxxxxxxxxxxxxxxxxxxxxxxxxxxxxxxxx n145
bxxxxxxxxxxxxxxxxxxxxxxxxxxxxxxxx n146
bxxxxxxxxxxxxxxxxxxxxxxxxxxxxxxxx n147
bxxxxxxxxxxxxxxxxxxxxxxxxxxxxxxxx n148
bxxxxxxxxxxxxxxxxxxxxxxxxxxxxxxxx n149
bxxxxxxxxxxxxxxxxxxxxxxxxxxxxxxxx n150
bxxxxxxxxxxxxxxxxxxxxxxxxxxxxxxxx n151
bxxxxxxxxxxxxxxxxxxxxxxxxxxxxxxxx n152
bxxxxxxxxxxxxxxxxxxxxxxxxxxxxxxxx n153
bxxxxxxxxxxxxxxxxxxxxxxxxxxxxxxxx n154
b00000010000000000000000000000000 n155
bxxxxxxxxxxxxxxxxxxxxxxxxxxxxxxxx n156
bxxxxxxxxxxxxxxxxxxxxxxxxxxxxxxxx n157
#35
b0 n2
b0 n40
b0 n66
b0 n77
b0 n114
#40
1!
b00000000000000000000000000000100 t
b1 n2
b1 n40
b1 n66
b1 n77
b1 n114
b00000 n0
b00000000000000000000000000000000 n1
b001101 n3
b0 n4
b00000 n5
b1 n6
b00000000000000000000000000000000 n7
b0 n8
b000 n9
b0 n10
b0 n11
b000 n12
b0 n13
b0 n14
b0 n15
b0 n16
b00000 n17
b1 n18
b00000000000000000000000000000000 n19
b00000000000000000000000000000000 n20
b0 n21
b0 n22
b0 n23
b00 n24
b00000000000000000000000000000000 n25
b00000 n26
b1 n27
b00000 n28
b00000000000000000000000000000000 n29
b00000 n30
b00000000000000000000000000000000 n31
b00000000000000000000000000010011 n32
b00000000000000000000000000000000 n33
b1 n34
b1 n35
b1 n36
b1 n37
b000 n38
b0 n39
b1 n41
b0 n42
b0 n43
b0 n44
b0 n45
b01 n46
b1 n47
b0 n48
b0 n49
b0 n50
b0 n51
b0 n52
b0 n53
b00000000000000000000000000000000 n54
b0 n55
b0 n56
b00000 n57
b00000 n58
b1 n59
b1 n60
b00000000000000000000000000000000 n61
b00000000000000000000000000000000 n62
b00000000000000000000000000000000 n63
b1 n64
b1 n65
b0011 n67
b1 n68
b0 n69
b0 n70
b01 n71
b00000000000000000000000000000000 n72
b00000000000000000000000000000000 n73
b1 n74
b01 n75
b000 n76
b0 n78
b0 n79
b0 n80
b0 n81
b000 n82
b0000000 n83
b00000000000000000000000000000000 n84
b00000000000000000000000000000000 n85
b00000000000000000000000000000000 n86
b00000000000000000000000000000000 n87
b00000000000000000000000000000000 n88
b00000000000000000000000000010011 n89
b0 n90
b0 n91
b0 n92
b0 n93
b0 n94
b0 n95
b00 n96
b00 n97
b0010011 n98
b00000000000000000000000000000000 n99
b00000000000000000000000000000000 n100
b00000 n101
b00000 n102
b1 n103
b1 n104
b00000 n105
b00000 n106
b00000000000000000000000000000000 n107
b00000000000000000000000000000000 n108
b00000 n109
b00000 n110
b00000000000000000000000000000000 n111
b00000000000000000000000000000000 n112
b1 n113
b00000 n115
b00000000000000000000000000000000 n116
b00000 n117
b00000000000000000000000000000000 n118
b00000 n119
b00000000000000000000000000000000 n120
b1 n121
b0 n122
b00000 n123
b00000000000000000000000000000000 n124
b0 n125
bxxxxxxxxxxxxxxxxxxxxxxxxxxxxxxxx n126
bxxxxxxxxxxxxxxxxxxxxxxxxxxxxxxxx n127
bxxxxxxxxxxxxxxxxxxxxxxxxxxxxxxxx n128
bxxxxxxxxxxxxxxxxxxxxxxxxxxxxxxxx n129
bxxxxxxxxxxxxxxxxxxxxxxxxxxxxxxxx n130
bxxxxxxxxxxxxxxxxxxxxxxxxxxxxxxxx n131
bxxxxxxxxxxxxxxxxxxxxxxxxxxxxxxxx n132
bxxxxxxxxxxxxxxxxxxxxxxxxxxxxxxxx n133
bxxxxxxxxxxxxxxxxxxxxxxxxxxxxxxxx n134
bxxxxxxxxxxxxxxxxxxxxxxxxxxxxxxxx n135
bxxxxxxxxxxxxxxxxxxxxxxxxxxxxxxxx n136
bxxxxxxxxxxxxxxxxxxxxxxxxxxxxxxxx n137
bxxxxxxxxxxxxxxxxxxxxxxxxxxxxxxxx n138
bxxxxxxxxxxxxxxxxxxxxxxxxxxxxxxxx n139
bxxxxxxxxxxxxxxxxxxxxxxxxxxxxxxxx n140
bxxxxxxxxxxxxxxxxxxxxxxxxxxxxxxxx n141
bxxxxxxxxxxxxxxxxxxxxxxxxxxxxxxxx n142
bxxxxxxxxxxxxxxxxxxxxxxxxxxxxxxxx n143
bxxxxxxxxxxxxxxxxxxxxxxxxxxxxxxxx n144
bxxxxxxxxxxxxxxxxxxxxxxxxxxxxxxxx n145
bxxxxxxxxxxxxxxxxxxxxxxxxxxxxxxxx n146
bxxxxxxxxxxxxxxxxxxxxxxxxxxxxxxxx n147
bxxxxxxxxxxxxxxxxxxxxxxxxxxxxxxxx n148
bxxxxxxxxxxxxxxxxxxxxxxxxxxxxxxxx n149
bxxxxxxxxxxxxxxxxxxxxxxxxxxxxxxxx n150
bxxxxxxxxxxxxxxxxxxxxxxxxxxxxxxxx n151
bxxxxxxxxxxxxxxxxxxxxxxxxxxxxxxxx n152
bxxxxxxxxxxxxxxxxxxxxxxxxxxxxxxxx n153
bxxxxxxxxxxxxxxxxxxxxxxxxxxxxxxxx n154
b00000010000000000000000000000000 n155
bxxxxxxxxxxxxxxxxxxxxxxxxxxxxxxxx n156
bxxxxxxxxxxxxxxxxxxxxxxxxxxxxxxxx n157
#45
b0 n2
b0 n40
b0 n66
b0 n77
b0 n114
