Project/rtl/tb/results/tb_ex_stage.vcd
$date
	Tue May  5 23:37:04 2026
$end
$version
	Icarus Verilog
$end
$timescale
	1ps
$end
$scope module tb_ex_stage $end
$var wire 2 ! wb_sel_o [1:0] $end
$var wire 1 " stall_o $end
$var wire 32 # rs2_data_o [31:0] $end
$var wire 1 $ reg_write_o $end
$var wire 5 % rd_addr_o [4:0] $end
$var wire 2 & pc_src_o [1:0] $end
$var wire 32 ' pc_plus4_o [31:0] $end
$var wire 1 ( mem_write_o $end
$var wire 2 ) mem_size_o [1:0] $end
$var wire 1 * mem_sign_ext_o $end
$var wire 1 + mem_read_o $end
$var wire 32 , jump_target_o [31:0] $end
$var wire 1 - is_jump_o $end
$var wire 1 . flush_o $end
$var wire 32 / conv_result_o [31:0] $end
$var wire 32 0 branch_target_o [31:0] $end
$var wire 32 1 alu_result_o [31:0] $end
$var parameter 32 2 CLK_PERIOD $end
$var parameter 32 3 CONV_LATENCY $end
$var reg 4 4 alu_op_i [3:0] $end
$var reg 2 5 alu_src_a_i [1:0] $end
$var reg 1 6 alu_src_b_i $end
$var reg 3 7 branch_funct3_i [2:0] $end
$var reg 1 8 clk $end
$var reg 1 9 conv_init_i $end
$var reg 1 : conv_start_i $end
$var reg 32 ; imm_i [31:0] $end
$var reg 1 < is_branch_i $end
$var reg 1 = is_jal_i $end
$var reg 1 > is_jalr_i $end
$var reg 1 ? mem_read_i $end
$var reg 1 @ mem_sign_ext_i $end
$var reg 2 A mem_size_i [1:0] $end
$var reg 1 B mem_write_i $end
$var reg 32 C pc_if_i [31:0] $end
$var reg 32 D pc_plus4_i [31:0] $end
$var reg 5 E rd_addr_i [4:0] $end
$var reg 1 F reg_write_i $end
$var reg 5 G rs1_addr_i [4:0] $end
$var reg 32 H rs1_data_i [31:0] $end
$var reg 5 I rs2_addr_i [4:0] $end
$var reg 32 J rs2_data_i [31:0] $end
$var reg 1 K rst_n $end
$var reg 2 L wb_sel_i [1:0] $end
$var integer 32 M busy_cnt [31:0] $end
$var integer 32 N fail_count [31:0] $end
$var integer 32 O pass_count [31:0] $end
$scope module dut $end
$var wire 4 P alu_op_i [3:0] $end
$var wire 32 Q alu_result_o [31:0] $end
$var wire 2 R alu_src_a_i [1:0] $end
$var wire 1 6 alu_src_b_i $end
$var wire 3 S branch_funct3_i [2:0] $end
$var wire 32 T branch_target_o [31:0] $end
$var wire 1 8 clk $end
$var wire 1 U conv_done_o $end
$var wire 1 9 conv_init_i $end
$var wire 32 V conv_result_o [31:0] $end
$var wire 1 : conv_start_i $end
$var wire 1 W conv_start_pulse $end
$var wire 1 . flush_o $end
$var wire 32 X imm_i [31:0] $end
$var wire 1 < is_branch_i $end
$var wire 1 = is_jal_i $end
$var wire 1 > is_jalr_i $end
$var wire 1 Y is_jump $end
$var wire 1 - is_jump_o $end
$var wire 32 Z jump_target_o [31:0] $end
$var wire 1 ? mem_read_i $end
$var wire 1 + mem_read_o $end
$var wire 1 @ mem_sign_ext_i $end
$var wire 1 * mem_sign_ext_o $end
$var wire 2 [ mem_size_i [1:0] $end
$var wire 2 \ mem_size_o [1:0] $end
$var wire 1 B mem_write_i $end
$var wire 1 ( mem_write_o $end
$var wire 32 ] pc_if_i [31:0] $end
$var wire 32 ^ pc_plus4_i [31:0] $end
$var wire 32 _ pc_plus4_o [31:0] $end
$var wire 5 ` rd_addr_i [4:0] $end
$var wire 5 a rd_addr_o [4:0] $end
$var wire 1 F reg_write_i $end
$var wire 1 $ reg_write_o $end
$var wire 5 b rs1_addr_i [4:0] $end
$var wire 32 c rs1_data_i [31:0] $end
$var wire 5 d rs2_addr_i [4:0] $end
$var wire 32 e rs2_data_i [31:0] $end
$var wire 32 f rs2_data_o [31:0] $end
$var wire 1 K rst_n $end
$var wire 1 " stall_o $end
$var wire 2 g wb_sel_i [1:0] $end
$var wire 2 h wb_sel_o [1:0] $end
$var wire 2 i pc_src_o [1:0] $end
$var wire 32 j op_b [31:0] $end
$var wire 1 k ltu $end
$var wire 1 l lt $end
$var wire 32 m jump_target [31:0] $end
$var wire 32 n jalr_target [31:0] $end
$var wire 32 o jalr_raw [31:0] $end
$var wire 32 p jal_target [31:0] $end
$var wire 1 q eq $end
$var wire 2 r conv_status [1:0] $end
$var wire 32 s conv_result [31:0] $end
$var wire 1 t conv_done $end
$var wire 1 u conv_busy $end
$var wire 32 v branch_target [31:0] $end
$var wire 1 w alu_zero $end
$var wire 32 x alu_result [31:0] $end
$var parameter 32 y ACCUM_WIDTH $end
$var parameter 32 z CONV_LATENCY $end
$var parameter 32 { DATA_WIDTH $end
$var reg 1 | branch_taken $end
$var reg 1 } conv_start_i_r $end
$var reg 32 ~ op_a [31:0] $end
$scope module u_alu $end
$var wire 4 !" alu_op [3:0] $end
$var wire 32 "" operand_a [31:0] $end
$var wire 32 #" operand_b [31:0] $end
$var wire 32 $" signed_a [31:0] $end
$var wire 32 %" signed_b [31:0] $end
$var wire 1 w zero $end
$var wire 5 &" shamt [4:0] $end
$var reg 32 '" alu_result [31:0] $end
$upscope $end
$scope module u_conv_pe $end
$var wire 1 8 clk $end
$var wire 1 W conv_start $end
$var wire 2 (" conv_status [1:0] $end
$var wire 1 9 init $end
$var wire 32 )" operand_a [31:0] $end
$var wire 32 *" operand_b [31:0] $end
$var wire 1 K rst_n $end
$var wire 32 +" product [31:0] $end
$var wire 32 ," conv_result [31:0] $end
$var wire 1 t conv_done $end
$var wire 1 u conv_busy $end
$var parameter 32 -" ACCUM_WIDTH $end
$var parameter 2 ." BUSY $end
$var parameter 32 /" CONV_LATENCY $end
$var parameter 33 0" CTR_W $end
$var parameter 32 1" DATA_WIDTH $end
$var parameter 2 2" DONE $end
$var parameter 2 3" IDLE $end
$var reg 32 4" accum_r [31:0] $end
$var reg 4 5" cnt_r [3:0] $end
$var reg 1 6" init_r $end
$var reg 32 7" op_a_r [31:0] $end
$var reg 32 8" op_b_r [31:0] $end
$var reg 32 9" result_r [31:0] $end
$var reg 2 :" state_r [1:0] $end
$upscope $end
$upscope $end
$scope task chk $end
$var reg 32 ;" exp [31:0] $end
$var reg 32 <" got [31:0] $end
$var reg 256 =" lbl [255:0] $end
$upscope $end
$scope task reset_inputs $end
$upscope $end
$upscope $end
$enddefinitions $end
$comment Show the parameter values. $end
$dumpall
b0 3"
b10 2"
b100000 1"
b100 0"
b100 /"
b1 ."
b100000 -"
b100000 {
b100 z
b100000 y
b100 3
b1010 2
$end
#0
$dumpvars
bx ="
bx <"
bx ;"
bx :"
bx 9"
bx 8"
bx 7"
x6"
bx 5"
bx 4"
bx ,"
bx +"
b0 *"
b0 )"
bx ("
b0 '"
b0 &"
b0 %"
b0 $"
b0 #"
b0 ""
b0 !"
b0 ~
x}
0|
b0 x
1w
b100000000 v
xu
xt
bx s
bx r
1q
b100000000 p
b0 o
b0 n
b100000000 m
0l
0k
b0 j
b0 i
b0 h
b0 g
b0 f
b0 e
b10 d
b0 c
b1 b
b11 a
b11 `
b100000100 _
b100000100 ^
b100000000 ]
b10 \
b10 [
b100000000 Z
0Y
b0 X
0W
bx V
xU
b100000000 T
b0 S
b0 R
b0 Q
b0 P
b0 O
b0 N
bx M
b0 L
0K
b0 J
b10 I
b0 H
b1 G
1F
b11 E
b100000100 D
b100000000 C
0B
b10 A
1@
0?
0>
0=
0<
b0 ;
0:
09
08
b0 7
06
b0 5
b0 4
b0 1
b100000000 0
bx /
0.
0-
b100000000 ,
0+
1*
b10 )
0(
b100000100 '
b0 &
b11 %
1$
b0 #
x"
b0 !
$end
#5000
06"
b0 +"
b0 8"
b0 7"
b0 5"
b0 /
b0 V
b0 s
b0 ,"
b0 9"
b0 4"
0"
0u
0U
0t
b0 r
b0 ("
b0 :"
0}
18
#10000
08
#15000
18
#20000
08
#25000
18
#30000
1K
08
#35000
18
#40000
b101 &"
0w
b1111 1
b1111 Q
b1111 x
b1111 '"
b101 j
b101 #"
b101 %"
b1010 n
b1010 $"
b1010 ~
b1010 ""
b101 #
b101 f
b101 J
b101 e
b101 *"
0q
b1010 o
b1010 H
b1010 c
b1010 )"
08
#42000
b0 &"
0w
b1001000000000 1
b1001000000000 Q
b1001000000000 x
b1001000000000 '"
b1000000000000 j
b1000000000000 #"
b1000000000000 %"
b1000000001010 n
b1000000000 $"
b1000000000 ~
b1000000000 ""
b1001000000000 ,
b1001000000000 Z
b1001000000000 m
16
b1 5
b1 R
b1000000001010 o
b1000000000000 ;
b1000000000000 X
b1001000000000 0
b1001000000000 T
b1001000000000 v
b1001000000000 p
b1000000000 C
b1000000000 ]
b1 O
b111001101110010011000110101111101100001001111010111001001110011001100010010110000100000011100110111001001100011010111110110001000111101011100100111001100110010001110100010000000110001001100000010101100110101001111010011000100110101 ="
b1111 ;"
b1111 <"
#44000
0w
b10101011110011011110000000000000 1
b10101011110011011110000000000000 Q
b10101011110011011110000000000000 x
b10101011110011011110000000000000 '"
b0 $"
b0 ~
b0 ""
b10101011110011011110000000000000 j
b10101011110011011110000000000000 #"
b10101011110011011110000000000000 %"
b10101011110011011110000000001010 n
b10101011110011011110001000000000 ,
b10101011110011011110001000000000 Z
b10101011110011011110001000000000 m
b10 5
b10 R
b10101011110011011110001000000000 0
b10101011110011011110001000000000 T
b10101011110011011110001000000000 v
b10101011110011011110000000001010 o
b10101011110011011110001000000000 p
b10101011110011011110000000000000 ;
b10101011110011011110000000000000 X
b10 O
b111001001100011010111110110000100111101010100000100001100101100001000000111001101110010011000110101111101100010001111010110100101101101011011010011101000100000001100000111100000110010001100000011000000101011001100000111100000110001001100000011000000110000 ="
b1001000000000 ;"
b1001000000000 <"
#45000
18
#46000
b1111 &"
0w
b11111111111111111111111111111111 1
b11111111111111111111111111111111 Q
b11111111111111111111111111111111 x
b11111111111111111111111111111111 '"
b1111000011110000111100001111 j
b1111000011110000111100001111 #"
b1111000011110000111100001111 %"
b11110000111100001111000011110000 n
b11110000111100001111000011110000 $"
b11110000111100001111000011110000 ~
b11110000111100001111000011110000 ""
b100000000 ,
b100000000 Z
b100000000 m
06
b0 5
b0 R
b0 ;
b0 X
b1111000011110000111100001111 #
b1111000011110000111100001111 f
0q
b1111000011110000111100001111 J
b1111000011110000111100001111 e
b1111000011110000111100001111 *"
0k
1l
b11110000111100001111000011110000 o
b11110000111100001111000011110000 H
b11110000111100001111000011110000 c
b11110000111100001111000011110000 )"
b100000000 0
b100000000 T
b100000000 v
b100000000 p
b100000000 C
b100000000 ]
b11 O
b11100110111001001100011010111110110000100111101011110100110010101110010011011110010110000100000011100110111001001100011010111110110001000111101011010010110110101101101001000000010100001001100010101010100100100101001 ="
b10101011110011011110000000000000 ;"
b10101011110011011110000000000000 <"
#48000
0w
b11100001111000011110000111100001 1
b11100001111000011110000111100001 Q
b11100001111000011110000111100001 x
b11100001111000011110000111100001 '"
b1 4
b1 P
b1 !"
b100 O
b10000010100010001000100 ="
b11111111111111111111111111111111 ;"
b11111111111111111111111111111111 <"
#50000
0w
b11111111111111111111111111111111 1
b11111111111111111111111111111111 Q
b11111111111111111111111111111111 x
b11111111111111111111111111111111 '"
b1000 4
b1000 P
b1000 !"
b101 O
b10100110101010101000010 ="
b11100001111000011110000111100001 ;"
b11100001111000011110000111100001 <"
08
#52000
1w
b0 1
b0 Q
b0 x
b0 '"
b1001 4
b1001 P
b1001 !"
b110 O
b100111101010010 ="
b11111111111111111111111111111111 ;"
b11111111111111111111111111111111 <"
#54000
0w
b11111111111111111111111111111111 1
b11111111111111111111111111111111 Q
b11111111111111111111111111111111 x
b11111111111111111111111111111111 '"
b101 4
b101 P
b101 !"
b111 O
b10000010100111001000100 ="
b0 ;"
b0 <"
#55000
18
#56000
b1000 &"
0w
b100000000 1
b100000000 Q
b100000000 x
b100000000 '"
b1000 j
b1000 #"
b1000 %"
b0 n
b1 $"
b1 ~
b1 ""
b10 4
b10 P
b10 !"
b1000 #
b1000 f
b1000 J
b1000 e
b1000 *"
1k
b1 o
b1 H
b1 c
b1 )"
b1000 O
b10110000100111101010010 ="
b11111111111111111111111111111111 ;"
b11111111111111111111111111111111 <"
#58000
b11111111000000000000000000000000 n
b11111111000000000000000000000000 $"
b11111111000000000000000000000000 ~
b11111111000000000000000000000000 ""
0w
b111111110000000000000000 1
b111111110000000000000000 Q
b111111110000000000000000 x
b111111110000000000000000 '"
0k
b11111111000000000000000000000000 o
b11111111000000000000000000000000 H
b11111111000000000000000000000000 c
b11111111000000000000000000000000 )"
b110 4
b110 P
b110 !"
b1001 O
b10100110100110001001100001110100010000000110001001111000011110000111000 ="
b100000000 ;"
b100000000 <"
#60000
0w
b11111111111111110000000000000000 1
b11111111111111110000000000000000 Q
b11111111111111110000000000000000 x
b11111111111111110000000000000000 '"
b111 4
b111 P
b111 !"
b1010 O
b1010011010100100100110000111010001000000110110001101111011001110110100101100011011000010110110000100000001111100011111000111000 ="
b111111110000000000000000 ;"
b111111110000000000000000 <"
08
#62000
b101 &"
0w
b1 1
b1 Q
b1 x
b1 '"
b101 j
b101 #"
b101 %"
b10 n
b11 $"
b11 ~
b11 ""
b11 4
b11 P
b11 !"
b101 #
b101 f
b101 J
b101 e
b101 *"
1k
b11 o
b11 H
b11 c
b11 )"
b1011 O
b11101000100000011000010111001001101001011101000110100000100000001111100011111000111000001000000010100001110011011010010110011101101110001000000110001001101001011101000010000001110000011100100110010101110011011001010111001001110110011001010110010000101001 ="
b11111111111111110000000000000000 ;"
b11111111111111110000000000000000 <"
#64000
0w
b1 1
b1 Q
b1 x
b1 '"
b100 4
b100 P
b100 !"
b1100 O
b10100110100110001010100001110100010000000110011001111000011010100100000011100110110100101100111011011100110010101100100 ="
b1 ;"
b1 <"
#65000
18
#66000
b1 &
b1 i
b111 &"
1.
0w
b1110 1
b1110 Q
b1110 x
b1110 '"
b111 j
b111 #"
b111 %"
1|
b110 n
b111 $"
b111 ~
b111 ""
1<
b0 4
b0 P
b0 !"
b111 #
b111 f
1q
0k
0l
b111 J
b111 e
b111 *"
b111 o
b111 H
b111 c
b111 )"
b1101 O
b10100110100110001010100010101010011101000100000001100110011110000110101001000000111010101101110011100110110100101100111011011100110010101100100 ="
#68000
b0 &
b0 i
0w
b1111 1
b1111 Q
b1111 x
b1111 '"
b1000 &"
0.
b1000 j
b1000 #"
b1000 %"
0|
b1000 #
b1000 f
0q
1k
1l
b1000 J
b1000 e
b1000 *"
b1111 O
b10000100100010101010001001000000110010101110001011101010110000101101100001110100010000001110000011000110101111101110011011100100110001100111101011000100111001001100001011011100110001101101000 ="
#70000
b1 &
b1 i
1.
1|
b1 7
b1 S
b10000 O
b1000010010001010101000100100000011011100110111101110100001011010110010101110001011101010110000101101100001110100010000001100110011011000111010101110011011010000011110100110000 ="
b0 ;"
b0 <"
08
#72000
b101 &"
0w
b1000 1
b1000 Q
b1000 x
b1000 '"
1|
b101 j
b101 #"
b101 %"
b10 n
b11 $"
b11 ~
b11 ""
b100 7
b100 S
b101 #
b101 f
b101 J
b101 e
b101 *"
b11 o
b11 H
b11 c
b11 )"
b10001 O
b1000010010011100100010100100000011011100110111101110100001011010110010101110001011101010110000101101100001110100010000001100110011011000111010101110011011010000011110100110001 ="
b1 ;"
b1 <"
#74000
b1 &"
1w
b0 1
b0 Q
b0 x
b0 '"
b1 j
b1 #"
b1 %"
1|
b11111111111111111111111111111110 n
b11111111111111111111111111111111 $"
b11111111111111111111111111111111 ~
b11111111111111111111111111111111 ""
b1 #
b1 f
b1 J
b1 e
b1 *"
0k
b11111111111111111111111111111111 o
b11111111111111111111111111111111 H
b11111111111111111111111111111111 c
b11111111111111111111111111111111 )"
b10010 O
b1000010010011000101010000111010001000000011001100111100001101010010000001110011011010010110011101101110011001010110010000101100001000000111010001100001011010110110010101101110 ="
#75000
18
#76000
b0 &
b0 i
0.
0|
b101 7
b101 S
b10011 O
b100001001001100010101000011101000100000001011010011000100111100001100010010000001110011011010010110011101101110011001010110010000101100001000000111010001100001011010110110010101101110 ="
#78000
b1 &
b1 i
b11111 &"
1.
b11111111111111111111111111111111 j
b11111111111111111111111111111111 #"
b11111111111111111111111111111111 %"
1|
b0 n
b1 $"
b1 ~
b1 ""
b110 7
b110 S
b11111111111111111111111111111111 #
b11111111111111111111111111111111 f
1k
b11111111111111111111111111111111 J
b11111111111111111111111111111111 e
b11111111111111111111111111111111 *"
0q
0l
b1 o
b1 H
b1 c
b1 )"
b10100 O
b1000010010001110100010100111010001000000010110100110001001111100011110100110001001000000111001101101001011001110110111001100101011001000010110000100000010011100100111101010100001000000111010001100001011010110110010101101110 ="
b0 ;"
b0 <"
#80000
b1 &"
b1 j
b1 #"
b1 %"
1|
b11111111111111111111111111111110 n
b11111111111111111111111111111111 $"
b11111111111111111111111111111111 ~
b11111111111111111111111111111111 ""
b111 7
b111 S
b1 #
b1 f
1l
b1 J
b1 e
b1 *"
0q
0k
b11111111111111111111111111111111 o
b11111111111111111111111111111111 H
b11111111111111111111111111111111 c
b11111111111111111111111111111111 )"
b10101 O
b10000100100110001010100010101010011101000100000001100010011110000110000011110000100011001000110010001100100011000100000011101010110111001110011011010010110011101101110011001010110010000101100001000000111010001100001011010110110010101101110 ="
b1 ;"
b1 <"
08
#82000
b101 &"
0w
b1010 1
b1010 Q
b1010 x
b1010 '"
b1001000000 ,
b1001000000 Z
b1001000000 m
b101 j
b101 #"
b101 %"
1|
b1000100 n
b101 $"
b101 ~
b101 ""
b1000000 ;
b1000000 X
b1001000000 0
b1001000000 T
b1001000000 v
b1001000000 p
b1000000000 C
b1000000000 ]
b0 7
b0 S
1<
b101 #
b101 f
1q
0l
b101 J
b101 e
b101 *"
0k
b1000101 o
b101 H
b101 c
b101 )"
b10110 O
b1000010010001110100010101010101001110100010000000110000011110000100011001000110010001100100011000111110001111010011000100100000011101010110111001110011011010010110011101101110011001010110010000101100001000000111010001100001011010110110010101101110 ="
#84000
b11111111111111111111111111111100 n
b111111000 ,
b111111000 Z
b111111000 m
b111111000 0
b111111000 T
b111111000 v
b11111111111111111111111111111101 o
b111111000 p
b11111111111111111111111111111000 ;
b11111111111111111111111111111000 X
b11000 O
b111000001100011010111110111001101110010011000110011110101100010011100100110000101101110011000110110100000100000011011110110111000100000011101000110000101101011011001010110111000100000010000100100010101010001 ="
b1 ;"
b1 <"
#85000
18
#86000
b10 &
b10 i
b0 &"
1w
b0 1
b0 Q
b0 x
b0 '"
1-
1Y
b0 j
b0 #"
b0 %"
0|
b100000000 n
b0 $"
b0 ~
b0 ""
b10000000000 ,
b10000000000 Z
b10000000000 m
1=
0<
b100000000 ;
b100000000 X
b0 #
b0 f
b0 J
b0 e
b0 *"
1q
0k
0l
b100000000 o
b0 H
b0 c
b0 )"
b10000000000 0
b10000000000 T
b10000000000 v
b10000000000 p
b1100000000 C
b1100000000 ]
b11001 O
b1100010011100100110000101101110011000110110100000100000011101000110000101110010011001110110010101110100001110100010000000110000011110000011001000110000001100000010110100111000001111010011000001111000001100010100011000111000 ="
b111111000 ;"
b111111000 <"
#88000
0w
b100000000 1
b100000000 Q
b100000000 x
b100000000 '"
b100000100 n
b100000000 $"
b100000000 ~
b100000000 ""
b100000100 ,
b100000100 Z
b100000100 m
1>
0q
b100000000 H
b100000000 c
b100000000 )"
0=
b100000101 o
b101 ;
b101 X
b100000101 0
b100000101 T
b100000101 v
b100000101 p
b100000000 C
b100000000 ]
b11101 O
b100101001000001010011000011101000100000011010010111001101011111011010100111010101101101011100000011110100110001 ="
b1 ;"
b1 <"
#90000
b1000010000 ,
b1000010000 Z
b1000010000 m
0w
b1000000000 1
b1000000000 Q
b1000000000 x
b1000000000 '"
b1000010000 n
b1000000000 $"
b1000000000 ~
b1000000000 ""
b100010000 0
b100010000 T
b100010000 v
b100010000 p
b10000 ;
b10000 X
b1000010000 o
b1000000000 H
b1000000000 c
b1000000000 )"
b100000 O
b10010100100000101001100010100100011101000100000011010010111001101011111011010100111010101101101011100000011110100110001 ="
b1 ;"
b1 <"
08
#92000
0.
b0 &
b0 i
0w
b11011110101011010000000000000000 1
b11011110101011010000000000000000 Q
b11011110101011010000000000000000 x
b11011110101011010000000000000000 '"
b11011110101011010000000000000000 j
b11011110101011010000000000000000 #"
b11011110101011010000000000000000 %"
0-
0Y
b11011110101011010000000100000000 ,
b11011110101011010000000100000000 Z
b11011110101011010000000100000000 m
b11011110101011010000000000000000 n
b0 $"
b0 ~
b0 ""
16
b10 5
b10 R
0>
b11011110101011010000000100000000 0
b11011110101011010000000100000000 T
b11011110101011010000000100000000 v
b11011110101011010000000100000000 p
b11011110101011010000000000000000 ;
b11011110101011010000000000000000 X
1q
b11011110101011010000000000000000 o
b0 H
b0 c
b0 )"
b100001 O
b100110001010010001000000111010001100001011100100110011101100101011101000011101000100000001010000011000001111000001100100011000000110000001010110011000001111000001100010011000000101001001001100111111000110001001111010011000001111000001100100011000100110000 ="
b1000010000 ;"
b1000010000 <"
#94000
0w
b10000010000000000 1
b10000010000000000 Q
b10000010000000000 x
b10000010000000000 '"
b10000000000 $"
b10000000000 ~
b10000000000 ""
b10000000000000000 j
b10000000000000000 #"
b10000000000000000 %"
b10000000000000000 n
b10000010000000000 ,
b10000010000000000 Z
b10000010000000000 m
b10000000000 C
b10000000000 ]
16
b1 5
b1 R
b10000010000000000 0
b10000010000000000 T
b10000010000000000 v
b10000000000000000 o
b10000010000000000 p
b10000000000000000 ;
b10000000000000000 X
b100010 O
b100110001010101010010010011101000100000011100100110010101110011011101010110110001110100001000000011110100100000011010010110110101101101 ="
b11011110101011010000000000000000 ;"
b11011110101011010000000000000000 <"
#95000
18
#96000
b111 &"
0w
b1101 1
b1101 Q
b1101 x
b1101 '"
b111 j
b111 #"
b111 %"
b110 n
b110 $"
b110 ~
b110 ""
b100000000 ,
b100000000 Z
b100000000 m
b111 #
b111 f
1k
1l
b111 J
b111 e
b111 *"
0q
b110 H
b110 c
b110 )"
06
b0 5
b0 R
b110 o
b0 ;
b0 X
b100000000 0
b100000000 T
b100000000 v
b100000000 p
b100000000 C
b100000000 ]
b100011 O
b1000001010101010100100101010000010000110011101000100000001100000111100000110100001100000011000000101011001100000111100000110001001100000011000000110000001100000011110100110000011110000011000100110000001101000011000000110000 ="
b10000010000000000 ;"
b10000010000000000 <"
#100000
1W
19
1:
08
#105000
0W
1"
1u
b1 r
b1 ("
b1 :"
16"
b101010 +"
b111 8"
b110 7"
1}
18
#110000
b1 M
0:
08
#115000
0}
b1 5"
18
#120000
b10 M
08
#125000
b10 5"
18
#130000
b11 M
08
#135000
b11 5"
18
#140000
b100 M
08
#145000
0"
0u
1U
1t
b10 r
b10 ("
b10 :"
b101010 /
b101010 V
b101010 s
b101010 ,"
b101010 9"
18
#150000
b0 &"
1w
b0 1
b0 Q
b0 x
b0 '"
b0 j
b0 #"
b0 %"
b0 n
b0 $"
b0 ~
b0 ""
09
b0 #
b0 f
1q
0k
0l
b0 J
b0 e
b0 *"
b0 o
b0 H
b0 c
b0 )"
b100110 O
b11100110111010001100001011011000110110000100000011001000110010101100001011100110111001101100101011100100111010001100101011001000010000001100001011001100111010001100101011100100010000001000100010011110100111001000101 ="
b0 ;"
b0 <"
08
#152000
1.
b10 &
b10 i
1-
1Y
1=
b100111 O
b1110011011101000110000101101100011011000011110100110000001000000111011101101000011001010110111000100000011000110110111101101110011101100101111101110011011101000110000101110010011101000011110100110000 ="
#154000
b0 ,
b0 Z
b0 m
1>
0=
b101000 O
b10010100100000101001100001110100010000000100000011010010111001101011111011010100111010101101101011100000011110100110001 ="
b1 ;"
b1 <"
#155000
0U
0t
b0 r
b0 ("
b0 :"
b101010 4"
18
#156000
0.
b0 &
b0 i
0-
0Y
b100000000 ,
b100000000 Z
b100000000 m
0>
b101001 O
b10010100100000101001100010100100011101000100000011010010111001101011111011010100111010101101101011100000011110100110001 ="
#158000
b1 &
b1 i
1.
1|
1<
b101010 O
b101001000101101011101000111100101110000011001010011101000100000011010010111001101011111011010100111010101101101011100000011110100110000 ="
b0 ;"
b0 <"
#160000
b0 &
b0 i
0w
b11001010111111101011111011101111 1
b11001010111111101011111011101111 Q
b11001010111111101011111011101111 x
b11001010111111101011111011101111 '"
b1111 &"
0.
b11001010111111101011111011101111 j
b11001010111111101011111011101111 #"
b11001010111111101011111011101111 %"
0|
b11001010111111101011111011101111 #
b11001010111111101011111011101111 f
0q
1k
b11001010111111101011111011101111 J
b11001010111111101011111011101111 e
b11001010111111101011111011101111 *"
b10100001000 '
b10100001000 _
b10100001000 D
b10100001000 ^
b1111 %
b1111 a
b1111 E
b1111 `
b1 !
b1 h
b1 L
b1 g
0*
0@
b1 )
b1 \
b1 A
b1 [
1+
1?
0<
b101011 O
b100010101010001001000000111010001100001011010110110010101101110001110100010000001101001011100110101111101101010011101010110110101110000001111010011000000100000001010000110111001101111011101000010000001100001001000000110101001110101011011010111000000101001 ="
08
#162000
b110100 O
b11001001011111011001000110000101110100011000010010000001110000011000010111001101110011001011010111010001101000011100100110111101110101011001110110100000100000001010000111001101110100011011110111001001100101001000000110010001100001011101000110000100101001 ="
b11001010111111101011111011101111 ;"
b11001010111111101011111011101111 <"
