Project/rtl/tb/results/tb_mem_stage.vcd
$date
	Tue May  5 12:15:07 2026
$end
$version
	Icarus Verilog
$end
$timescale
	1ps
$end
$scope module tb_mem_stage $end
$var wire 2 ! wb_sel_o [1:0] $end
$var wire 1 " reg_write_o $end
$var wire 5 # rd_addr_o [4:0] $end
$var wire 32 $ pc_plus4_o [31:0] $end
$var wire 32 % load_data_o [31:0] $end
$var wire 1 & is_jump_o $end
$var wire 32 ' conv_result_o [31:0] $end
$var wire 32 ( alu_result_o [31:0] $end
$var parameter 32 ) ACCUM_WIDTH $end
$var parameter 32 * CLK_PERIOD $end
$var reg 32 + alu_result_i [31:0] $end
$var reg 1 , clk $end
$var reg 32 - conv_result_i [31:0] $end
$var reg 1 . is_jump_i $end
$var reg 1 / mem_read_i $end
$var reg 1 0 mem_sign_ext_i $end
$var reg 2 1 mem_size_i [1:0] $end
$var reg 1 2 mem_write_i $end
$var reg 32 3 pc_plus4_i [31:0] $end
$var reg 5 4 rd_addr_i [4:0] $end
$var reg 1 5 reg_write_i $end
$var reg 32 6 rs2_data_i [31:0] $end
$var reg 1 7 rst_n $end
$var reg 2 8 wb_sel_i [1:0] $end
$var integer 32 9 fail_count [31:0] $end
$var integer 32 : pass_count [31:0] $end
$scope module dut $end
$var wire 32 ; alu_result_i [31:0] $end
$var wire 32 < alu_result_o [31:0] $end
$var wire 1 , clk $end
$var wire 32 = conv_result_i [31:0] $end
$var wire 32 > conv_result_o [31:0] $end
$var wire 1 . is_jump_i $end
$var wire 1 & is_jump_o $end
$var wire 32 ? load_data_o [31:0] $end
$var wire 1 / mem_read_i $end
$var wire 1 0 mem_sign_ext_i $end
$var wire 2 @ mem_size_i [1:0] $end
$var wire 1 2 mem_write_i $end
$var wire 32 A pc_plus4_i [31:0] $end
$var wire 32 B pc_plus4_o [31:0] $end
$var wire 5 C rd_addr_i [4:0] $end
$var wire 5 D rd_addr_o [4:0] $end
$var wire 1 5 reg_write_i $end
$var wire 1 " reg_write_o $end
$var wire 32 E rs2_data_i [31:0] $end
$var wire 1 7 rst_n $end
$var wire 2 F wb_sel_i [1:0] $end
$var wire 2 G wb_sel_o [1:0] $end
$var wire 32 H load_data [31:0] $end
$var parameter 32 I ACCUM_WIDTH $end
$var parameter 64 J DMEM_HEX $end
$scope module u_dmem $end
$var wire 1 , clk $end
$var wire 32 K raddr [31:0] $end
$var wire 8 L rd_byte [7:0] $end
$var wire 2 M rsize [1:0] $end
$var wire 1 0 sign_ext $end
$var wire 32 N waddr [31:0] $end
$var wire 32 O wdata [31:0] $end
$var wire 1 2 we $end
$var wire 2 P wsize [1:0] $end
$var wire 12 Q w_idx [11:0] $end
$var wire 32 R rd_word [31:0] $end
$var wire 16 S rd_half [15:0] $end
$var wire 12 T r_idx [11:0] $end
$var parameter 32 U ADDR_WIDTH $end
$var parameter 32 V DEPTH_BYTES $end
$var parameter 64 W HEX_FILE $end
$var parameter 32 X ZERO_FILL $end
$var reg 32 Y rdata [31:0] $end
$var integer 32 Z i [31:0] $end
$upscope $end
$upscope $end
$scope task chk $end
$var reg 32 [ exp [31:0] $end
$var reg 32 \ got [31:0] $end
$var reg 256 ] lbl [255:0] $end
$upscope $end
$scope task do_load $end
$var reg 32 ^ addr [31:0] $end
$var reg 1 _ sign_ext $end
$var reg 2 ` size [1:0] $end
$upscope $end
$scope task do_store $end
$var reg 32 a addr [31:0] $end
$var reg 32 b data [31:0] $end
$var reg 2 c size [1:0] $end
$upscope $end
$scope task reset_inputs $end
$upscope $end
$upscope $end
$enddefinitions $end
$comment Show the parameter values. $end
$dumpall
b0 X
b110010001100001011101000110000100101110011010000110010101111000 W
b1000000000000 V
b1100 U
b110010001100001011101000110000100101110011010000110010101111000 J
b100000 I
b1010 *
b100000 )
$end
#0
$dumpvars
bx c
bx b
bx a
bx `
x_
bx ^
bx ]
bx \
bx [
b1000000000000 Z
b0 Y
b0 T
b0 S
b0 R
b0 Q
b10 P
b0 O
b0 N
b10 M
b0 L
b0 K
b0 H
b0 G
b0 F
b0 E
b111 D
b111 C
b1000000100 B
b1000000100 A
b10 @
b0 ?
b11001010111111100000000000000000 >
b11001010111111100000000000000000 =
b0 <
b0 ;
b0 :
b0 9
b0 8
07
b0 6
15
b111 4
b1000000100 3
02
b10 1
10
0/
0.
b11001010111111100000000000000000 -
0,
b0 +
b0 (
b11001010111111100000000000000000 '
0&
b0 %
b1000000100 $
b111 #
1"
b0 !
$end
#5000
1,
#10000
0,
#15000
1,
#20000
0,
#25000
1,
#30000
17
0,
#35000
1,
#40000
b10 c
b11011110101011011011111011101111 b
b10000 a
0,
#45000
1,
#50000
b10000 Q
b10000 T
12
b11011110101011011011111011101111 6
b11011110101011011011111011101111 E
b11011110101011011011111011101111 O
b10000 (
b10000 <
b10000 +
b10000 ;
b10000 K
b10000 N
0,
#55000
b11011110101011011011111011101111 %
b11011110101011011011111011101111 ?
b11011110101011011011111011101111 H
b11011110101011011011111011101111 Y
b11101111 L
b1011111011101111 S
b11011110101011011011111011101111 R
1,
#60000
1/
1_
b10 `
b10000 ^
02
0,
#61000
b11001010111111100001001000110100 b
b10100 a
b1 :
b10011000101011100111010001000000111001001100101011000010110010000100000011000100110000101100011011010110010000000110000011110000100010001000101010000010100010001000010010001010100010101000110 ]
b11011110101011011011111011101111 [
b11011110101011011011111011101111 \
#65000
1,
#70000
b0 %
b0 ?
b0 H
b0 Y
b10100 Q
b0 L
b0 S
b0 R
b10100 T
0/
12
b11001010111111100001001000110100 6
b11001010111111100001001000110100 E
b11001010111111100001001000110100 O
b10100 (
b10100 <
b10100 +
b10100 ;
b10100 K
b10100 N
0,
#75000
b11001010111111100001001000110100 %
b11001010111111100001001000110100 ?
b11001010111111100001001000110100 H
b11001010111111100001001000110100 Y
b110100 L
b1001000110100 S
b11001010111111100001001000110100 R
1,
#80000
1/
b10100 ^
02
0,
#81000
b1 c
b1000101010111100 b
b100000 a
b10 :
b10011000101011100111010001000000111001001100101011000010110010000100000011000100110000101100011011010110010000000110000011110000100001101000001010001100100010100110001001100100011001100110100 ]
b11001010111111100001001000110100 [
b11001010111111100001001000110100 \
#85000
1,
#90000
b0 %
b0 ?
b0 H
b0 Y
b100000 Q
b0 L
b0 S
b0 R
b100000 T
b1 1
b1 @
b1 M
b1 P
0/
12
b1000101010111100 6
b1000101010111100 E
b1000101010111100 O
b100000 (
b100000 <
b100000 +
b100000 ;
b100000 K
b100000 N
0,
#95000
b11111111111111111000101010111100 %
b11111111111111111000101010111100 ?
b11111111111111111000101010111100 H
b11111111111111111000101010111100 Y
b10111100 L
b1000101010111100 S
b1000101010111100 R
1,
#100000
1/
b1 `
b100000 ^
02
0,
#101000
b1001000110100 b
b100010 a
b11 :
b10011000100100000111010001000000011000001111000001110000100000101000010010000110010000001110011011010010110011101101110001011010110010101111000011101000110010101101110011001000110010101100100 ]
b11111111111111111000101010111100 [
b11111111111111111000101010111100 \
#105000
1,
#110000
b0 %
b0 ?
b0 H
b0 Y
b100010 Q
b0 L
b0 S
b0 R
b100010 T
0/
12
b1001000110100 6
b1001000110100 E
b1001000110100 O
b100010 (
b100010 <
b100010 +
b100010 ;
b100010 K
b100010 N
0,
#115000
b1001000110100 %
b1001000110100 ?
b1001000110100 H
b1001000110100 Y
b110100 L
b1001000110100 S
b1001000110100 R
1,
#120000
1/
b100010 ^
02
0,
#121000
b1111111011011100 b
b110000 a
b100 :
b1001100010010000011101000100000001100000111100000110001001100100011001100110100001000000111000001101111011100110110100101110100011010010111011001100101 ]
b1001000110100 [
b1001000110100 \
#125000
1,
#130000
b0 %
b0 ?
b0 H
b0 Y
b110000 Q
b0 L
b0 S
b0 R
b110000 T
0/
12
b1111111011011100 6
b1111111011011100 E
b1111111011011100 O
b110000 (
b110000 <
b110000 +
b110000 ;
b110000 K
b110000 N
0,
#135000
b11111111111111111111111011011100 %
b11111111111111111111111011011100 ?
b11111111111111111111111011011100 H
b11111111111111111111111011011100 Y
b11011100 L
b1111111011011100 S
b1111111011011100 R
1,
#140000
b1111111011011100 %
b1111111011011100 ?
b1111111011011100 H
b1111111011011100 Y
00
1/
0_
b110000 ^
02
0,
#141000
b0 c
b11111111 b
b1000000 a
b101 :
b1001100010010000101010100111010001000000011000001111000010001100100010101000100010000110010000001111010011001010111001001101111001011010110010101111000011101000110010101101110011001000110010101100100 ]
b1111111011011100 [
b1111111011011100 \
#145000
1,
#150000
b0 %
b0 ?
b0 H
b0 Y
b1000000 Q
b0 L
b0 S
b0 R
b1000000 T
b0 1
b0 @
b0 M
b0 P
0/
12
b11111111 6
b11111111 E
b11111111 O
b1000000 (
b1000000 <
b1000000 +
b1000000 ;
b1000000 K
b1000000 N
0,
#155000
b11111111 %
b11111111 ?
b11111111 H
b11111111 Y
b11111111 L
b11111111 S
b11111111 R
1,
#160000
b11111111111111111111111111111111 %
b11111111111111111111111111111111 ?
b11111111111111111111111111111111 H
b11111111111111111111111111111111 Y
10
1/
1_
b0 `
b1000000 ^
02
0,
#161000
b1111111 b
b1000001 a
b110 :
b1001100010000100011101000100000001100000111100001000110010001100010000001110011011010010110011101101110001011010110010101111000011101000110010101101110011001000110010101100100001000000111010001101111001000000010110100110001 ]
b11111111111111111111111111111111 [
b11111111111111111111111111111111 \
#165000
1,
#170000
b0 %
b0 ?
b0 H
b0 Y
b1000001 Q
b0 L
b0 S
b0 R
b1000001 T
0/
12
b1111111 6
b1111111 E
b1111111 O
b1000001 (
b1000001 <
b1000001 +
b1000001 ;
b1000001 K
b1000001 N
0,
#175000
b1111111 %
b1111111 ?
b1111111 H
b1111111 Y
b1111111 L
b1111111 S
b1111111 R
1,
#180000
1/
b1000001 ^
02
0,
#181000
b10101011 b
b1010000 a
b111 :
b100110001000010001110100010000000110000011110000011011101000110001000000111000001101111011100110110100101110100011010010111011001100101 ]
b1111111 [
b1111111 \
#185000
1,
#190000
b0 %
b0 ?
b0 H
b0 Y
b1010000 Q
b0 L
b0 S
b0 R
b1010000 T
0/
12
b10101011 6
b10101011 E
b10101011 O
b1010000 (
b1010000 <
b1010000 +
b1010000 ;
b1010000 K
b1010000 N
0,
#195000
b11111111111111111111111110101011 %
b11111111111111111111111110101011 ?
b11111111111111111111111110101011 H
b11111111111111111111111110101011 Y
b10101011 L
b10101011 S
b10101011 R
1,
#200000
b10101011 %
b10101011 ?
b10101011 H
b10101011 Y
00
1/
0_
b1010000 ^
02
0,
#201000
b10 c
b10101010101010101010101010101010 b
b1100000 a
b1000 :
b100110001000010010101010011101000100000001100000111100001000001010000100010000001111010011001010111001001101111001011010110010101111000011101000110010101101110011001000110010101100100 ]
b10101011 [
b10101011 \
#205000
1,
#210000
b0 %
b0 ?
b0 H
b0 Y
b1100000 Q
b0 L
b0 S
b0 R
b1100000 T
b10 1
b10 @
b10 M
b10 P
0/
12
b10101010101010101010101010101010 6
b10101010101010101010101010101010 E
b10101010101010101010101010101010 O
b1100000 (
b1100000 <
b1100000 +
b1100000 ;
b1100000 K
b1100000 N
0,
#215000
b10101010101010101010101010101010 %
b10101010101010101010101010101010 ?
b10101010101010101010101010101010 H
b10101010101010101010101010101010 Y
b10101010 L
b1010101010101010 S
b10101010101010101010101010101010 R
1,
#220000
b10111011101110111011101110111011 b
b1100100 a
02
0,
#225000
1,
#230000
b0 %
b0 ?
b0 H
b0 Y
b1100100 Q
b0 L
b0 S
b0 R
b1100100 T
12
b10111011101110111011101110111011 6
b10111011101110111011101110111011 E
b10111011101110111011101110111011 O
b1100100 (
b1100100 <
b1100100 +
b1100100 ;
b1100100 K
b1100100 N
0,
#235000
b10111011101110111011101110111011 %
b10111011101110111011101110111011 ?
b10111011101110111011101110111011 H
b10111011101110111011101110111011 Y
b10111011 L
b1011101110111011 S
b10111011101110111011101110111011 R
1,
#240000
b11001100110011001100110011001100 b
b1101000 a
02
0,
#245000
1,
#250000
b0 %
b0 ?
b0 H
b0 Y
b1101000 Q
b0 L
b0 S
b0 R
b1101000 T
12
b11001100110011001100110011001100 6
b11001100110011001100110011001100 E
b11001100110011001100110011001100 O
b1101000 (
b1101000 <
b1101000 +
b1101000 ;
b1101000 K
b1101000 N
0,
#255000
b11001100110011001100110011001100 %
b11001100110011001100110011001100 ?
b11001100110011001100110011001100 H
b11001100110011001100110011001100 Y
b11001100 L
b1100110011001100 S
b11001100110011001100110011001100 R
1,
#260000
b10101010101010101010101010101010 %
b10101010101010101010101010101010 ?
b10101010101010101010101010101010 H
b10101010101010101010101010101010 Y
b1100000 Q
b10101010 L
b1010101010101010 S
b10101010101010101010101010101010 R
b1100000 T
10
1/
b1100000 (
b1100000 <
b1100000 +
b1100000 ;
b1100000 K
b1100000 N
1_
b10 `
b1100000 ^
02
0,
#261000
b10111011101110111011101110111011 %
b10111011101110111011101110111011 ?
b10111011101110111011101110111011 H
b10111011101110111011101110111011 Y
b1100100 Q
b10111011 L
b1011101110111011 S
b10111011101110111011101110111011 R
b1100100 T
b1100100 (
b1100100 <
b1100100 +
b1100100 ;
b1100100 K
b1100100 N
b1100100 ^
b1001 :
b11000010110010001100100011100100010000000110000011110000011011000110000 ]
b10101010101010101010101010101010 [
b10101010101010101010101010101010 \
#262000
b11001100110011001100110011001100 %
b11001100110011001100110011001100 ?
b11001100110011001100110011001100 H
b11001100110011001100110011001100 Y
b1101000 Q
b11001100 L
b1100110011001100 S
b11001100110011001100110011001100 R
b1101000 T
b1101000 (
b1101000 <
b1101000 +
b1101000 ;
b1101000 K
b1101000 N
b1101000 ^
b1010 :
b11000010110010001100100011100100010000000110000011110000011011000110100 ]
b10111011101110111011101110111011 [
b10111011101110111011101110111011 \
#263000
b10010001101000101011001111000 b
b1110000 a
b1011 :
b11000010110010001100100011100100010000000110000011110000011011000111000 ]
b11001100110011001100110011001100 [
b11001100110011001100110011001100 \
#265000
1,
#270000
b0 %
b0 ?
b0 H
b0 Y
b1110000 Q
b0 L
b0 S
b0 R
b1110000 T
0/
12
b10010001101000101011001111000 6
b10010001101000101011001111000 E
b10010001101000101011001111000 O
b1110000 (
b1110000 <
b1110000 +
b1110000 ;
b1110000 K
b1110000 N
0,
#275000
b10010001101000101011001111000 %
b10010001101000101011001111000 ?
b10010001101000101011001111000 H
b10010001101000101011001111000 Y
b1111000 L
b101011001111000 S
b10010001101000101011001111000 R
1,
#280000
02
0,
#285000
1,
#290000
b11011110101011011101111010101101 6
b11011110101011011101111010101101 E
b11011110101011011101111010101101 O
0,
#295000
1,
#300000
1/
b1110000 ^
0,
#301000
b11011110101011011011111011101111 b
b10000000 a
b1100 :
b110110101100101011011010101111101110111011100100110100101110100011001010011110100110000001000000110010001101001011001000010000001101110011011110111010000100000011011110111011001100101011100100111011101110010011010010111010001100101 ]
b10010001101000101011001111000 [
b10010001101000101011001111000 \
#305000
1,
#310000
b0 %
b0 ?
b0 H
b0 Y
b10000000 Q
b0 L
b0 S
b0 R
b10000000 T
0/
12
b11011110101011011011111011101111 6
b11011110101011011011111011101111 E
b11011110101011011011111011101111 O
b10000000 (
b10000000 <
b10000000 +
b10000000 ;
b10000000 K
b10000000 N
0,
#315000
b11011110101011011011111011101111 %
b11011110101011011011111011101111 ?
b11011110101011011011111011101111 H
b11011110101011011011111011101111 Y
b11101111 L
b1011111011101111 S
b11011110101011011011111011101111 R
1,
#320000
b0 c
b11001100 b
b10000100 a
02
0,
#325000
1,
#330000
b0 %
b0 ?
b0 H
b0 Y
b10000100 Q
b0 L
b0 S
b0 R
b10000100 T
b0 1
b0 @
b0 M
b0 P
12
b11001100 6
b11001100 E
b11001100 O
b10000100 (
b10000100 <
b10000100 +
b10000100 ;
b10000100 K
b10000100 N
0,
#335000
b11111111111111111111111111001100 %
b11111111111111111111111111001100 ?
b11111111111111111111111111001100 H
b11111111111111111111111111001100 Y
b11001100 L
b11001100 S
b11001100 R
1,
#340000
b11011110101011011011111011101111 %
b11011110101011011011111011101111 ?
b11011110101011011011111011101111 H
b11011110101011011011111011101111 Y
b10000000 Q
b11101111 L
b1011111011101111 S
b11011110101011011011111011101111 R
b10000000 T
b10 1
b10 @
b10 M
b10 P
1/
b10000000 (
b10000000 <
b10000000 +
b10000000 ;
b10000000 K
b10000000 N
b10000000 ^
02
0,
#341000
b11001100 %
b11001100 ?
b11001100 H
b11001100 Y
b10000100 Q
b11001100 L
b11001100 S
b11001100 R
b10000100 T
00
b0 1
b0 @
b0 M
b0 P
b10000100 (
b10000100 <
b10000100 +
b10000100 ;
b10000100 K
b10000100 N
0_
b0 `
b10000100 ^
b1101 :
b10000001100001011101000010000000110000011110000011100000110000001000000110100101101110011101000110000101100011011101000010000001100001011001100111010001100101011100100010000001010011010000100010000001100001011101000010000000110000011110000011100000110100 ]
b11011110101011011011111011101111 [
b11011110101011011011111011101111 \
#342000
b0 %
b0 ?
b0 H
b0 Y
b1000110100 Q
b0 L
b0 S
b0 R
b1000110100 T
1&
1.
b10 !
b10 G
b10 8
b10 F
b1100001000 $
b1100001000 B
b1100001000 3
b1100001000 A
b10011 #
b10011 D
b10011 4
b10011 C
b11111010110011101100101011111110 '
b11111010110011101100101011111110 >
b11111010110011101100101011111110 -
b11111010110011101100101011111110 =
10
b10 1
b10 @
b10 M
b10 P
0/
b0 6
b0 E
b0 O
b10101011110011010001001000110100 (
b10101011110011010001001000110100 <
b10101011110011010001001000110100 +
b10101011110011010001001000110100 ;
b10101011110011010001001000110100 K
b10101011110011010001001000110100 N
b1110 :
b101001101000010001000000110000101110100001000000011000001111000001110000011010000100000001111010010000000110000011110000100001101000011 ]
b11001100 [
b11001100 \
#344000
b10101 :
b110100101110011010111110110101001110101011011010111000000100000011100000110000101110011011100110010110101110100011010000111001001101111011101010110011101101000 ]
b1 [
b1 \
