Project/dump.vcd
$date
	Tue May  5 22:58:04 2026
$end
$version
	Icarus Verilog
$end
$timescale
	1ps
$end
$scope module tb_riscv_top $end
$var parameter 32 ! CLK_PERIOD $end
$var parameter 32 " CONV_LATENCY $end
$var parameter 32 # TIMEOUT_CYCLES $end
$var reg 1 $ clk $end
$var reg 1 % rst_n $end
$var integer 32 & cycle_num [31:0] $end
$var integer 32 ' fail_cnt [31:0] $end
$var integer 32 ( pass_cnt [31:0] $end
$var integer 32 ) wdog [31:0] $end
$scope module dut $end
$var wire 1 $ clk $end
$var wire 1 % rst_n $end
$var wire 1 * wb_we $end
$var wire 32 + wb_data [31:0] $end
$var wire 5 , wb_addr [4:0] $end
$var wire 1 - stall $end
$var wire 2 . pc_src [1:0] $end
$var wire 32 / pc_plus4_if [31:0] $end
$var wire 32 0 pc_if_out [31:0] $end
$var wire 32 1 pc_fetch [31:0] $end
$var wire 2 2 mem_wb_sel [1:0] $end
$var wire 1 3 mem_reg_write $end
$var wire 5 4 mem_rd_addr [4:0] $end
$var wire 32 5 mem_pc_plus4 [31:0] $end
$var wire 32 6 mem_load_data [31:0] $end
$var wire 1 7 mem_is_jump $end
$var wire 32 8 mem_conv_result [31:0] $end
$var wire 32 9 mem_alu_result [31:0] $end
$var wire 32 : jump_target [31:0] $end
$var wire 32 ; imem_instr [31:0] $end
$var wire 2 < id_wb_sel [1:0] $end
$var wire 32 = id_rs2_data [31:0] $end
$var wire 5 > id_rs2_addr [4:0] $end
$var wire 32 ? id_rs1_data [31:0] $end
$var wire 5 @ id_rs1_addr [4:0] $end
$var wire 1 A id_reg_write $end
$var wire 5 B id_rd_addr [4:0] $end
$var wire 32 C id_pc_plus4 [31:0] $end
$var wire 32 D id_pc_if [31:0] $end
$var wire 1 E id_mem_write $end
$var wire 2 F id_mem_size [1:0] $end
$var wire 1 G id_mem_sign_ext $end
$var wire 1 H id_mem_read $end
$var wire 1 I id_is_jalr $end
$var wire 1 J id_is_jal $end
$var wire 1 K id_is_branch $end
$var wire 32 L id_imm [31:0] $end
$var wire 1 M id_conv_start $end
$var wire 1 N id_conv_init $end
$var wire 3 O id_branch_funct3 [2:0] $end
$var wire 1 P id_alu_src_b $end
$var wire 2 Q id_alu_src_a [1:0] $end
$var wire 4 R id_alu_op [3:0] $end
$var wire 1 S flush $end
$var wire 2 T ex_wb_sel [1:0] $end
$var wire 32 U ex_rs2_data [31:0] $end
$var wire 1 V ex_reg_write $end
$var wire 5 W ex_rd_addr [4:0] $end
$var wire 32 X ex_pc_plus4 [31:0] $end
$var wire 1 Y ex_mem_write $end
$var wire 2 Z ex_mem_size [1:0] $end
$var wire 1 [ ex_mem_sign_ext $end
$var wire 1 \ ex_mem_read $end
$var wire 1 ] ex_is_jump $end
$var wire 32 ^ ex_conv_result [31:0] $end
$var wire 32 _ ex_alu_result [31:0] $end
$var wire 32 ` branch_target [31:0] $end
$var parameter 32 a ACCUM_WIDTH $end
$var parameter 32 b CONV_LATENCY $end
$var parameter 32 c DATA_WIDTH $end
$var parameter 64 d DMEM_HEX $end
$var parameter 88 e IMEM_HEX $end
$var parameter 32 f NOP $end
$var reg 32 g ex_mem_alu_result [31:0] $end
$var reg 32 h ex_mem_conv_result [31:0] $end
$var reg 1 i ex_mem_is_jump $end
$var reg 1 j ex_mem_mem_read $end
$var reg 1 k ex_mem_mem_sign_ext $end
$var reg 2 l ex_mem_mem_size [1:0] $end
$var reg 1 m ex_mem_mem_write $end
$var reg 32 n ex_mem_pc_plus4 [31:0] $end
$var reg 5 o ex_mem_rd_addr [4:0] $end
$var reg 1 p ex_mem_reg_write $end
$var reg 32 q ex_mem_rs2_data [31:0] $end
$var reg 2 r ex_mem_wb_sel [1:0] $end
$var reg 4 s id_ex_alu_op [3:0] $end
$var reg 2 t id_ex_alu_src_a [1:0] $end
$var reg 1 u id_ex_alu_src_b $end
$var reg 3 v id_ex_branch_funct3 [2:0] $end
$var reg 1 w id_ex_conv_init $end
$var reg 1 x id_ex_conv_start $end
$var reg 32 y id_ex_imm [31:0] $end
$var reg 1 z id_ex_is_branch $end
$var reg 1 { id_ex_is_jal $end
$var reg 1 | id_ex_is_jalr $end
$var reg 1 } id_ex_mem_read $end
$var reg 1 ~ id_ex_mem_sign_ext $end
$var reg 2 !" id_ex_mem_size [1:0] $end
$var reg 1 "" id_ex_mem_write $end
$var reg 32 #" id_ex_pc_if [31:0] $end
$var reg 32 $" id_ex_pc_plus4 [31:0] $end
$var reg 5 %" id_ex_rd_addr [4:0] $end
$var reg 1 &" id_ex_reg_write $end
$var reg 5 '" id_ex_rs1_addr [4:0] $end
$var reg 32 (" id_ex_rs1_data [31:0] $end
$var reg 5 )" id_ex_rs2_addr [4:0] $end
$var reg 32 *" id_ex_rs2_data [31:0] $end
$var reg 2 +" id_ex_wb_sel [1:0] $end
$var reg 32 ," if_id_instr [31:0] $end
$var reg 32 -" if_id_pc [31:0] $end
$var reg 32 ." if_id_pc4 [31:0] $end
$var reg 32 /" mem_wb_alu_result [31:0] $end
$var reg 32 0" mem_wb_conv_result [31:0] $end
$var reg 1 1" mem_wb_is_jump $end
$var reg 32 2" mem_wb_load_data [31:0] $end
$var reg 32 3" mem_wb_pc_plus4 [31:0] $end
$var reg 5 4" mem_wb_rd_addr [4:0] $end
$var reg 1 5" mem_wb_reg_write $end
$var reg 2 6" mem_wb_wb_sel [1:0] $end
$scope module u_ex $end
$var wire 4 7" alu_op_i [3:0] $end
$var wire 32 8" alu_result_o [31:0] $end
$var wire 2 9" alu_src_a_i [1:0] $end
$var wire 1 u alu_src_b_i $end
$var wire 3 :" branch_funct3_i [2:0] $end
$var wire 32 ;" branch_target_o [31:0] $end
$var wire 1 $ clk $end
$var wire 1 w conv_init_i $end
$var wire 32 <" conv_result_o [31:0] $end
$var wire 1 x conv_start_i $end
$var wire 1 S flush_o $end
$var wire 32 =" imm_i [31:0] $end
$var wire 1 z is_branch_i $end
$var wire 1 { is_jal_i $end
$var wire 1 | is_jalr_i $end
$var wire 1 >" is_jump $end
$var wire 1 ] is_jump_o $end
$var wire 32 ?" jump_target_o [31:0] $end
$var wire 1 } mem_read_i $end
$var wire 1 \ mem_read_o $end
$var wire 1 ~ mem_sign_ext_i $end
$var wire 1 [ mem_sign_ext_o $end
$var wire 2 @" mem_size_i [1:0] $end
$var wire 2 A" mem_size_o [1:0] $end
$var wire 1 "" mem_write_i $end
$var wire 1 Y mem_write_o $end
$var wire 32 B" pc_if_i [31:0] $end
$var wire 32 C" pc_plus4_i [31:0] $end
$var wire 32 D" pc_plus4_o [31:0] $end
$var wire 5 E" rd_addr_i [4:0] $end
$var wire 5 F" rd_addr_o [4:0] $end
$var wire 1 &" reg_write_i $end
$var wire 1 V reg_write_o $end
$var wire 5 G" rs1_addr_i [4:0] $end
$var wire 32 H" rs1_data_i [31:0] $end
$var wire 5 I" rs2_addr_i [4:0] $end
$var wire 32 J" rs2_data_i [31:0] $end
$var wire 32 K" rs2_data_o [31:0] $end
$var wire 1 % rst_n $end
$var wire 1 - stall_o $end
$var wire 2 L" wb_sel_i [1:0] $end
$var wire 2 M" wb_sel_o [1:0] $end
$var wire 2 N" pc_src_o [1:0] $end
$var wire 32 O" op_b [31:0] $end
$var wire 1 P" ltu $end
$var wire 1 Q" lt $end
$var wire 32 R" jump_target [31:0] $end
$var wire 32 S" jalr_target [31:0] $end
$var wire 32 T" jalr_raw [31:0] $end
$var wire 32 U" jal_target [31:0] $end
$var wire 1 V" eq $end
$var wire 2 W" conv_status [1:0] $end
$var wire 32 X" conv_result [31:0] $end
$var wire 1 Y" conv_done $end
$var wire 1 Z" conv_busy $end
$var wire 32 [" branch_target [31:0] $end
$var wire 1 \" alu_zero $end
$var wire 32 ]" alu_result [31:0] $end
$var parameter 32 ^" ACCUM_WIDTH $end
$var parameter 32 _" CONV_LATENCY $end
$var parameter 32 `" DATA_WIDTH $end
$var reg 1 a" branch_taken $end
$var reg 32 b" op_a [31:0] $end
$scope module u_alu $end
$var wire 4 c" alu_op [3:0] $end
$var wire 32 d" operand_a [31:0] $end
$var wire 32 e" operand_b [31:0] $end
$var wire 32 f" signed_a [31:0] $end
$var wire 32 g" signed_b [31:0] $end
$var wire 1 \" zero $end
$var wire 5 h" shamt [4:0] $end
$var reg 32 i" alu_result [31:0] $end
$upscope $end
$scope module u_conv_pe $end
$var wire 1 $ clk $end
$var wire 1 x conv_start $end
$var wire 2 j" conv_status [1:0] $end
$var wire 1 w init $end
$var wire 32 k" operand_a [31:0] $end
$var wire 32 l" operand_b [31:0] $end
$var wire 1 % rst_n $end
$var wire 32 m" product [31:0] $end
$var wire 32 n" conv_result [31:0] $end
$var wire 1 Y" conv_done $end
$var wire 1 Z" conv_busy $end
$var parameter 32 o" ACCUM_WIDTH $end
$var parameter 2 p" BUSY $end
$var parameter 32 q" CONV_LATENCY $end
$var parameter 33 r" CTR_W $end
$var parameter 32 s" DATA_WIDTH $end
$var parameter 2 t" DONE $end
$var parameter 2 u" IDLE $end
$var reg 32 v" accum_r [31:0] $end
$var reg 4 w" cnt_r [3:0] $end
$var reg 1 x" init_r $end
$var reg 32 y" op_a_r [31:0] $end
$var reg 32 z" op_b_r [31:0] $end
$var reg 32 {" result_r [31:0] $end
$var reg 2 |" state_r [1:0] $end
$upscope $end
$upscope $end
$scope module u_id $end
$var wire 4 }" alu_op_o [3:0] $end
$var wire 2 ~" alu_src_a_o [1:0] $end
$var wire 1 P alu_src_b_o $end
$var wire 3 !# branch_funct3_o [2:0] $end
$var wire 1 $ clk $end
$var wire 1 N conv_init_o $end
$var wire 1 M conv_start_o $end
$var wire 32 "# imm_o [31:0] $end
$var wire 32 ## instr_i [31:0] $end
$var wire 1 K is_branch_o $end
$var wire 1 J is_jal_o $end
$var wire 1 I is_jalr_o $end
$var wire 1 H mem_read_o $end
$var wire 1 $# mem_sign_ext $end
$var wire 1 G mem_sign_ext_o $end
$var wire 2 %# mem_size_o [1:0] $end
$var wire 1 E mem_write_o $end
$var wire 32 &# pc_if_i [31:0] $end
$var wire 32 '# pc_if_o [31:0] $end
$var wire 32 (# pc_plus4_i [31:0] $end
$var wire 32 )# pc_plus4_o [31:0] $end
$var wire 5 *# rd_addr_o [4:0] $end
$var wire 1 A reg_write_o $end
$var wire 5 +# rs1_addr_o [4:0] $end
$var wire 32 ,# rs1_data_o [31:0] $end
$var wire 5 -# rs2_addr_o [4:0] $end
$var wire 32 .# rs2_data_o [31:0] $end
$var wire 1 % rst_n $end
$var wire 2 /# wb_sel_o [1:0] $end
$var wire 1 * wb_we_i $end
$var wire 32 0# wb_data_i [31:0] $end
$var wire 5 1# wb_addr_i [4:0] $end
$var wire 32 2# rs2_data [31:0] $end
$var wire 5 3# rs2 [4:0] $end
$var wire 32 4# rs1_data [31:0] $end
$var wire 5 5# rs1 [4:0] $end
$var wire 5 6# rd [4:0] $end
$var wire 7 7# opcode [6:0] $end
$var wire 2 8# mem_size [1:0] $end
$var wire 1 9# is_store $end
$var wire 1 :# is_load $end
$var wire 1 ;# is_jalr $end
$var wire 1 <# is_jal $end
$var wire 1 =# is_branch $end
$var wire 32 ># imm_u [31:0] $end
$var wire 32 ?# imm_s [31:0] $end
$var wire 32 @# imm_j [31:0] $end
$var wire 32 A# imm_i [31:0] $end
$var wire 32 B# imm_b [31:0] $end
$var wire 7 C# funct7 [6:0] $end
$var wire 3 D# funct3 [2:0] $end
$var wire 1 E# conv_start $end
$var wire 1 F# conv_init $end
$var parameter 7 G# OP_AUIPC $end
$var parameter 7 H# OP_BRANCH $end
$var parameter 7 I# OP_CUSTOM0 $end
$var parameter 7 J# OP_FENCE $end
$var parameter 7 K# OP_I_ARITH $end
$var parameter 7 L# OP_JAL $end
$var parameter 7 M# OP_JALR $end
$var parameter 7 N# OP_LOAD $end
$var parameter 7 O# OP_LUI $end
$var parameter 7 P# OP_R $end
$var parameter 7 Q# OP_STORE $end
$var parameter 7 R# OP_SYSTEM $end
$var reg 4 S# alu_op [3:0] $end
$var reg 2 T# alu_src_a [1:0] $end
$var reg 1 U# alu_src_b $end
$var reg 32 V# imm [31:0] $end
$var reg 1 W# reg_write $end
$var reg 2 X# wb_sel [1:0] $end
$scope function funct3_to_aluop $end
$var reg 3 Y# f3 [2:0] $end
$var reg 1 Z# f7_5 $end
$upscope $end
$scope module u_regfile $end
$var wire 1 $ clk $end
$var wire 5 [# rs1_addr [4:0] $end
$var wire 5 \# rs2_addr [4:0] $end
$var wire 1 % rst_n $end
$var wire 1 * we $end
$var wire 32 ]# rs2_data [31:0] $end
$var wire 32 ^# rs1_data [31:0] $end
$var wire 32 _# rd_data [31:0] $end
$var wire 5 `# rd_addr [4:0] $end
$var integer 32 a# idx [31:0] $end
$upscope $end
$upscope $end
$scope module u_if $end
$var wire 32 b# branch_target_i [31:0] $end
$var wire 1 $ clk $end
$var wire 1 S flush_i $end
$var wire 32 c# jump_target_i [31:0] $end
$var wire 32 d# pc_if_o [31:0] $end
$var wire 2 e# pc_src_i [1:0] $end
$var wire 1 % rst_n $end
$var wire 1 - stall_i $end
$var wire 32 f# pc_plus4_o [31:0] $end
$var wire 32 g# pc_fetch_o [31:0] $end
$var wire 32 h# instr_i [31:0] $end
$var parameter 32 i# PC_NOP $end
$var reg 32 j# next_pc [31:0] $end
$var reg 32 k# pc_if_r [31:0] $end
$var reg 32 l# pc_reg [31:0] $end
$upscope $end
$scope module u_imem $end
$var wire 32 m# addr [31:0] $end
$var wire 1 $ clk $end
$var wire 10 n# word_index [9:0] $end
$var parameter 32 o# ADDR_WIDTH $end
$var parameter 32 p# DEPTH_WORDS $end
$var parameter 88 q# HEX_FILE $end
$var parameter 32 r# NOP_DEFAULT $end
$var reg 32 s# instr [31:0] $end
$var integer 32 t# i [31:0] $end
$upscope $end
$scope module u_mem $end
$var wire 32 u# alu_result_i [31:0] $end
$var wire 32 v# alu_result_o [31:0] $end
$var wire 1 $ clk $end
$var wire 32 w# conv_result_i [31:0] $end
$var wire 32 x# conv_result_o [31:0] $end
$var wire 1 i is_jump_i $end
$var wire 1 7 is_jump_o $end
$var wire 32 y# load_data_o [31:0] $end
$var wire 1 j mem_read_i $end
$var wire 1 k mem_sign_ext_i $end
$var wire 2 z# mem_size_i [1:0] $end
$var wire 1 m mem_write_i $end
$var wire 32 {# pc_plus4_i [31:0] $end
$var wire 32 |# pc_plus4_o [31:0] $end
$var wire 5 }# rd_addr_i [4:0] $end
$var wire 5 ~# rd_addr_o [4:0] $end
$var wire 1 p reg_write_i $end
$var wire 1 3 reg_write_o $end
$var wire 32 !$ rs2_data_i [31:0] $end
$var wire 1 % rst_n $end
$var wire 2 "$ wb_sel_i [1:0] $end
$var wire 2 #$ wb_sel_o [1:0] $end
$var wire 32 $$ load_data [31:0] $end
$var parameter 32 %$ ACCUM_WIDTH $end
$var parameter 64 &$ DMEM_HEX $end
$scope module u_dmem $end
$var wire 1 $ clk $end
$var wire 32 '$ raddr [31:0] $end
$var wire 8 ($ rd_byte [7:0] $end
$var wire 2 )$ rsize [1:0] $end
$var wire 1 k sign_ext $end
$var wire 32 *$ waddr [31:0] $end
$var wire 32 +$ wdata [31:0] $end
$var wire 1 m we $end
$var wire 2 ,$ wsize [1:0] $end
$var wire 12 -$ w_idx [11:0] $end
$var wire 32 .$ rd_word [31:0] $end
$var wire 16 /$ rd_half [15:0] $end
$var wire 12 0$ r_idx [11:0] $end
$var parameter 32 1$ ADDR_WIDTH $end
$var parameter 32 2$ DEPTH_BYTES $end
$var parameter 64 3$ HEX_FILE $end
$var parameter 32 4$ ZERO_FILL $end
$var reg 32 5$ rdata [31:0] $end
$var integer 32 6$ i [31:0] $end
$upscope $end
$upscope $end
$scope module u_wb $end
$var wire 32 7$ alu_result_i [31:0] $end
$var wire 32 8$ conv_result_i [31:0] $end
$var wire 1 1" is_jump_i $end
$var wire 32 9$ load_data_i [31:0] $end
$var wire 32 :$ pc_plus4_i [31:0] $end
$var wire 5 ;$ rd_addr_i [4:0] $end
$var wire 1 5" reg_write_i $end
$var wire 5 <$ wb_addr_o [4:0] $end
$var wire 32 =$ wb_data_o [31:0] $end
$var wire 2 >$ wb_sel_i [1:0] $end
$var wire 1 * wb_we_o $end
$var reg 32 ?$ wb_data [31:0] $end
$upscope $end
$upscope $end
$scope task check_dmem_byte $end
$var reg 12 @$ addr [11:0] $end
$var reg 8 A$ exp [7:0] $end
$var reg 8 B$ got [7:0] $end
$upscope $end
$scope task check_dmem_word $end
$var reg 12 C$ addr [11:0] $end
$var reg 32 D$ exp [31:0] $end
$var reg 32 E$ got [31:0] $end
$upscope $end
$scope task check_reg $end
$var reg 32 F$ exp [31:0] $end
$var reg 32 G$ got [31:0] $end
$var reg 5 H$ rn [4:0] $end
$upscope $end
$upscope $end
$enddefinitions $end
$comment Show the parameter values. $end
$dumpall
b0 4$
b110010001100001011101000110000100101110011010000110010101111000 3$
b1000000000000 2$
b1100 1$
b110010001100001011101000110000100101110011010000110010101111000 &$
b100000 %$
b10011 r#
b111000001110010011011110110011101110010011000010110110100101110011010000110010101111000 q#
b10000000000 p#
b1100 o#
b0 i#
b1110011 R#
b100011 Q#
b110011 P#
b110111 O#
b11 N#
b1100111 M#
b1101111 L#
b10011 K#
b1111 J#
b1011 I#
b1100011 H#
b10111 G#
b0 u"
b10 t"
b100000 s"
b100 r"
b100 q"
b1 p"
b100000 o"
b100000 `"
b100 _"
b100000 ^"
b10011 f
b111000001110010011011110110011101110010011000010110110100101110011010000110010101111000 e
b110010001100001011101000110000100101110011010000110010101111000 d
b100000 c
b100 b
b100000 a
b1011101110000 #
b100 "
b1010 !
$end
#0
$dumpvars
bx H$
bx G$
bx F$
bx E$
bx D$
bx C$
bx B$
bx A$
bx @$
bx ?$
bx >$
bx =$
bx <$
bx ;$
bx :$
bx 9$
bx 8$
bx 7$
b1000000000000 6$
bx 5$
bx 0$
bx /$
bx .$
bx -$
bx ,$
bx +$
bx *$
bx )$
bx ($
bx '$
bx $$
bx #$
bx "$
bx !$
bx ~#
bx }#
bx |#
bx {#
bx z#
bx y#
bx x#
bx w#
bx v#
bx u#
b10000000000 t#
bx s#
bx n#
bx m#
bx l#
bx k#
bx j#
bx h#
bx g#
bx f#
bx e#
bx d#
bx c#
bx b#
bx a#
bx `#
bx _#
bx ^#
bx ]#
bx \#
bx [#
xZ#
bx Y#
bx X#
xW#
b0 V#
xU#
bx T#
bx S#
xF#
xE#
bx D#
bx C#
bx0 B#
bx A#
bx0 @#
bx ?#
bx000000000000 >#
x=#
x<#
x;#
x:#
x9#
bx 8#
bx 7#
bx 6#
bx 5#
bx 4#
bx 3#
bx 2#
bx 1#
bx 0#
bx /#
bx .#
bx -#
bx ,#
bx +#
bx *#
bx )#
bx (#
bx '#
bx &#
bx %#
x$#
bx ##
b0 "#
bx !#
bx ~"
bx }"
bx |"
bx {"
bx z"
bx y"
xx"
bx w"
bx v"
bx n"
bx m"
bx l"
bx k"
bx j"
bx i"
bx h"
bx g"
bx f"
bx e"
bx d"
bx c"
bx b"
xa"
bx ]"
x\"
bx ["
xZ"
xY"
bx X"
bx W"
xV"
bx U"
bx T"
bx0 S"
bx R"
xQ"
xP"
bx O"
bx N"
bx M"
bx L"
bx K"
bx J"
bx I"
bx H"
bx G"
bx F"
bx E"
bx D"
bx C"
bx B"
bx A"
bx @"
bx ?"
x>"
bx ="
bx <"
bx ;"
bx :"
bx 9"
bx 8"
bx 7"
bx 6"
x5"
bx 4"
bx 3"
bx 2"
x1"
bx 0"
bx /"
bx ."
bx -"
bx ,"
bx +"
bx *"
bx )"
bx ("
bx '"
x&"
bx %"
bx $"
bx #"
x""
bx !"
x~
x}
x|
x{
xz
bx y
xx
xw
bx v
xu
bx t
bx s
bx r
bx q
xp
bx o
bx n
xm
bx l
xk
xj
xi
bx h
bx g
bx `
bx _
bx ^
x]
x\
x[
bx Z
xY
bx X
bx W
xV
bx U
bx T
xS
bx R
bx Q
xP
bx O
xN
xM
b0 L
xK
xJ
xI
xH
xG
bx F
xE
bx D
bx C
bx B
xA
bx @
bx ?
bx >
bx =
bx <
bx ;
bx :
bx 9
bx 8
x7
bx 6
bx 5
bx 4
x3
bx 2
bx 1
bx 0
bx /
bx .
x-
bx ,
bx +
x*
b0 )
b0 (
b0 '
b0 &
0%
0$
$end
#5000
1G
1$#
1A
1W#
b0 <
b0 /#
b0 X#
1P
1U#
b0 Q
b0 ~"
b0 T#
b0 F
b0 %#
b0 8#
b0 ?
b0 ,#
b0 4#
b0 ^#
b0 =
b0 .#
b0 2#
b0 ]#
0N
0F#
b0 R
b0 }"
b0 S#
b0 Y#
0Z#
b0 .
b0 N"
b0 e#
b0 h"
0S
b0 n#
0H
0:#
0E
09#
0K
0=#
0J
0<#
0I
0;#
0M
0E#
b10011 7#
b0 B
b0 *#
b0 6#
b0 O
b0 !#
b0 D#
b0 @
b0 +#
b0 5#
b0 [#
b0 >
b0 -#
b0 3#
b0 \#
b0 C#
b0 A#
b0 ?#
b0 B#
b0 >#
b0 @#
0]
0>"
1\"
b0 _
b0 8"
b0 ]"
b0 i"
b100 j#
b0 S"
b0 :
b0 ?"
b0 c#
b0 R"
b0 O"
b0 e"
b0 g"
0a"
b0 f"
b0 b"
b0 d"
b0 6
b0 y#
b0 $$
b0 5$
b0 -$
b0 ($
b0 /$
b0 .$
b0 0$
b0 +
b0 0#
b0 _#
b0 =$
b0 ?$
b0 1
b0 g#
b0 l#
b0 m#
b100 /
b100 f#
b0 0
b0 d#
b0 k#
0x"
b0 m"
b0 z"
b0 y"
b0 w"
b0 ^
b0 <"
b0 X"
b0 n"
b0 {"
b0 v"
0-
0Z"
0Y"
b0 W"
b0 j"
b0 |"
b10011 ,"
b10011 ##
b100 C
b100 )#
b100 ."
b100 (#
b0 D
b0 '#
b0 -"
b0 &#
0w
0x
0|
0{
b0 v
b0 :"
0z
0V
0&"
b0 T
b0 M"
b0 +"
b0 L"
1[
1~
b10 Z
b10 A"
b10 !"
b10 @"
0Y
0""
0\
0}
0u
b0 t
b0 9"
b0 s
b0 7"
b0 c"
b0 `
b0 ;"
b0 b#
b0 ["
b0 T"
b0 U"
b0 y
b0 ="
b0 W
b0 F"
b0 %"
b0 E"
b0 )"
b0 I"
b0 '"
b0 G"
b0 U
b0 K"
1V"
0P"
0Q"
b0 *"
b0 J"
b0 l"
b0 ("
b0 H"
b0 k"
b100 X
b100 D"
b100 $"
b100 C"
b0 #"
b0 B"
07
0i
03
0p
b0 2
b0 #$
b0 r
b0 "$
1k
b10 l
b10 z#
b10 )$
b10 ,$
0m
0j
b100 5
b100 |#
b100 n
b100 {#
b0 4
b0 ~#
b0 o
b0 }#
b0 q
b0 !$
b0 +$
b0 8
b0 x#
b0 h
b0 w#
b0 9
b0 v#
b0 g
b0 u#
b0 '$
b0 *$
01"
0*
05"
b0 6"
b0 >$
b100 3"
b100 :$
b0 ,
b0 1#
b0 `#
b0 <$
b0 4"
b0 ;$
b0 0"
b0 8$
b0 2"
b0 9$
b0 /"
b0 7$
b100000 a#
b1 )
1$
#10000
0$
#15000
b10100000000000010010011 ;
b10100000000000010010011 h#
b10100000000000010010011 s#
b10 )
b100000 a#
1$
#20000
0$
#25000
b100000 a#
b11 )
1$
#30000
0$
#35000
b100 )
b100000 a#
1$
#40000
0$
#45000
b100000 a#
b101 )
1$
#50000
1%
0$
#55000
b101 L
b101 "#
b101 V#
b1 B
b1 *#
b1 6#
b101 >
b101 -#
b101 3#
b101 \#
b101 A#
b1 ?#
b100000000000 B#
b10100000000000000000000 >#
b100000000100 @#
b1000 j#
b1 n#
1V
1&"
b0 Z
b0 A"
b0 !"
b0 @"
1u
b10100000000000010010011 ,"
b10100000000000010010011 ##
b100 1
b100 g#
b100 l#
b100 m#
b1 &
b110 )
1$
#60000
0$
#65000
0\"
b101 _
b101 8"
b101 ]"
b101 i"
b101 h"
b10 n#
b101 O"
b101 e"
b101 g"
b1100 j#
b100 S"
b101 :
b101 ?"
b101 c#
b101 R"
b101000000000000100010011 ;
b101000000000000100010011 h#
b101000000000000100010011 s#
b1000 1
b1000 g#
b1000 l#
b1000 m#
b1000 /
b1000 f#
b100 0
b100 d#
b100 k#
b101 `
b101 ;"
b101 b#
b101 ["
b101 T"
b101 U"
b101 y
b101 ="
b1 W
b1 F"
b1 %"
b1 E"
b101 )"
b101 I"
13
1p
b0 l
b0 z#
b0 )$
b0 ,$
b111 )
b10 &
1$
#70000
0$
#75000
b1010 L
b1010 "#
b1010 V#
b101 -$
b101 0$
b10 B
b10 *#
b10 6#
b1010 >
b1010 -#
b1010 3#
b1010 \#
b1010 A#
b10 ?#
b10 B#
b101000000000000000000000 >#
b1010 @#
b10000 j#
b11 n#
1*
15"
b1 4
b1 ~#
b1 o
b1 }#
b101 9
b101 v#
b101 g
b101 u#
b101 '$
b101 *$
b101000000000000100010011 ,"
b101000000000000100010011 ##
b1000 C
b1000 )#
b1000 ."
b1000 (#
b100 D
b100 '#
b100 -"
b100 &#
b1100 /
b1100 f#
b1000 0
b1000 d#
b1000 k#
b1100 1
b1100 g#
b1100 l#
b1100 m#
b10011 ;
b10011 h#
b10011 s#
b11 &
b1000 )
1$
#80000
0$
#85000
b0 L
b0 "#
b0 V#
0\"
b1010 _
b1010 8"
b1010 ]"
b1010 i"
b1010 h"
b100 n#
b0 B
b0 *#
b0 6#
b0 >
b0 -#
b0 3#
b0 \#
b0 A#
b0 ?#
b0 B#
b0 >#
b0 @#
b1010 O"
b1010 e"
b1010 g"
b1010 S"
b10100 j#
b1110 :
b1110 ?"
b1110 c#
b1110 R"
b101 +
b101 0#
b101 _#
b101 =$
b101 ?$
b10000 1
b10000 g#
b10000 l#
b10000 m#
b10000 /
b10000 f#
b1100 0
b1100 d#
b1100 k#
b10011 ,"
b10011 ##
b1100 C
b1100 )#
b1100 ."
b1100 (#
b1000 D
b1000 '#
b1000 -"
b1000 &#
b1010 T"
b1010 y
b1010 ="
b10 W
b10 F"
b10 %"
b10 E"
b1010 )"
b1010 I"
b1000 X
b1000 D"
b1000 $"
b1000 C"
b1110 `
b1110 ;"
b1110 b#
b1110 ["
b1110 U"
b100 #"
b100 B"
b1 ,
b1 1#
b1 `#
b1 <$
b1 4"
b1 ;$
b101 /"
b101 7$
b1001 )
b100 &
1$
#90000
0$
#95000
1\"
b0 _
b0 8"
b0 ]"
b0 i"
b0 h"
b1010 -$
b1010 0$
b0 O"
b0 e"
b0 g"
b0 S"
b1000 :
b1000 ?"
b1000 c#
b1000 R"
b11000 j#
b101 n#
b1000 5
b1000 |#
b1000 n
b1000 {#
b10 4
b10 ~#
b10 o
b10 }#
b1010 9
b1010 v#
b1010 g
b1010 u#
b1010 '$
b1010 *$
b0 T"
b0 y
b0 ="
b0 W
b0 F"
b0 %"
b0 E"
b0 )"
b0 I"
b1100 X
b1100 D"
b1100 $"
b1100 C"
b1000 `
b1000 ;"
b1000 b#
b1000 ["
b1000 U"
b1000 #"
b1000 B"
b10000 C
b10000 )#
b10000 ."
b10000 (#
b1100 D
b1100 '#
b1100 -"
b1100 &#
b10100 /
b10100 f#
b10000 0
b10000 d#
b10000 k#
b10100 1
b10100 g#
b10100 l#
b10100 m#
b101 &
b1010 )
1$
#100000
0$
#105000
b110 n#
b11100 j#
b1100 :
b1100 ?"
b1100 c#
b1100 R"
b0 -$
b0 0$
b1010 +
b1010 0#
b1010 _#
b1010 =$
b1010 ?$
b11000 1
b11000 g#
b11000 l#
b11000 m#
b11000 /
b11000 f#
b10100 0
b10100 d#
b10100 k#
b10100 C
b10100 )#
b10100 ."
b10100 (#
b10000 D
b10000 '#
b10000 -"
b10000 &#
b10000 X
b10000 D"
b10000 $"
b10000 C"
b1100 `
b1100 ;"
b1100 b#
b1100 ["
b1100 U"
b1100 #"
b1100 B"
b1100 5
b1100 |#
b1100 n
b1100 {#
b0 4
b0 ~#
b0 o
b0 }#
b0 9
b0 v#
b0 g
b0 u#
b0 '$
b0 *$
b1000 3"
b1000 :$
b10 ,
b10 1#
b10 `#
b10 <$
b10 4"
b10 ;$
b1010 /"
b1010 7$
b1011 )
b110 &
1$
#110000
0$
#115000
b0 +
b0 0#
b0 _#
b0 =$
b0 ?$
b10000 :
b10000 ?"
b10000 c#
b10000 R"
b100000 j#
b111 n#
b1100 3"
b1100 :$
b0 ,
b0 1#
b0 `#
b0 <$
b0 4"
b0 ;$
b0 /"
b0 7$
b10000 5
b10000 |#
b10000 n
b10000 {#
b10100 X
b10100 D"
b10100 $"
b10100 C"
b10000 `
b10000 ;"
b10000 b#
b10000 ["
b10000 U"
b10000 #"
b10000 B"
b11000 C
b11000 )#
b11000 ."
b11000 (#
b10100 D
b10100 '#
b10100 -"
b10100 &#
b11100 /
b11100 f#
b11000 0
b11000 d#
b11000 k#
b11100 1
b11100 g#
b11100 l#
b11100 m#
b1000001000000110110011 ;
b1000001000000110110011 h#
b1000001000000110110011 s#
b111 &
b1100 )
1$
#120000
0$
