Project/dump.vcd
$date
	Tue May  5 23:55:59 2026
$end
$version
	Icarus Verilog
$end
$timescale
	1ps
$end
$scope module tb_riscv_top $end
$var parameter 32 ! CLK_PERIOD $end
$var parameter 32 " CONV_LATENCY $end
$var parameter 32 # TIMEOUT_CYCLES $end
$var reg 1 $ clk $end
$var reg 1 % rst_n $end
$var integer 32 & cycle_num [31:0] $end
$var integer 32 ' fail_cnt [31:0] $end
$var integer 32 ( pass_cnt [31:0] $end
$var integer 32 ) wdog [31:0] $end
$scope module dut $end
$var wire 1 $ clk $end
$var wire 1 % rst_n $end
$var wire 1 * wb_we $end
$var wire 32 + wb_data [31:0] $end
$var wire 5 , wb_addr [4:0] $end
$var wire 1 - stall $end
$var wire 2 . pc_src [1:0] $end
$var wire 32 / pc_plus4_if [31:0] $end
$var wire 32 0 pc_if_out [31:0] $end
$var wire 32 1 pc_fetch [31:0] $end
$var wire 2 2 mem_wb_sel [1:0] $end
$var wire 1 3 mem_reg_write $end
$var wire 5 4 mem_rd_addr [4:0] $end
$var wire 32 5 mem_pc_plus4 [31:0] $end
$var wire 32 6 mem_load_data [31:0] $end
$var wire 1 7 mem_is_jump $end
$var wire 32 8 mem_conv_result [31:0] $end
$var wire 32 9 mem_alu_result [31:0] $end
$var wire 32 : jump_target [31:0] $end
$var wire 32 ; imem_instr [31:0] $end
$var wire 2 < id_wb_sel [1:0] $end
$var wire 32 = id_rs2_data [31:0] $end
$var wire 5 > id_rs2_addr [4:0] $end
$var wire 32 ? id_rs1_data [31:0] $end
$var wire 5 @ id_rs1_addr [4:0] $end
$var wire 1 A id_reg_write $end
$var wire 5 B id_rd_addr [4:0] $end
$var wire 32 C id_pc_plus4 [31:0] $end
$var wire 32 D id_pc_if [31:0] $end
$var wire 1 E id_mem_write $end
$var wire 2 F id_mem_size [1:0] $end
$var wire 1 G id_mem_sign_ext $end
$var wire 1 H id_mem_read $end
$var wire 1 I id_is_jalr $end
$var wire 1 J id_is_jal $end
$var wire 1 K id_is_branch $end
$var wire 32 L id_imm [31:0] $end
$var wire 1 M id_conv_start $end
$var wire 1 N id_conv_init $end
$var wire 3 O id_branch_funct3 [2:0] $end
$var wire 1 P id_alu_src_b $end
$var wire 2 Q id_alu_src_a [1:0] $end
$var wire 4 R id_alu_op [3:0] $end
$var wire 1 S flush $end
$var wire 2 T ex_wb_sel [1:0] $end
$var wire 32 U ex_rs2_data [31:0] $end
$var wire 1 V ex_reg_write $end
$var wire 5 W ex_rd_addr [4:0] $end
$var wire 32 X ex_pc_plus4 [31:0] $end
$var wire 1 Y ex_mem_write $end
$var wire 2 Z ex_mem_size [1:0] $end
$var wire 1 [ ex_mem_sign_ext $end
$var wire 1 \ ex_mem_read $end
$var wire 1 ] ex_is_jump $end
$var wire 32 ^ ex_conv_result [31:0] $end
$var wire 32 _ ex_alu_result [31:0] $end
$var wire 1 ` conv_done_sig $end
$var wire 32 a branch_target [31:0] $end
$var parameter 32 b ACCUM_WIDTH $end
$var parameter 32 c CONV_LATENCY $end
$var parameter 32 d DATA_WIDTH $end
$var parameter 64 e DMEM_HEX $end
$var parameter 88 f IMEM_HEX $end
$var parameter 32 g NOP $end
$var reg 32 h conv_pc_plus4_hold [31:0] $end
$var reg 5 i conv_rd_addr_hold [4:0] $end
$var reg 1 j conv_reg_write_hold $end
$var reg 2 k conv_wb_sel_hold [1:0] $end
$var reg 32 l ex_mem_alu_result [31:0] $end
$var reg 32 m ex_mem_conv_result [31:0] $end
$var reg 1 n ex_mem_is_jump $end
$var reg 1 o ex_mem_mem_read $end
$var reg 1 p ex_mem_mem_sign_ext $end
$var reg 2 q ex_mem_mem_size [1:0] $end
$var reg 1 r ex_mem_mem_write $end
$var reg 32 s ex_mem_pc_plus4 [31:0] $end
$var reg 5 t ex_mem_rd_addr [4:0] $end
$var reg 1 u ex_mem_reg_write $end
$var reg 32 v ex_mem_rs2_data [31:0] $end
$var reg 2 w ex_mem_wb_sel [1:0] $end
$var reg 4 x id_ex_alu_op [3:0] $end
$var reg 2 y id_ex_alu_src_a [1:0] $end
$var reg 1 z id_ex_alu_src_b $end
$var reg 3 { id_ex_branch_funct3 [2:0] $end
$var reg 1 | id_ex_conv_init $end
$var reg 1 } id_ex_conv_start $end
$var reg 32 ~ id_ex_imm [31:0] $end
$var reg 1 !" id_ex_is_branch $end
$var reg 1 "" id_ex_is_jal $end
$var reg 1 #" id_ex_is_jalr $end
$var reg 1 $" id_ex_mem_read $end
$var reg 1 %" id_ex_mem_sign_ext $end
$var reg 2 &" id_ex_mem_size [1:0] $end
$var reg 1 '" id_ex_mem_write $end
$var reg 32 (" id_ex_pc_if [31:0] $end
$var reg 32 )" id_ex_pc_plus4 [31:0] $end
$var reg 5 *" id_ex_rd_addr [4:0] $end
$var reg 1 +" id_ex_reg_write $end
$var reg 5 ," id_ex_rs1_addr [4:0] $end
$var reg 32 -" id_ex_rs1_data [31:0] $end
$var reg 5 ." id_ex_rs2_addr [4:0] $end
$var reg 32 /" id_ex_rs2_data [31:0] $end
$var reg 2 0" id_ex_wb_sel [1:0] $end
$var reg 32 1" if_id_instr [31:0] $end
$var reg 32 2" if_id_pc [31:0] $end
$var reg 32 3" if_id_pc4 [31:0] $end
$var reg 32 4" mem_wb_alu_result [31:0] $end
$var reg 32 5" mem_wb_conv_result [31:0] $end
$var reg 1 6" mem_wb_is_jump $end
$var reg 32 7" mem_wb_load_data [31:0] $end
$var reg 32 8" mem_wb_pc_plus4 [31:0] $end
$var reg 5 9" mem_wb_rd_addr [4:0] $end
$var reg 1 :" mem_wb_reg_write $end
$var reg 2 ;" mem_wb_wb_sel [1:0] $end
$scope module u_ex $end
$var wire 4 <" alu_op_i [3:0] $end
$var wire 32 =" alu_result_o [31:0] $end
$var wire 2 >" alu_src_a_i [1:0] $end
$var wire 1 z alu_src_b_i $end
$var wire 3 ?" branch_funct3_i [2:0] $end
$var wire 32 @" branch_target_o [31:0] $end
$var wire 1 $ clk $end
$var wire 1 ` conv_done_o $end
$var wire 1 | conv_init_i $end
$var wire 32 A" conv_result_o [31:0] $end
$var wire 1 } conv_start_i $end
$var wire 1 B" conv_start_pulse $end
$var wire 1 S flush_o $end
$var wire 32 C" imm_i [31:0] $end
$var wire 1 !" is_branch_i $end
$var wire 1 "" is_jal_i $end
$var wire 1 #" is_jalr_i $end
$var wire 1 D" is_jump $end
$var wire 1 ] is_jump_o $end
$var wire 32 E" jump_target_o [31:0] $end
$var wire 1 $" mem_read_i $end
$var wire 1 \ mem_read_o $end
$var wire 1 %" mem_sign_ext_i $end
$var wire 1 [ mem_sign_ext_o $end
$var wire 2 F" mem_size_i [1:0] $end
$var wire 2 G" mem_size_o [1:0] $end
$var wire 1 '" mem_write_i $end
$var wire 1 Y mem_write_o $end
$var wire 32 H" pc_if_i [31:0] $end
$var wire 32 I" pc_plus4_i [31:0] $end
$var wire 32 J" pc_plus4_o [31:0] $end
$var wire 5 K" rd_addr_i [4:0] $end
$var wire 5 L" rd_addr_o [4:0] $end
$var wire 1 +" reg_write_i $end
$var wire 1 V reg_write_o $end
$var wire 5 M" rs1_addr_i [4:0] $end
$var wire 32 N" rs1_data_i [31:0] $end
$var wire 5 O" rs2_addr_i [4:0] $end
$var wire 32 P" rs2_data_i [31:0] $end
$var wire 32 Q" rs2_data_o [31:0] $end
$var wire 1 % rst_n $end
$var wire 1 - stall_o $end
$var wire 2 R" wb_sel_i [1:0] $end
$var wire 2 S" wb_sel_o [1:0] $end
$var wire 2 T" pc_src_o [1:0] $end
$var wire 32 U" op_b [31:0] $end
$var wire 1 V" ltu $end
$var wire 1 W" lt $end
$var wire 32 X" jump_target [31:0] $end
$var wire 32 Y" jalr_target [31:0] $end
$var wire 32 Z" jalr_raw [31:0] $end
$var wire 32 [" jal_target [31:0] $end
$var wire 1 \" eq $end
$var wire 2 ]" conv_status [1:0] $end
$var wire 32 ^" conv_result [31:0] $end
$var wire 1 _" conv_done $end
$var wire 1 `" conv_busy $end
$var wire 32 a" branch_target [31:0] $end
$var wire 1 b" alu_zero $end
$var wire 32 c" alu_result [31:0] $end
$var parameter 32 d" ACCUM_WIDTH $end
$var parameter 32 e" CONV_LATENCY $end
$var parameter 32 f" DATA_WIDTH $end
$var reg 1 g" branch_taken $end
$var reg 1 h" conv_start_i_r $end
$var reg 32 i" op_a [31:0] $end
$scope module u_alu $end
$var wire 4 j" alu_op [3:0] $end
$var wire 32 k" operand_a [31:0] $end
$var wire 32 l" operand_b [31:0] $end
$var wire 32 m" signed_a [31:0] $end
$var wire 32 n" signed_b [31:0] $end
$var wire 1 b" zero $end
$var wire 5 o" shamt [4:0] $end
$var reg 32 p" alu_result [31:0] $end
$upscope $end
$scope module u_conv_pe $end
$var wire 1 $ clk $end
$var wire 1 B" conv_start $end
$var wire 2 q" conv_status [1:0] $end
$var wire 1 | init $end
$var wire 32 r" operand_a [31:0] $end
$var wire 32 s" operand_b [31:0] $end
$var wire 1 % rst_n $end
$var wire 32 t" product [31:0] $end
$var wire 32 u" conv_result [31:0] $end
$var wire 1 _" conv_done $end
$var wire 1 `" conv_busy $end
$var parameter 32 v" ACCUM_WIDTH $end
$var parameter 2 w" BUSY $end
$var parameter 32 x" CONV_LATENCY $end
$var parameter 33 y" CTR_W $end
$var parameter 32 z" DATA_WIDTH $end
$var parameter 2 {" DONE $end
$var parameter 2 |" IDLE $end
$var reg 32 }" accum_r [31:0] $end
$var reg 4 ~" cnt_r [3:0] $end
$var reg 1 !# init_r $end
$var reg 32 "# op_a_r [31:0] $end
$var reg 32 ## op_b_r [31:0] $end
$var reg 32 $# result_r [31:0] $end
$var reg 2 %# state_r [1:0] $end
$upscope $end
$upscope $end
$scope module u_id $end
$var wire 4 &# alu_op_o [3:0] $end
$var wire 2 '# alu_src_a_o [1:0] $end
$var wire 1 P alu_src_b_o $end
$var wire 3 (# branch_funct3_o [2:0] $end
$var wire 1 $ clk $end
$var wire 1 N conv_init_o $end
$var wire 1 M conv_start_o $end
$var wire 32 )# imm_o [31:0] $end
$var wire 32 *# instr_i [31:0] $end
$var wire 1 K is_branch_o $end
$var wire 1 J is_jal_o $end
$var wire 1 I is_jalr_o $end
$var wire 1 H mem_read_o $end
$var wire 1 +# mem_sign_ext $end
$var wire 1 G mem_sign_ext_o $end
$var wire 2 ,# mem_size_o [1:0] $end
$var wire 1 E mem_write_o $end
$var wire 32 -# pc_if_i [31:0] $end
$var wire 32 .# pc_if_o [31:0] $end
$var wire 32 /# pc_plus4_i [31:0] $end
$var wire 32 0# pc_plus4_o [31:0] $end
$var wire 5 1# rd_addr_o [4:0] $end
$var wire 1 A reg_write_o $end
$var wire 5 2# rs1_addr_o [4:0] $end
$var wire 32 3# rs1_data_o [31:0] $end
$var wire 5 4# rs2_addr_o [4:0] $end
$var wire 32 5# rs2_data_o [31:0] $end
$var wire 1 % rst_n $end
$var wire 2 6# wb_sel_o [1:0] $end
$var wire 1 * wb_we_i $end
$var wire 32 7# wb_data_i [31:0] $end
$var wire 5 8# wb_addr_i [4:0] $end
$var wire 32 9# rs2_data [31:0] $end
$var wire 5 :# rs2 [4:0] $end
$var wire 32 ;# rs1_data [31:0] $end
$var wire 5 <# rs1 [4:0] $end
$var wire 5 =# rd [4:0] $end
$var wire 7 ># opcode [6:0] $end
$var wire 2 ?# mem_size [1:0] $end
$var wire 1 @# is_store $end
$var wire 1 A# is_load $end
$var wire 1 B# is_jalr $end
$var wire 1 C# is_jal $end
$var wire 1 D# is_branch $end
$var wire 32 E# imm_u [31:0] $end
$var wire 32 F# imm_s [31:0] $end
$var wire 32 G# imm_j [31:0] $end
$var wire 32 H# imm_i [31:0] $end
$var wire 32 I# imm_b [31:0] $end
$var wire 7 J# funct7 [6:0] $end
$var wire 3 K# funct3 [2:0] $end
$var wire 1 L# conv_start $end
$var wire 1 M# conv_init $end
$var parameter 7 N# OP_AUIPC $end
$var parameter 7 O# OP_BRANCH $end
$var parameter 7 P# OP_CUSTOM0 $end
$var parameter 7 Q# OP_FENCE $end
$var parameter 7 R# OP_I_ARITH $end
$var parameter 7 S# OP_JAL $end
$var parameter 7 T# OP_JALR $end
$var parameter 7 U# OP_LOAD $end
$var parameter 7 V# OP_LUI $end
$var parameter 7 W# OP_R $end
$var parameter 7 X# OP_STORE $end
$var parameter 7 Y# OP_SYSTEM $end
$var reg 4 Z# alu_op [3:0] $end
$var reg 2 [# alu_src_a [1:0] $end
$var reg 1 \# alu_src_b $end
$var reg 32 ]# imm [31:0] $end
$var reg 1 ^# reg_write $end
$var reg 2 _# wb_sel [1:0] $end
$scope function funct3_to_aluop $end
$var reg 3 `# f3 [2:0] $end
$var reg 1 a# f7_5 $end
$upscope $end
$scope module u_regfile $end
$var wire 1 $ clk $end
$var wire 5 b# rs1_addr [4:0] $end
$var wire 5 c# rs2_addr [4:0] $end
$var wire 1 % rst_n $end
$var wire 1 * we $end
$var wire 32 d# rs2_data [31:0] $end
$var wire 32 e# rs1_data [31:0] $end
$var wire 32 f# rd_data [31:0] $end
$var wire 5 g# rd_addr [4:0] $end
$var integer 32 h# idx [31:0] $end
$upscope $end
$upscope $end
$scope module u_if $end
$var wire 32 i# branch_target_i [31:0] $end
$var wire 1 $ clk $end
$var wire 1 S flush_i $end
$var wire 32 j# jump_target_i [31:0] $end
$var wire 32 k# pc_if_o [31:0] $end
$var wire 2 l# pc_src_i [1:0] $end
$var wire 1 % rst_n $end
$var wire 1 - stall_i $end
$var wire 32 m# pc_plus4_o [31:0] $end
$var wire 32 n# pc_fetch_o [31:0] $end
$var wire 32 o# instr_i [31:0] $end
$var parameter 32 p# PC_NOP $end
$var reg 32 q# next_pc [31:0] $end
$var reg 32 r# pc_if_r [31:0] $end
$var reg 32 s# pc_reg [31:0] $end
$upscope $end
$scope module u_imem $end
$var wire 32 t# addr [31:0] $end
$var wire 1 $ clk $end
$var wire 10 u# word_index [9:0] $end
$var parameter 32 v# ADDR_WIDTH $end
$var parameter 32 w# DEPTH_WORDS $end
$var parameter 88 x# HEX_FILE $end
$var parameter 32 y# NOP_DEFAULT $end
$var reg 32 z# instr [31:0] $end
$var integer 32 {# i [31:0] $end
$upscope $end
$scope module u_mem $end
$var wire 32 |# alu_result_i [31:0] $end
$var wire 32 }# alu_result_o [31:0] $end
$var wire 1 $ clk $end
$var wire 32 ~# conv_result_i [31:0] $end
$var wire 32 !$ conv_result_o [31:0] $end
$var wire 1 n is_jump_i $end
$var wire 1 7 is_jump_o $end
$var wire 32 "$ load_data_o [31:0] $end
$var wire 1 o mem_read_i $end
$var wire 1 p mem_sign_ext_i $end
$var wire 2 #$ mem_size_i [1:0] $end
$var wire 1 r mem_write_i $end
$var wire 32 $$ pc_plus4_i [31:0] $end
$var wire 32 %$ pc_plus4_o [31:0] $end
$var wire 5 &$ rd_addr_i [4:0] $end
$var wire 5 '$ rd_addr_o [4:0] $end
$var wire 1 u reg_write_i $end
$var wire 1 3 reg_write_o $end
$var wire 32 ($ rs2_data_i [31:0] $end
$var wire 1 % rst_n $end
$var wire 2 )$ wb_sel_i [1:0] $end
$var wire 2 *$ wb_sel_o [1:0] $end
$var wire 32 +$ load_data [31:0] $end
$var parameter 32 ,$ ACCUM_WIDTH $end
$var parameter 64 -$ DMEM_HEX $end
$scope module u_dmem $end
$var wire 1 $ clk $end
$var wire 32 .$ raddr [31:0] $end
$var wire 8 /$ rd_byte [7:0] $end
$var wire 2 0$ rsize [1:0] $end
$var wire 1 p sign_ext $end
$var wire 32 1$ waddr [31:0] $end
$var wire 32 2$ wdata [31:0] $end
$var wire 1 r we $end
$var wire 2 3$ wsize [1:0] $end
$var wire 12 4$ w_idx [11:0] $end
$var wire 32 5$ rd_word [31:0] $end
$var wire 16 6$ rd_half [15:0] $end
$var wire 12 7$ r_idx [11:0] $end
$var parameter 32 8$ ADDR_WIDTH $end
$var parameter 32 9$ DEPTH_BYTES $end
$var parameter 64 :$ HEX_FILE $end
$var parameter 32 ;$ ZERO_FILL $end
$var reg 32 <$ rdata [31:0] $end
$var integer 32 =$ i [31:0] $end
$upscope $end
$upscope $end
$scope module u_wb $end
$var wire 32 >$ alu_result_i [31:0] $end
$var wire 32 ?$ conv_result_i [31:0] $end
$var wire 1 6" is_jump_i $end
$var wire 32 @$ load_data_i [31:0] $end
$var wire 32 A$ pc_plus4_i [31:0] $end
$var wire 5 B$ rd_addr_i [4:0] $end
$var wire 1 :" reg_write_i $end
$var wire 5 C$ wb_addr_o [4:0] $end
$var wire 32 D$ wb_data_o [31:0] $end
$var wire 2 E$ wb_sel_i [1:0] $end
$var wire 1 * wb_we_o $end
$var reg 32 F$ wb_data [31:0] $end
$upscope $end
$upscope $end
$scope task check_dmem_byte $end
$var reg 12 G$ addr [11:0] $end
$var reg 8 H$ exp [7:0] $end
$var reg 8 I$ got [7:0] $end
$upscope $end
$scope task check_dmem_word $end
$var reg 12 J$ addr [11:0] $end
$var reg 32 K$ exp [31:0] $end
$var reg 32 L$ got [31:0] $end
$upscope $end
$scope task check_reg $end
$var reg 32 M$ exp [31:0] $end
$var reg 32 N$ got [31:0] $end
$var reg 5 O$ rn [4:0] $end
$upscope $end
$upscope $end
$enddefinitions $end
$comment Show the parameter values. $end
$dumpall
b0 ;$
b110010001100001011101000110000100101110011010000110010101111000 :$
b1000000000000 9$
b1100 8$
b110010001100001011101000110000100101110011010000110010101111000 -$
b100000 ,$
b10011 y#
b111000001110010011011110110011101110010011000010110110100101110011010000110010101111000 x#
b10000000000 w#
b1100 v#
b0 p#
b1110011 Y#
b100011 X#
b110011 W#
b110111 V#
b11 U#
b1100111 T#
b1101111 S#
b10011 R#
b1111 Q#
b1011 P#
b1100011 O#
b10111 N#
b0 |"
b10 {"
b100000 z"
b100 y"
b100 x"
b1 w"
b100000 v"
b100000 f"
b100 e"
b100000 d"
b10011 g
b111000001110010011011110110011101110010011000010110110100101110011010000110010101111000 f
b110010001100001011101000110000100101110011010000110010101111000 e
b100000 d
b100 c
b100000 b
b1011101110000 #
b100 "
b1010 !
$end
#0
$dumpvars
bx O$
bx N$
bx M$
bx L$
bx K$
bx J$
bx I$
bx H$
bx G$
bx F$
bx E$
bx D$
bx C$
bx B$
bx A$
bx @$
bx ?$
bx >$
b1000000000000 =$
bx <$
bx 7$
bx 6$
bx 5$
bx 4$
bx 3$
bx 2$
bx 1$
bx 0$
bx /$
bx .$
bx +$
bx *$
bx )$
bx ($
bx '$
bx &$
bx %$
bx $$
bx #$
bx "$
bx !$
bx ~#
bx }#
bx |#
b10000000000 {#
bx z#
bx u#
bx t#
bx s#
bx r#
bx q#
bx o#
bx n#
bx m#
bx l#
bx k#
bx j#
bx i#
bx h#
bx g#
bx f#
bx e#
bx d#
bx c#
bx b#
xa#
bx `#
bx _#
x^#
b0 ]#
x\#
bx [#
bx Z#
xM#
xL#
bx K#
bx J#
bx0 I#
bx H#
bx0 G#
bx F#
bx000000000000 E#
xD#
xC#
xB#
xA#
x@#
bx ?#
bx >#
bx =#
bx <#
bx ;#
bx :#
bx 9#
bx 8#
bx 7#
bx 6#
bx 5#
bx 4#
bx 3#
bx 2#
bx 1#
bx 0#
bx /#
bx .#
bx -#
bx ,#
x+#
bx *#
b0 )#
bx (#
bx '#
bx &#
bx %#
bx $#
bx ##
bx "#
x!#
bx ~"
bx }"
bx u"
bx t"
bx s"
bx r"
bx q"
bx p"
bx o"
bx n"
bx m"
bx l"
bx k"
bx j"
bx i"
xh"
xg"
bx c"
xb"
bx a"
x`"
x_"
bx ^"
bx ]"
x\"
bx ["
bx Z"
bx0 Y"
bx X"
xW"
xV"
bx U"
bx T"
bx S"
bx R"
bx Q"
bx P"
bx O"
bx N"
bx M"
bx L"
bx K"
bx J"
bx I"
bx H"
bx G"
bx F"
bx E"
xD"
bx C"
xB"
bx A"
bx @"
bx ?"
bx >"
bx ="
bx <"
bx ;"
x:"
bx 9"
bx 8"
bx 7"
x6"
bx 5"
bx 4"
bx 3"
bx 2"
bx 1"
bx 0"
bx /"
bx ."
bx -"
bx ,"
x+"
bx *"
bx )"
bx ("
x'"
bx &"
x%"
x$"
x#"
x""
x!"
bx ~
x}
x|
bx {
xz
bx y
bx x
bx w
bx v
xu
bx t
bx s
xr
bx q
xp
xo
xn
bx m
bx l
bx k
xj
bx i
bx h
bx a
x`
bx _
bx ^
x]
x\
x[
bx Z
xY
bx X
bx W
xV
bx U
bx T
xS
bx R
bx Q
xP
bx O
xN
xM
b0 L
xK
xJ
xI
xH
xG
bx F
xE
bx D
bx C
bx B
xA
bx @
bx ?
bx >
bx =
bx <
bx ;
bx :
bx 9
bx 8
x7
bx 6
bx 5
bx 4
x3
bx 2
bx 1
bx 0
bx /
bx .
x-
bx ,
bx +
x*
b0 )
b0 (
b0 '
b0 &
0%
0$
$end
#5000
1G
1+#
1A
1^#
b0 <
b0 6#
b0 _#
1P
1\#
b0 Q
b0 '#
b0 [#
b0 F
b0 ,#
b0 ?#
b0 ?
b0 3#
b0 ;#
b0 e#
b0 =
b0 5#
b0 9#
b0 d#
0N
0M#
b0 R
b0 &#
b0 Z#
b0 `#
0a#
b0 .
b0 T"
b0 l#
b0 o"
0S
b0 u#
0H
0A#
0E
0@#
0K
0D#
0J
0C#
0I
0B#
0M
0L#
b10011 >#
b0 B
b0 1#
b0 =#
b0 O
b0 (#
b0 K#
b0 @
b0 2#
b0 <#
b0 b#
b0 >
b0 4#
b0 :#
b0 c#
b0 J#
b0 H#
b0 F#
b0 I#
b0 E#
b0 G#
0B"
0]
0D"
1b"
b0 _
b0 ="
b0 c"
b0 p"
b100 q#
b0 Y"
b0 :
b0 E"
b0 j#
b0 X"
b0 U"
b0 l"
b0 n"
0g"
b0 m"
b0 i"
b0 k"
b0 6
b0 "$
b0 +$
b0 <$
b0 4$
b0 /$
b0 6$
b0 5$
b0 7$
b0 +
b0 7#
b0 f#
b0 D$
b0 F$
b0 1
b0 n#
b0 s#
b0 t#
b100 /
b100 m#
b0 0
b0 k#
b0 r#
0!#
b0 t"
b0 ##
b0 "#
b0 ~"
b0 ^
b0 A"
b0 ^"
b0 u"
b0 $#
b0 }"
0-
0`"
0`
0_"
b0 ]"
b0 q"
b0 %#
0h"
b10011 1"
b10011 *#
b100 C
b100 0#
b100 3"
b100 /#
b0 D
b0 .#
b0 2"
b0 -#
0|
0}
0#"
0""
b0 {
b0 ?"
0!"
0V
0+"
b0 T
b0 S"
b0 0"
b0 R"
1[
1%"
b10 Z
b10 G"
b10 &"
b10 F"
0Y
0'"
0\
0$"
0z
b0 y
b0 >"
b0 x
b0 <"
b0 j"
b0 a
b0 @"
b0 i#
b0 a"
b0 Z"
b0 ["
b0 ~
b0 C"
b0 W
b0 L"
b0 *"
b0 K"
b0 ."
b0 O"
b0 ,"
b0 M"
b0 U
b0 Q"
1\"
0V"
0W"
b0 /"
b0 P"
b0 s"
b0 -"
b0 N"
b0 r"
b100 X
b100 J"
b100 )"
b100 I"
b0 ("
b0 H"
b100 h
b0 i
0j
b0 k
07
0n
03
0u
b0 2
b0 *$
b0 w
b0 )$
1p
b10 q
b10 #$
b10 0$
b10 3$
0r
0o
b100 5
b100 %$
b100 s
b100 $$
b0 4
b0 '$
b0 t
b0 &$
b0 v
b0 ($
b0 2$
b0 8
b0 !$
b0 m
b0 ~#
b0 9
b0 }#
b0 l
b0 |#
b0 .$
b0 1$
06"
0*
0:"
b0 ;"
b0 E$
b100 8"
b100 A$
b0 ,
b0 8#
b0 g#
b0 C$
b0 9"
b0 B$
b0 5"
b0 ?$
b0 7"
b0 @$
b0 4"
b0 >$
b100000 h#
b1 )
1$
#10000
0$
#15000
b10100000000000010010011 ;
b10100000000000010010011 o#
b10100000000000010010011 z#
b10 )
b100000 h#
1$
#20000
0$
#25000
b100000 h#
b11 )
1$
#30000
0$
#35000
b100 )
b100000 h#
1$
#40000
0$
#45000
b100000 h#
b101 )
1$
#50000
1%
0$
#55000
b101 L
b101 )#
b101 ]#
b1 B
b1 1#
b1 =#
b101 >
b101 4#
b101 :#
b101 c#
b101 H#
b1 F#
b100000000000 I#
b10100000000000000000000 E#
b100000000100 G#
b1000 q#
b1 u#
1V
1+"
b0 Z
b0 G"
b0 &"
b0 F"
1z
b10100000000000010010011 1"
b10100000000000010010011 *#
b100 1
b100 n#
b100 s#
b100 t#
b1 &
b110 )
1$
#60000
0$
#65000
0b"
b101 _
b101 ="
b101 c"
b101 p"
b101 o"
b10 u#
b101 U"
b101 l"
b101 n"
b1100 q#
b100 Y"
b101 :
b101 E"
b101 j#
b101 X"
b101000000000000100010011 ;
b101000000000000100010011 o#
b101000000000000100010011 z#
b1000 1
b1000 n#
b1000 s#
b1000 t#
b1000 /
b1000 m#
b100 0
b100 k#
b100 r#
b101 a
b101 @"
b101 i#
b101 a"
b101 Z"
b101 ["
b101 ~
b101 C"
b1 W
b1 L"
b1 *"
b1 K"
b101 ."
b101 O"
13
1u
b0 q
b0 #$
b0 0$
b0 3$
b111 )
b10 &
1$
#70000
0$
#75000
b1010 L
b1010 )#
b1010 ]#
b101 4$
b101 7$
b10 B
b10 1#
b10 =#
b1010 >
b1010 4#
b1010 :#
b1010 c#
b1010 H#
b10 F#
b10 I#
b101000000000000000000000 E#
b1010 G#
b10000 q#
b11 u#
1*
1:"
b1 4
b1 '$
b1 t
b1 &$
b101 9
b101 }#
b101 l
b101 |#
b101 .$
b101 1$
b101000000000000100010011 1"
b101000000000000100010011 *#
b1000 C
b1000 0#
b1000 3"
b1000 /#
b100 D
b100 .#
b100 2"
b100 -#
b1100 /
b1100 m#
b1000 0
b1000 k#
b1000 r#
b1100 1
b1100 n#
b1100 s#
b1100 t#
b10011 ;
b10011 o#
b10011 z#
b11 &
b1000 )
1$
#80000
0$
#85000
b0 L
b0 )#
b0 ]#
0b"
b1010 _
b1010 ="
b1010 c"
b1010 p"
b1010 o"
b100 u#
b0 B
b0 1#
b0 =#
b0 >
b0 4#
b0 :#
b0 c#
b0 H#
b0 F#
b0 I#
b0 E#
b0 G#
b1010 U"
b1010 l"
b1010 n"
b1010 Y"
b10100 q#
b1110 :
b1110 E"
b1110 j#
b1110 X"
b101 +
b101 7#
b101 f#
b101 D$
b101 F$
b10000 1
b10000 n#
b10000 s#
b10000 t#
b10000 /
b10000 m#
b1100 0
b1100 k#
b1100 r#
b10011 1"
b10011 *#
b1100 C
b1100 0#
b1100 3"
b1100 /#
b1000 D
b1000 .#
b1000 2"
b1000 -#
b1010 Z"
b1010 ~
b1010 C"
b10 W
b10 L"
b10 *"
b10 K"
b1010 ."
b1010 O"
b1000 X
b1000 J"
b1000 )"
b1000 I"
b1110 a
b1110 @"
b1110 i#
b1110 a"
b1110 ["
b100 ("
b100 H"
b1 ,
b1 8#
b1 g#
b1 C$
b1 9"
b1 B$
b101 4"
b101 >$
b1001 )
b100 &
1$
#90000
0$
#95000
1b"
b0 _
b0 ="
b0 c"
b0 p"
b0 o"
b1010 4$
b1010 7$
b0 U"
b0 l"
b0 n"
b0 Y"
b1000 :
b1000 E"
b1000 j#
b1000 X"
b11000 q#
b101 u#
b1000 5
b1000 %$
b1000 s
b1000 $$
b10 4
b10 '$
b10 t
b10 &$
b1010 9
b1010 }#
b1010 l
b1010 |#
b1010 .$
b1010 1$
b0 Z"
b0 ~
b0 C"
b0 W
b0 L"
b0 *"
b0 K"
b0 ."
b0 O"
b1100 X
b1100 J"
b1100 )"
b1100 I"
b1000 a
b1000 @"
b1000 i#
b1000 a"
b1000 ["
b1000 ("
b1000 H"
b10000 C
b10000 0#
b10000 3"
b10000 /#
b1100 D
b1100 .#
b1100 2"
b1100 -#
b10100 /
b10100 m#
b10000 0
b10000 k#
b10000 r#
b10100 1
b10100 n#
b10100 s#
b10100 t#
b101 &
b1010 )
1$
#100000
0$
#105000
b110 u#
b11100 q#
b1100 :
b1100 E"
b1100 j#
b1100 X"
b0 4$
b0 7$
b1010 +
b1010 7#
b1010 f#
b1010 D$
b1010 F$
b11000 1
b11000 n#
b11000 s#
b11000 t#
b11000 /
b11000 m#
b10100 0
b10100 k#
b10100 r#
b10100 C
b10100 0#
b10100 3"
b10100 /#
b10000 D
b10000 .#
b10000 2"
b10000 -#
b10000 X
b10000 J"
b10000 )"
b10000 I"
b1100 a
b1100 @"
b1100 i#
b1100 a"
b1100 ["
b1100 ("
b1100 H"
b1100 5
b1100 %$
b1100 s
b1100 $$
b0 4
b0 '$
b0 t
b0 &$
b0 9
b0 }#
b0 l
b0 |#
b0 .$
b0 1$
b1000 8"
b1000 A$
b10 ,
b10 8#
b10 g#
b10 C$
b10 9"
b10 B$
b1010 4"
b1010 >$
b1011 )
b110 &
1$
#110000
0$
#115000
b0 +
b0 7#
b0 f#
b0 D$
b0 F$
b10000 :
b10000 E"
b10000 j#
b10000 X"
b100000 q#
b111 u#
b1100 8"
b1100 A$
b0 ,
b0 8#
b0 g#
b0 C$
b0 9"
b0 B$
b0 4"
b0 >$
b10000 5
b10000 %$
b10000 s
b10000 $$
b10100 X
b10100 J"
b10100 )"
b10100 I"
b10000 a
b10000 @"
b10000 i#
b10000 a"
b10000 ["
b10000 ("
b10000 H"
b11000 C
b11000 0#
b11000 3"
b11000 /#
b10100 D
b10100 .#
b10100 2"
b10100 -#
b11100 /
b11100 m#
b11000 0
b11000 k#
b11000 r#
b11100 1
b11100 n#
b11100 s#
b11100 t#
b1000001000000110110011 ;
b1000001000000110110011 o#
b1000001000000110110011 z#
b111 &
b1100 )
1$
#120000
0$
