Project/dump.vcd
$date
	Wed May  6 07:39:26 2026
$end
$version
	Icarus Verilog
$end
$timescale
	1ps
$end
$scope module tb_riscv_top $end
$var parameter 32 ! CLK_PERIOD $end
$var parameter 32 " CONV_LATENCY $end
$var parameter 32 # TIMEOUT_CYCLES $end
$var reg 1 $ clk $end
$var reg 1 % rst_n $end
$var integer 32 & cycle_num [31:0] $end
$var integer 32 ' fail_cnt [31:0] $end
$var integer 32 ( pass_cnt [31:0] $end
$var integer 32 ) wdog [31:0] $end
$scope module dut $end
$var wire 1 $ clk $end
$var wire 1 % rst_n $end
$var wire 1 * wb_we $end
$var wire 32 + wb_data [31:0] $end
$var wire 5 , wb_addr [4:0] $end
$var wire 1 - stall $end
$var wire 2 . pc_src [1:0] $end
$var wire 32 / pc_plus4_if [31:0] $end
$var wire 32 0 pc_if_out [31:0] $end
$var wire 32 1 pc_fetch [31:0] $end
$var wire 2 2 mem_wb_sel [1:0] $end
$var wire 1 3 mem_reg_write $end
$var wire 5 4 mem_rd_addr [4:0] $end
$var wire 32 5 mem_pc_plus4 [31:0] $end
$var wire 32 6 mem_load_data [31:0] $end
$var wire 1 7 mem_is_jump $end
$var wire 32 8 mem_conv_result [31:0] $end
$var wire 32 9 mem_alu_result [31:0] $end
$var wire 32 : jump_target [31:0] $end
$var wire 32 ; imem_instr [31:0] $end
$var wire 2 < id_wb_sel [1:0] $end
$var wire 32 = id_rs2_data [31:0] $end
$var wire 5 > id_rs2_addr [4:0] $end
$var wire 32 ? id_rs1_data [31:0] $end
$var wire 5 @ id_rs1_addr [4:0] $end
$var wire 1 A id_reg_write $end
$var wire 5 B id_rd_addr [4:0] $end
$var wire 32 C id_pc_plus4 [31:0] $end
$var wire 32 D id_pc_if [31:0] $end
$var wire 1 E id_mem_write $end
$var wire 2 F id_mem_size [1:0] $end
$var wire 1 G id_mem_sign_ext $end
$var wire 1 H id_mem_read $end
$var wire 1 I id_is_jalr $end
$var wire 1 J id_is_jal $end
$var wire 1 K id_is_branch $end
$var wire 32 L id_imm [31:0] $end
$var wire 1 M id_conv_start $end
$var wire 1 N id_conv_init $end
$var wire 3 O id_branch_funct3 [2:0] $end
$var wire 1 P id_alu_src_b $end
$var wire 2 Q id_alu_src_a [1:0] $end
$var wire 4 R id_alu_op [3:0] $end
$var wire 1 S flush $end
$var wire 2 T ex_wb_sel [1:0] $end
$var wire 32 U ex_rs2_data [31:0] $end
$var wire 1 V ex_reg_write $end
$var wire 5 W ex_rd_addr [4:0] $end
$var wire 32 X ex_pc_plus4 [31:0] $end
$var wire 1 Y ex_mem_write $end
$var wire 2 Z ex_mem_size [1:0] $end
$var wire 1 [ ex_mem_sign_ext $end
$var wire 1 \ ex_mem_read $end
$var wire 1 ] ex_is_jump $end
$var wire 32 ^ ex_conv_result [31:0] $end
$var wire 32 _ ex_alu_result [31:0] $end
$var wire 1 ` conv_start_pulse_sig $end
$var wire 1 a conv_done_sig $end
$var wire 32 b branch_target [31:0] $end
$var parameter 32 c ACCUM_WIDTH $end
$var parameter 32 d CONV_LATENCY $end
$var parameter 32 e DATA_WIDTH $end
$var parameter 64 f DMEM_HEX $end
$var parameter 88 g IMEM_HEX $end
$var parameter 32 h NOP $end
$var reg 32 i conv_pc_plus4_hold [31:0] $end
$var reg 5 j conv_rd_addr_hold [4:0] $end
$var reg 1 k conv_reg_write_hold $end
$var reg 2 l conv_wb_sel_hold [1:0] $end
$var reg 32 m ex_mem_alu_result [31:0] $end
$var reg 32 n ex_mem_conv_result [31:0] $end
$var reg 1 o ex_mem_is_jump $end
$var reg 1 p ex_mem_mem_read $end
$var reg 1 q ex_mem_mem_sign_ext $end
$var reg 2 r ex_mem_mem_size [1:0] $end
$var reg 1 s ex_mem_mem_write $end
$var reg 32 t ex_mem_pc_plus4 [31:0] $end
$var reg 5 u ex_mem_rd_addr [4:0] $end
$var reg 1 v ex_mem_reg_write $end
$var reg 32 w ex_mem_rs2_data [31:0] $end
$var reg 2 x ex_mem_wb_sel [1:0] $end
$var reg 4 y id_ex_alu_op [3:0] $end
$var reg 2 z id_ex_alu_src_a [1:0] $end
$var reg 1 { id_ex_alu_src_b $end
$var reg 3 | id_ex_branch_funct3 [2:0] $end
$var reg 1 } id_ex_conv_init $end
$var reg 1 ~ id_ex_conv_start $end
$var reg 32 !" id_ex_imm [31:0] $end
$var reg 1 "" id_ex_is_branch $end
$var reg 1 #" id_ex_is_jal $end
$var reg 1 $" id_ex_is_jalr $end
$var reg 1 %" id_ex_mem_read $end
$var reg 1 &" id_ex_mem_sign_ext $end
$var reg 2 '" id_ex_mem_size [1:0] $end
$var reg 1 (" id_ex_mem_write $end
$var reg 32 )" id_ex_pc_if [31:0] $end
$var reg 32 *" id_ex_pc_plus4 [31:0] $end
$var reg 5 +" id_ex_rd_addr [4:0] $end
$var reg 1 ," id_ex_reg_write $end
$var reg 5 -" id_ex_rs1_addr [4:0] $end
$var reg 32 ." id_ex_rs1_data [31:0] $end
$var reg 5 /" id_ex_rs2_addr [4:0] $end
$var reg 32 0" id_ex_rs2_data [31:0] $end
$var reg 2 1" id_ex_wb_sel [1:0] $end
$var reg 32 2" if_id_instr [31:0] $end
$var reg 32 3" if_id_pc [31:0] $end
$var reg 32 4" if_id_pc4 [31:0] $end
$var reg 32 5" mem_wb_alu_result [31:0] $end
$var reg 32 6" mem_wb_conv_result [31:0] $end
$var reg 1 7" mem_wb_is_jump $end
$var reg 32 8" mem_wb_load_data [31:0] $end
$var reg 32 9" mem_wb_pc_plus4 [31:0] $end
$var reg 5 :" mem_wb_rd_addr [4:0] $end
$var reg 1 ;" mem_wb_reg_write $end
$var reg 2 <" mem_wb_wb_sel [1:0] $end
$scope module u_ex $end
$var wire 4 =" alu_op_i [3:0] $end
$var wire 32 >" alu_result_o [31:0] $end
$var wire 2 ?" alu_src_a_i [1:0] $end
$var wire 1 { alu_src_b_i $end
$var wire 3 @" branch_funct3_i [2:0] $end
$var wire 32 A" branch_target_o [31:0] $end
$var wire 1 $ clk $end
$var wire 1 a conv_done_o $end
$var wire 1 } conv_init_i $end
$var wire 32 B" conv_result_o [31:0] $end
$var wire 1 ~ conv_start_i $end
$var wire 1 C" conv_start_pulse $end
$var wire 1 ` conv_start_pulse_o $end
$var wire 1 S flush_o $end
$var wire 32 D" imm_i [31:0] $end
$var wire 1 "" is_branch_i $end
$var wire 1 #" is_jal_i $end
$var wire 1 $" is_jalr_i $end
$var wire 1 E" is_jump $end
$var wire 1 ] is_jump_o $end
$var wire 32 F" jump_target_o [31:0] $end
$var wire 1 %" mem_read_i $end
$var wire 1 \ mem_read_o $end
$var wire 1 &" mem_sign_ext_i $end
$var wire 1 [ mem_sign_ext_o $end
$var wire 2 G" mem_size_i [1:0] $end
$var wire 2 H" mem_size_o [1:0] $end
$var wire 1 (" mem_write_i $end
$var wire 1 Y mem_write_o $end
$var wire 32 I" pc_if_i [31:0] $end
$var wire 32 J" pc_plus4_i [31:0] $end
$var wire 32 K" pc_plus4_o [31:0] $end
$var wire 5 L" rd_addr_i [4:0] $end
$var wire 5 M" rd_addr_o [4:0] $end
$var wire 1 ," reg_write_i $end
$var wire 1 V reg_write_o $end
$var wire 5 N" rs1_addr_i [4:0] $end
$var wire 32 O" rs1_data_i [31:0] $end
$var wire 5 P" rs2_addr_i [4:0] $end
$var wire 32 Q" rs2_data_i [31:0] $end
$var wire 32 R" rs2_data_o [31:0] $end
$var wire 1 % rst_n $end
$var wire 1 - stall_o $end
$var wire 2 S" wb_sel_i [1:0] $end
$var wire 2 T" wb_sel_o [1:0] $end
$var wire 2 U" pc_src_o [1:0] $end
$var wire 32 V" op_b [31:0] $end
$var wire 1 W" ltu $end
$var wire 1 X" lt $end
$var wire 32 Y" jump_target [31:0] $end
$var wire 32 Z" jalr_target [31:0] $end
$var wire 32 [" jalr_raw [31:0] $end
$var wire 32 \" jal_target [31:0] $end
$var wire 1 ]" eq $end
$var wire 2 ^" conv_status [1:0] $end
$var wire 32 _" conv_result [31:0] $end
$var wire 1 `" conv_done $end
$var wire 1 a" conv_busy $end
$var wire 32 b" branch_target [31:0] $end
$var wire 1 c" alu_zero $end
$var wire 32 d" alu_result [31:0] $end
$var parameter 32 e" ACCUM_WIDTH $end
$var parameter 32 f" CONV_LATENCY $end
$var parameter 32 g" DATA_WIDTH $end
$var reg 1 h" branch_taken $end
$var reg 1 i" conv_start_i_r $end
$var reg 32 j" op_a [31:0] $end
$scope module u_alu $end
$var wire 4 k" alu_op [3:0] $end
$var wire 32 l" operand_a [31:0] $end
$var wire 32 m" operand_b [31:0] $end
$var wire 32 n" signed_a [31:0] $end
$var wire 32 o" signed_b [31:0] $end
$var wire 1 c" zero $end
$var wire 5 p" shamt [4:0] $end
$var reg 32 q" alu_result [31:0] $end
$upscope $end
$scope module u_conv_pe $end
$var wire 1 $ clk $end
$var wire 1 C" conv_start $end
$var wire 2 r" conv_status [1:0] $end
$var wire 1 } init $end
$var wire 32 s" operand_a [31:0] $end
$var wire 32 t" operand_b [31:0] $end
$var wire 1 % rst_n $end
$var wire 32 u" product [31:0] $end
$var wire 32 v" conv_result [31:0] $end
$var wire 1 `" conv_done $end
$var wire 1 a" conv_busy $end
$var parameter 32 w" ACCUM_WIDTH $end
$var parameter 2 x" BUSY $end
$var parameter 32 y" CONV_LATENCY $end
$var parameter 33 z" CTR_W $end
$var parameter 32 {" DATA_WIDTH $end
$var parameter 2 |" DONE $end
$var parameter 2 }" IDLE $end
$var reg 32 ~" accum_r [31:0] $end
$var reg 4 !# cnt_r [3:0] $end
$var reg 1 "# init_r $end
$var reg 32 ## op_a_r [31:0] $end
$var reg 32 $# op_b_r [31:0] $end
$var reg 32 %# result_r [31:0] $end
$var reg 2 &# state_r [1:0] $end
$upscope $end
$upscope $end
$scope module u_id $end
$var wire 4 '# alu_op_o [3:0] $end
$var wire 2 (# alu_src_a_o [1:0] $end
$var wire 1 P alu_src_b_o $end
$var wire 3 )# branch_funct3_o [2:0] $end
$var wire 1 $ clk $end
$var wire 1 N conv_init_o $end
$var wire 1 M conv_start_o $end
$var wire 32 *# imm_o [31:0] $end
$var wire 32 +# instr_i [31:0] $end
$var wire 1 K is_branch_o $end
$var wire 1 J is_jal_o $end
$var wire 1 I is_jalr_o $end
$var wire 1 H mem_read_o $end
$var wire 1 ,# mem_sign_ext $end
$var wire 1 G mem_sign_ext_o $end
$var wire 2 -# mem_size_o [1:0] $end
$var wire 1 E mem_write_o $end
$var wire 32 .# pc_if_i [31:0] $end
$var wire 32 /# pc_if_o [31:0] $end
$var wire 32 0# pc_plus4_i [31:0] $end
$var wire 32 1# pc_plus4_o [31:0] $end
$var wire 5 2# rd_addr_o [4:0] $end
$var wire 1 A reg_write_o $end
$var wire 5 3# rs1_addr_o [4:0] $end
$var wire 32 4# rs1_data_o [31:0] $end
$var wire 5 5# rs2_addr_o [4:0] $end
$var wire 32 6# rs2_data_o [31:0] $end
$var wire 1 % rst_n $end
$var wire 2 7# wb_sel_o [1:0] $end
$var wire 1 * wb_we_i $end
$var wire 32 8# wb_data_i [31:0] $end
$var wire 5 9# wb_addr_i [4:0] $end
$var wire 32 :# rs2_data [31:0] $end
$var wire 5 ;# rs2 [4:0] $end
$var wire 32 <# rs1_data [31:0] $end
$var wire 5 =# rs1 [4:0] $end
$var wire 5 ># rd [4:0] $end
$var wire 7 ?# opcode [6:0] $end
$var wire 2 @# mem_size [1:0] $end
$var wire 1 A# is_store $end
$var wire 1 B# is_load $end
$var wire 1 C# is_jalr $end
$var wire 1 D# is_jal $end
$var wire 1 E# is_branch $end
$var wire 32 F# imm_u [31:0] $end
$var wire 32 G# imm_s [31:0] $end
$var wire 32 H# imm_j [31:0] $end
$var wire 32 I# imm_i [31:0] $end
$var wire 32 J# imm_b [31:0] $end
$var wire 7 K# funct7 [6:0] $end
$var wire 3 L# funct3 [2:0] $end
$var wire 1 M# conv_start $end
$var wire 1 N# conv_init $end
$var parameter 7 O# OP_AUIPC $end
$var parameter 7 P# OP_BRANCH $end
$var parameter 7 Q# OP_CUSTOM0 $end
$var parameter 7 R# OP_FENCE $end
$var parameter 7 S# OP_I_ARITH $end
$var parameter 7 T# OP_JAL $end
$var parameter 7 U# OP_JALR $end
$var parameter 7 V# OP_LOAD $end
$var parameter 7 W# OP_LUI $end
$var parameter 7 X# OP_R $end
$var parameter 7 Y# OP_STORE $end
$var parameter 7 Z# OP_SYSTEM $end
$var reg 4 [# alu_op [3:0] $end
$var reg 2 \# alu_src_a [1:0] $end
$var reg 1 ]# alu_src_b $end
$var reg 32 ^# imm [31:0] $end
$var reg 1 _# reg_write $end
$var reg 2 `# wb_sel [1:0] $end
$scope function funct3_to_aluop $end
$var reg 3 a# f3 [2:0] $end
$var reg 1 b# f7_5 $end
$upscope $end
$scope module u_regfile $end
$var wire 1 $ clk $end
$var wire 5 c# rs1_addr [4:0] $end
$var wire 5 d# rs2_addr [4:0] $end
$var wire 1 % rst_n $end
$var wire 1 * we $end
$var wire 32 e# rs2_data [31:0] $end
$var wire 32 f# rs1_data [31:0] $end
$var wire 32 g# rd_data [31:0] $end
$var wire 5 h# rd_addr [4:0] $end
$var integer 32 i# idx [31:0] $end
$upscope $end
$upscope $end
$scope module u_if $end
$var wire 32 j# branch_target_i [31:0] $end
$var wire 1 $ clk $end
$var wire 1 S flush_i $end
$var wire 32 k# jump_target_i [31:0] $end
$var wire 32 l# pc_if_o [31:0] $end
$var wire 2 m# pc_src_i [1:0] $end
$var wire 1 % rst_n $end
$var wire 1 - stall_i $end
$var wire 32 n# pc_plus4_o [31:0] $end
$var wire 32 o# pc_fetch_o [31:0] $end
$var wire 32 p# instr_i [31:0] $end
$var parameter 32 q# PC_NOP $end
$var reg 32 r# next_pc [31:0] $end
$var reg 32 s# pc_if_r [31:0] $end
$var reg 32 t# pc_reg [31:0] $end
$upscope $end
$scope module u_imem $end
$var wire 32 u# addr [31:0] $end
$var wire 1 $ clk $end
$var wire 10 v# word_index [9:0] $end
$var parameter 32 w# ADDR_WIDTH $end
$var parameter 32 x# DEPTH_WORDS $end
$var parameter 88 y# HEX_FILE $end
$var parameter 32 z# NOP_DEFAULT $end
$var reg 32 {# instr [31:0] $end
$var integer 32 |# i [31:0] $end
$upscope $end
$scope module u_mem $end
$var wire 32 }# alu_result_i [31:0] $end
$var wire 32 ~# alu_result_o [31:0] $end
$var wire 1 $ clk $end
$var wire 32 !$ conv_result_i [31:0] $end
$var wire 32 "$ conv_result_o [31:0] $end
$var wire 1 o is_jump_i $end
$var wire 1 7 is_jump_o $end
$var wire 32 #$ load_data_o [31:0] $end
$var wire 1 p mem_read_i $end
$var wire 1 q mem_sign_ext_i $end
$var wire 2 $$ mem_size_i [1:0] $end
$var wire 1 s mem_write_i $end
$var wire 32 %$ pc_plus4_i [31:0] $end
$var wire 32 &$ pc_plus4_o [31:0] $end
$var wire 5 '$ rd_addr_i [4:0] $end
$var wire 5 ($ rd_addr_o [4:0] $end
$var wire 1 v reg_write_i $end
$var wire 1 3 reg_write_o $end
$var wire 32 )$ rs2_data_i [31:0] $end
$var wire 1 % rst_n $end
$var wire 2 *$ wb_sel_i [1:0] $end
$var wire 2 +$ wb_sel_o [1:0] $end
$var wire 32 ,$ load_data [31:0] $end
$var parameter 32 -$ ACCUM_WIDTH $end
$var parameter 64 .$ DMEM_HEX $end
$scope module u_dmem $end
$var wire 1 $ clk $end
$var wire 32 /$ raddr [31:0] $end
$var wire 8 0$ rd_byte [7:0] $end
$var wire 2 1$ rsize [1:0] $end
$var wire 1 q sign_ext $end
$var wire 32 2$ waddr [31:0] $end
$var wire 32 3$ wdata [31:0] $end
$var wire 1 s we $end
$var wire 2 4$ wsize [1:0] $end
$var wire 12 5$ w_idx [11:0] $end
$var wire 32 6$ rd_word [31:0] $end
$var wire 16 7$ rd_half [15:0] $end
$var wire 12 8$ r_idx [11:0] $end
$var parameter 32 9$ ADDR_WIDTH $end
$var parameter 32 :$ DEPTH_BYTES $end
$var parameter 64 ;$ HEX_FILE $end
$var parameter 32 <$ ZERO_FILL $end
$var reg 32 =$ rdata [31:0] $end
$var integer 32 >$ i [31:0] $end
$upscope $end
$upscope $end
$scope module u_wb $end
$var wire 32 ?$ alu_result_i [31:0] $end
$var wire 32 @$ conv_result_i [31:0] $end
$var wire 1 7" is_jump_i $end
$var wire 32 A$ load_data_i [31:0] $end
$var wire 32 B$ pc_plus4_i [31:0] $end
$var wire 5 C$ rd_addr_i [4:0] $end
$var wire 1 ;" reg_write_i $end
$var wire 5 D$ wb_addr_o [4:0] $end
$var wire 32 E$ wb_data_o [31:0] $end
$var wire 2 F$ wb_sel_i [1:0] $end
$var wire 1 * wb_we_o $end
$var reg 32 G$ wb_data [31:0] $end
$upscope $end
$upscope $end
$scope task check_dmem_byte $end
$var reg 12 H$ addr [11:0] $end
$var reg 8 I$ exp [7:0] $end
$var reg 8 J$ got [7:0] $end
$upscope $end
$scope task check_dmem_word $end
$var reg 12 K$ addr [11:0] $end
$var reg 32 L$ exp [31:0] $end
$var reg 32 M$ got [31:0] $end
$upscope $end
$scope task check_reg $end
$var reg 32 N$ exp [31:0] $end
$var reg 32 O$ got [31:0] $end
$var reg 5 P$ rn [4:0] $end
$upscope $end
$upscope $end
$enddefinitions $end
$comment Show the parameter values. $end
$dumpall
b0 <$
b110010001100001011101000110000100101110011010000110010101111000 ;$
b1000000000000 :$
b1100 9$
b110010001100001011101000110000100101110011010000110010101111000 .$
b100000 -$
b10011 z#
b111000001110010011011110110011101110010011000010110110100101110011010000110010101111000 y#
b10000000000 x#
b1100 w#
b0 q#
b1110011 Z#
b100011 Y#
b110011 X#
b110111 W#
b11 V#
b1100111 U#
b1101111 T#
b10011 S#
b1111 R#
b1011 Q#
b1100011 P#
b10111 O#
b0 }"
b10 |"
b100000 {"
b100 z"
b100 y"
b1 x"
b100000 w"
b100000 g"
b100 f"
b100000 e"
b10011 h
b111000001110010011011110110011101110010011000010110110100101110011010000110010101111000 g
b110010001100001011101000110000100101110011010000110010101111000 f
b100000 e
b100 d
b100000 c
b1011101110000 #
b100 "
b1010 !
$end
#0
$dumpvars
bx P$
bx O$
bx N$
bx M$
bx L$
bx K$
bx J$
bx I$
bx H$
bx G$
bx F$
bx E$
bx D$
bx C$
bx B$
bx A$
bx @$
bx ?$
b1000000000000 >$
bx =$
bx 8$
bx 7$
bx 6$
bx 5$
bx 4$
bx 3$
bx 2$
bx 1$
bx 0$
bx /$
bx ,$
bx +$
bx *$
bx )$
bx ($
bx '$
bx &$
bx %$
bx $$
bx #$
bx "$
bx !$
bx ~#
bx }#
b10000000000 |#
bx {#
bx v#
bx u#
bx t#
bx s#
bx r#
bx p#
bx o#
bx n#
bx m#
bx l#
bx k#
bx j#
bx i#
bx h#
bx g#
bx f#
bx e#
bx d#
bx c#
xb#
bx a#
bx `#
x_#
b0 ^#
x]#
bx \#
bx [#
xN#
xM#
bx L#
bx K#
bx0 J#
bx I#
bx0 H#
bx G#
bx000000000000 F#
xE#
xD#
xC#
xB#
xA#
bx @#
bx ?#
bx >#
bx =#
bx <#
bx ;#
bx :#
bx 9#
bx 8#
bx 7#
bx 6#
bx 5#
bx 4#
bx 3#
bx 2#
bx 1#
bx 0#
bx /#
bx .#
bx -#
x,#
bx +#
b0 *#
bx )#
bx (#
bx '#
bx &#
bx %#
bx $#
bx ##
x"#
bx !#
bx ~"
bx v"
bx u"
bx t"
bx s"
bx r"
bx q"
bx p"
bx o"
bx n"
bx m"
bx l"
bx k"
bx j"
xi"
xh"
bx d"
xc"
bx b"
xa"
x`"
bx _"
bx ^"
x]"
bx \"
bx ["
bx0 Z"
bx Y"
xX"
xW"
bx V"
bx U"
bx T"
bx S"
bx R"
bx Q"
bx P"
bx O"
bx N"
bx M"
bx L"
bx K"
bx J"
bx I"
bx H"
bx G"
bx F"
xE"
bx D"
xC"
bx B"
bx A"
bx @"
bx ?"
bx >"
bx ="
bx <"
x;"
bx :"
bx 9"
bx 8"
x7"
bx 6"
bx 5"
bx 4"
bx 3"
bx 2"
bx 1"
bx 0"
bx /"
bx ."
bx -"
x,"
bx +"
bx *"
bx )"
x("
bx '"
x&"
x%"
x$"
x#"
x""
bx !"
x~
x}
bx |
x{
bx z
bx y
bx x
bx w
xv
bx u
bx t
xs
bx r
xq
xp
xo
bx n
bx m
bx l
xk
bx j
bx i
bx b
xa
x`
bx _
bx ^
x]
x\
x[
bx Z
xY
bx X
bx W
xV
bx U
bx T
xS
bx R
bx Q
xP
bx O
xN
xM
b0 L
xK
xJ
xI
xH
xG
bx F
xE
bx D
bx C
bx B
xA
bx @
bx ?
bx >
bx =
bx <
bx ;
bx :
bx 9
bx 8
x7
bx 6
bx 5
bx 4
x3
bx 2
bx 1
bx 0
bx /
bx .
x-
bx ,
bx +
x*
b0 )
b0 (
b0 '
b0 &
0%
0$
$end
#5000
1G
1,#
b0 J#
b0 H#
b0 7$
b0 6$
1A
1_#
b0 <
b0 7#
b0 `#
1P
1]#
b0 Q
b0 (#
b0 \#
b0 F
b0 -#
b0 @#
b0 ?
b0 4#
b0 <#
b0 f#
b0 =
b0 6#
b0 :#
b0 e#
0N
0N#
b0 R
b0 '#
b0 [#
b0 a#
0b#
b0 I#
b0 G#
b0 F#
b0 .
b0 U"
b0 m#
b0 Z"
b0 p"
0S
b0 0$
b0 v#
0H
0B#
0E
0A#
0K
0E#
0J
0D#
0I
0C#
0M
0M#
b10011 ?#
b0 B
b0 2#
b0 >#
b0 O
b0 )#
b0 L#
b0 @
b0 3#
b0 =#
b0 c#
b0 >
b0 5#
b0 ;#
b0 d#
b0 K#
0`
0C"
0]
0E"
1c"
b0 _
b0 >"
b0 d"
b0 q"
b100 r#
b0 :
b0 F"
b0 k#
b0 Y"
b0 V"
b0 m"
b0 o"
0h"
b0 j"
b0 l"
b0 n"
b0 6
b0 #$
b0 ,$
b0 =$
b0 5$
b0 8$
b0 +
b0 8#
b0 g#
b0 E$
b0 G$
b0 1
b0 o#
b0 t#
b0 u#
b100 /
b100 n#
b0 0
b0 l#
b0 s#
0"#
b0 u"
b0 $#
b0 ##
b0 !#
b0 ^
b0 B"
b0 _"
b0 v"
b0 %#
b0 ~"
0-
0a"
0a
0`"
b0 ^"
b0 r"
b0 &#
0i"
b10011 2"
b10011 +#
b100 C
b100 1#
b100 4"
b100 0#
b0 D
b0 /#
b0 3"
b0 .#
0}
0~
0$"
0#"
b0 |
b0 @"
0""
0V
0,"
b0 T
b0 T"
b0 1"
b0 S"
1[
1&"
b10 Z
b10 H"
b10 '"
b10 G"
0Y
0("
0\
0%"
0{
b0 z
b0 ?"
b0 y
b0 ="
b0 k"
b0 b
b0 A"
b0 j#
b0 b"
b0 ["
b0 \"
b0 !"
b0 D"
b0 W
b0 M"
b0 +"
b0 L"
b0 /"
b0 P"
b0 -"
b0 N"
b0 U
b0 R"
1]"
0W"
0X"
b0 0"
b0 Q"
b0 t"
b0 ."
b0 O"
b0 s"
b100 X
b100 K"
b100 *"
b100 J"
b0 )"
b0 I"
b100 i
b0 j
0k
b0 l
07
0o
03
0v
b0 2
b0 +$
b0 x
b0 *$
1q
b10 r
b10 $$
b10 1$
b10 4$
0s
0p
b100 5
b100 &$
b100 t
b100 %$
b0 4
b0 ($
b0 u
b0 '$
b0 w
b0 )$
b0 3$
b0 8
b0 "$
b0 n
b0 !$
b0 9
b0 ~#
b0 m
b0 }#
b0 /$
b0 2$
07"
0*
0;"
b0 <"
b0 F$
b100 9"
b100 B$
b0 ,
b0 9#
b0 h#
b0 D$
b0 :"
b0 C$
b0 6"
b0 @$
b0 8"
b0 A$
b0 5"
b0 ?$
b100000 i#
b1 )
1$
#10000
0$
#15000
b10100000000000010010011 ;
b10100000000000010010011 p#
b10100000000000010010011 {#
b10 )
b100000 i#
1$
#20000
0$
#25000
b100000 i#
b11 )
1$
#30000
0$
#35000
b100 )
b100000 i#
1$
#40000
0$
#45000
b100000 i#
b101 )
1$
#50000
1%
0$
#55000
b100000000000 J#
b101 L
b101 *#
b101 ^#
b100000000100 H#
b101 I#
b1 G#
b10100000000000000000000 F#
b1 B
b1 2#
b1 >#
b101 >
b101 5#
b101 ;#
b101 d#
b1000 r#
b1 v#
1V
1,"
b0 Z
b0 H"
b0 '"
b0 G"
1{
b10100000000000010010011 2"
b10100000000000010010011 +#
b100 1
b100 o#
b100 t#
b100 u#
b1 &
b110 )
1$
#60000
0$
#65000
0c"
b101 _
b101 >"
b101 d"
b101 q"
b101 p"
b100 Z"
b10 v#
b101 V"
b101 m"
b101 o"
b1100 r#
b101 :
b101 F"
b101 k#
b101 Y"
b101000000000000100010011 ;
b101000000000000100010011 p#
b101000000000000100010011 {#
b1000 1
b1000 o#
b1000 t#
b1000 u#
b1000 /
b1000 n#
b100 0
b100 l#
b100 s#
b101 b
b101 A"
b101 j#
b101 b"
b101 ["
b101 \"
b101 !"
b101 D"
b1 W
b1 M"
b1 +"
b1 L"
b101 /"
b101 P"
13
1v
b0 r
b0 $$
b0 1$
b0 4$
b111 )
b10 &
1$
#70000
0$
#75000
b10 J#
b1010 L
b1010 *#
b1010 ^#
b1010 H#
b1010 I#
b10 G#
b101000000000000000000000 F#
b101 5$
b101 8$
b10 B
b10 2#
b10 >#
b1010 >
b1010 5#
b1010 ;#
b1010 d#
b10000 r#
b11 v#
1*
1;"
b1 4
b1 ($
b1 u
b1 '$
b101 9
b101 ~#
b101 m
b101 }#
b101 /$
b101 2$
b101000000000000100010011 2"
b101000000000000100010011 +#
b1000 C
b1000 1#
b1000 4"
b1000 0#
b100 D
b100 /#
b100 3"
b100 .#
b1100 /
b1100 n#
b1000 0
b1000 l#
b1000 s#
b1100 1
b1100 o#
b1100 t#
b1100 u#
b10011 ;
b10011 p#
b10011 {#
b11 &
b1000 )
1$
#80000
0$
#85000
b0 J#
b0 L
b0 *#
b0 ^#
b0 H#
b0 I#
b0 G#
b0 F#
0c"
b1010 _
b1010 >"
b1010 d"
b1010 q"
b1010 p"
b1010 Z"
b100 v#
b0 B
b0 2#
b0 >#
b0 >
b0 5#
b0 ;#
b0 d#
b1010 V"
b1010 m"
b1010 o"
b10100 r#
b1110 :
b1110 F"
b1110 k#
b1110 Y"
b101 +
b101 8#
b101 g#
b101 E$
b101 G$
b10000 1
b10000 o#
b10000 t#
b10000 u#
b10000 /
b10000 n#
b1100 0
b1100 l#
b1100 s#
b10011 2"
b10011 +#
b1100 C
b1100 1#
b1100 4"
b1100 0#
b1000 D
b1000 /#
b1000 3"
b1000 .#
b1010 ["
b1010 !"
b1010 D"
b10 W
b10 M"
b10 +"
b10 L"
b1010 /"
b1010 P"
b1000 X
b1000 K"
b1000 *"
b1000 J"
b1110 b
b1110 A"
b1110 j#
b1110 b"
b1110 \"
b100 )"
b100 I"
b1 ,
b1 9#
b1 h#
b1 D$
b1 :"
b1 C$
b101 5"
b101 ?$
b1001 )
b100 &
1$
#90000
0$
#95000
1c"
b0 _
b0 >"
b0 d"
b0 q"
b0 p"
b0 Z"
b1010 5$
b1010 8$
b0 V"
b0 m"
b0 o"
b1000 :
b1000 F"
b1000 k#
b1000 Y"
b11000 r#
b101 v#
b1000 5
b1000 &$
b1000 t
b1000 %$
b10 4
b10 ($
b10 u
b10 '$
b1010 9
b1010 ~#
b1010 m
b1010 }#
b1010 /$
b1010 2$
b0 ["
b0 !"
b0 D"
b0 W
b0 M"
b0 +"
b0 L"
b0 /"
b0 P"
b1100 X
b1100 K"
b1100 *"
b1100 J"
b1000 b
b1000 A"
b1000 j#
b1000 b"
b1000 \"
b1000 )"
b1000 I"
b10000 C
b10000 1#
b10000 4"
b10000 0#
b1100 D
b1100 /#
b1100 3"
b1100 .#
b10100 /
b10100 n#
b10000 0
b10000 l#
b10000 s#
b10100 1
b10100 o#
b10100 t#
b10100 u#
b101 &
b1010 )
1$
#100000
0$
#105000
b110 v#
b11100 r#
b1100 :
b1100 F"
b1100 k#
b1100 Y"
b0 5$
b0 8$
b1010 +
b1010 8#
b1010 g#
b1010 E$
b1010 G$
b11000 1
b11000 o#
b11000 t#
b11000 u#
b11000 /
b11000 n#
b10100 0
b10100 l#
b10100 s#
b10100 C
b10100 1#
b10100 4"
b10100 0#
b10000 D
b10000 /#
b10000 3"
b10000 .#
b10000 X
b10000 K"
b10000 *"
b10000 J"
b1100 b
b1100 A"
b1100 j#
b1100 b"
b1100 \"
b1100 )"
b1100 I"
b1100 5
b1100 &$
b1100 t
b1100 %$
b0 4
b0 ($
b0 u
b0 '$
b0 9
b0 ~#
b0 m
b0 }#
b0 /$
b0 2$
b1000 9"
b1000 B$
b10 ,
b10 9#
b10 h#
b10 D$
b10 :"
b10 C$
b1010 5"
b1010 ?$
b1011 )
b110 &
1$
#110000
0$
#115000
b0 +
b0 8#
b0 g#
b0 E$
b0 G$
b10000 :
b10000 F"
b10000 k#
b10000 Y"
b100000 r#
b111 v#
b1100 9"
b1100 B$
b0 ,
b0 9#
b0 h#
b0 D$
b0 :"
b0 C$
b0 5"
b0 ?$
b10000 5
b10000 &$
b10000 t
b10000 %$
b10100 X
b10100 K"
b10100 *"
b10100 J"
b10000 b
b10000 A"
b10000 j#
b10000 b"
b10000 \"
b10000 )"
b10000 I"
b11000 C
b11000 1#
b11000 4"
b11000 0#
b10100 D
b10100 /#
b10100 3"
b10100 .#
b11100 /
b11100 n#
b11000 0
b11000 l#
b11000 s#
b11100 1
b11100 o#
b11100 t#
b11100 u#
b1000001000000110110011 ;
b1000001000000110110011 p#
b1000001000000110110011 {#
b111 &
b1100 )
1$
#120000
0$
