Project/tb_ex_stage.vcd
$date
	Tue May  5 12:04:22 2026
$end
$version
	Icarus Verilog
$end
$timescale
	1ps
$end
$scope module tb_ex_stage $end
$var wire 2 ! wb_sel_o [1:0] $end
$var wire 1 " stall_o $end
$var wire 32 # rs2_data_o [31:0] $end
$var wire 1 $ reg_write_o $end
$var wire 5 % rd_addr_o [4:0] $end
$var wire 2 & pc_src_o [1:0] $end
$var wire 32 ' pc_plus4_o [31:0] $end
$var wire 1 ( mem_write_o $end
$var wire 2 ) mem_size_o [1:0] $end
$var wire 1 * mem_sign_ext_o $end
$var wire 1 + mem_read_o $end
$var wire 32 , jump_target_o [31:0] $end
$var wire 1 - is_jump_o $end
$var wire 1 . flush_o $end
$var wire 32 / conv_result_o [31:0] $end
$var wire 32 0 branch_target_o [31:0] $end
$var wire 32 1 alu_result_o [31:0] $end
$var parameter 32 2 CLK_PERIOD $end
$var parameter 32 3 CONV_LATENCY $end
$var reg 4 4 alu_op_i [3:0] $end
$var reg 2 5 alu_src_a_i [1:0] $end
$var reg 1 6 alu_src_b_i $end
$var reg 3 7 branch_funct3_i [2:0] $end
$var reg 1 8 clk $end
$var reg 1 9 conv_init_i $end
$var reg 1 : conv_start_i $end
$var reg 32 ; imm_i [31:0] $end
$var reg 1 < is_branch_i $end
$var reg 1 = is_jal_i $end
$var reg 1 > is_jalr_i $end
$var reg 1 ? mem_read_i $end
$var reg 1 @ mem_sign_ext_i $end
$var reg 2 A mem_size_i [1:0] $end
$var reg 1 B mem_write_i $end
$var reg 32 C pc_if_i [31:0] $end
$var reg 32 D pc_plus4_i [31:0] $end
$var reg 5 E rd_addr_i [4:0] $end
$var reg 1 F reg_write_i $end
$var reg 5 G rs1_addr_i [4:0] $end
$var reg 32 H rs1_data_i [31:0] $end
$var reg 5 I rs2_addr_i [4:0] $end
$var reg 32 J rs2_data_i [31:0] $end
$var reg 1 K rst_n $end
$var reg 2 L wb_sel_i [1:0] $end
$var integer 32 M busy_cnt [31:0] $end
$var integer 32 N fail_count [31:0] $end
$var integer 32 O pass_count [31:0] $end
$scope module dut $end
$var wire 4 P alu_op_i [3:0] $end
$var wire 32 Q alu_result_o [31:0] $end
$var wire 2 R alu_src_a_i [1:0] $end
$var wire 1 6 alu_src_b_i $end
$var wire 3 S branch_funct3_i [2:0] $end
$var wire 32 T branch_target_o [31:0] $end
$var wire 1 8 clk $end
$var wire 1 9 conv_init_i $end
$var wire 32 U conv_result_o [31:0] $end
$var wire 1 : conv_start_i $end
$var wire 1 . flush_o $end
$var wire 32 V imm_i [31:0] $end
$var wire 1 < is_branch_i $end
$var wire 1 = is_jal_i $end
$var wire 1 > is_jalr_i $end
$var wire 1 W is_jump $end
$var wire 1 - is_jump_o $end
$var wire 32 X jump_target_o [31:0] $end
$var wire 1 ? mem_read_i $end
$var wire 1 + mem_read_o $end
$var wire 1 @ mem_sign_ext_i $end
$var wire 1 * mem_sign_ext_o $end
$var wire 2 Y mem_size_i [1:0] $end
$var wire 2 Z mem_size_o [1:0] $end
$var wire 1 B mem_write_i $end
$var wire 1 ( mem_write_o $end
$var wire 32 [ pc_if_i [31:0] $end
$var wire 32 \ pc_plus4_i [31:0] $end
$var wire 32 ] pc_plus4_o [31:0] $end
$var wire 5 ^ rd_addr_i [4:0] $end
$var wire 5 _ rd_addr_o [4:0] $end
$var wire 1 F reg_write_i $end
$var wire 1 $ reg_write_o $end
$var wire 5 ` rs1_addr_i [4:0] $end
$var wire 32 a rs1_data_i [31:0] $end
$var wire 5 b rs2_addr_i [4:0] $end
$var wire 32 c rs2_data_i [31:0] $end
$var wire 32 d rs2_data_o [31:0] $end
$var wire 1 K rst_n $end
$var wire 1 " stall_o $end
$var wire 2 e wb_sel_i [1:0] $end
$var wire 2 f wb_sel_o [1:0] $end
$var wire 2 g pc_src_o [1:0] $end
$var wire 32 h op_b [31:0] $end
$var wire 1 i ltu $end
$var wire 1 j lt $end
$var wire 32 k jump_target [31:0] $end
$var wire 32 l jalr_target [31:0] $end
$var wire 32 m jalr_raw [31:0] $end
$var wire 32 n jal_target [31:0] $end
$var wire 1 o eq $end
$var wire 2 p conv_status [1:0] $end
$var wire 32 q conv_result [31:0] $end
$var wire 1 r conv_done $end
$var wire 1 s conv_busy $end
$var wire 32 t branch_target [31:0] $end
$var wire 1 u alu_zero $end
$var wire 32 v alu_result [31:0] $end
$var parameter 32 w ACCUM_WIDTH $end
$var parameter 32 x CONV_LATENCY $end
$var parameter 32 y DATA_WIDTH $end
$var reg 1 z branch_taken $end
$var reg 32 { op_a [31:0] $end
$scope module u_alu $end
$var wire 4 | alu_op [3:0] $end
$var wire 32 } operand_a [31:0] $end
$var wire 32 ~ operand_b [31:0] $end
$var wire 32 !" signed_a [31:0] $end
$var wire 32 "" signed_b [31:0] $end
$var wire 1 u zero $end
$var wire 5 #" shamt [4:0] $end
$var reg 32 $" alu_result [31:0] $end
$upscope $end
$scope module u_conv_pe $end
$var wire 1 8 clk $end
$var wire 1 : conv_start $end
$var wire 2 %" conv_status [1:0] $end
$var wire 1 9 init $end
$var wire 32 &" operand_a [31:0] $end
$var wire 32 '" operand_b [31:0] $end
$var wire 1 K rst_n $end
$var wire 32 (" product [31:0] $end
$var wire 32 )" conv_result [31:0] $end
$var wire 1 r conv_done $end
$var wire 1 s conv_busy $end
$var parameter 32 *" ACCUM_WIDTH $end
$var parameter 2 +" BUSY $end
$var parameter 32 ," CONV_LATENCY $end
$var parameter 33 -" CTR_W $end
$var parameter 32 ." DATA_WIDTH $end
$var parameter 2 /" DONE $end
$var parameter 2 0" IDLE $end
$var reg 32 1" accum_r [31:0] $end
$var reg 4 2" cnt_r [3:0] $end
$var reg 1 3" init_r $end
$var reg 32 4" op_a_r [31:0] $end
$var reg 32 5" op_b_r [31:0] $end
$var reg 32 6" result_r [31:0] $end
$var reg 2 7" state_r [1:0] $end
$upscope $end
$upscope $end
$scope task chk $end
$var reg 32 8" exp [31:0] $end
$var reg 32 9" got [31:0] $end
$var reg 256 :" lbl [255:0] $end
$upscope $end
$scope task reset_inputs $end
$upscope $end
$upscope $end
$enddefinitions $end
$comment Show the parameter values. $end
$dumpall
b0 0"
b10 /"
b100000 ."
b100 -"
b100 ,"
b1 +"
b100000 *"
b100000 y
b100 x
b100000 w
b100 3
b1010 2
$end
#0
$dumpvars
bx :"
bx 9"
bx 8"
bx 7"
bx 6"
bx 5"
bx 4"
x3"
bx 2"
bx 1"
bx )"
bx ("
b0 '"
b0 &"
bx %"
b0 $"
b0 #"
b0 ""
b0 !"
b0 ~
b0 }
b0 |
b0 {
0z
b0 v
1u
b100000000 t
xs
xr
bx q
bx p
1o
b100000000 n
b0 m
b0 l
b100000000 k
0j
0i
b0 h
b0 g
b0 f
b0 e
b0 d
b0 c
b10 b
b0 a
b1 `
b11 _
b11 ^
b100000100 ]
b100000100 \
b100000000 [
b10 Z
b10 Y
b100000000 X
0W
b0 V
bx U
b100000000 T
b0 S
b0 R
b0 Q
b0 P
b0 O
b0 N
bx M
b0 L
0K
b0 J
b10 I
b0 H
b1 G
1F
b11 E
b100000100 D
b100000000 C
0B
b10 A
1@
0?
0>
0=
0<
b0 ;
0:
09
08
b0 7
06
b0 5
b0 4
b0 1
b100000000 0
bx /
0.
0-
b100000000 ,
0+
1*
b10 )
0(
b100000100 '
b0 &
b11 %
1$
b0 #
x"
b0 !
$end
#5000
03"
b0 ("
b0 5"
b0 4"
b0 2"
b0 /
b0 U
b0 q
b0 )"
b0 6"
b0 1"
0"
0s
0r
b0 p
b0 %"
b0 7"
18
#10000
08
#15000
18
#20000
08
#25000
18
#30000
1K
08
#35000
18
#40000
b101 #"
0u
b1111 1
b1111 Q
b1111 v
b1111 $"
b101 h
b101 ~
b101 ""
b1010 l
b1010 !"
b1010 {
b1010 }
b101 #
b101 d
b101 J
b101 c
b101 '"
0o
b1010 m
b1010 H
b1010 a
b1010 &"
08
#42000
b0 #"
0u
b1001000000000 1
b1001000000000 Q
b1001000000000 v
b1001000000000 $"
b1000000000000 h
b1000000000000 ~
b1000000000000 ""
b1000000001010 l
b1000000000 !"
b1000000000 {
b1000000000 }
b1001000000000 ,
b1001000000000 X
b1001000000000 k
16
b1 5
b1 R
b1000000001010 m
b1000000000000 ;
b1000000000000 V
b1001000000000 0
b1001000000000 T
b1001000000000 t
b1001000000000 n
b1000000000 C
b1000000000 [
b1 O
b111001101110010011000110101111101100001001111010111001001110011001100010010110000100000011100110111001001100011010111110110001000111101011100100111001100110010001110100010000000110001001100000010101100110101001111010011000100110101 :"
b1111 8"
b1111 9"
#44000
0u
b10101011110011011110000000000000 1
b10101011110011011110000000000000 Q
b10101011110011011110000000000000 v
b10101011110011011110000000000000 $"
b0 !"
b0 {
b0 }
b10101011110011011110000000000000 h
b10101011110011011110000000000000 ~
b10101011110011011110000000000000 ""
b10101011110011011110000000001010 l
b10101011110011011110001000000000 ,
b10101011110011011110001000000000 X
b10101011110011011110001000000000 k
b10 5
b10 R
b10101011110011011110001000000000 0
b10101011110011011110001000000000 T
b10101011110011011110001000000000 t
b10101011110011011110000000001010 m
b10101011110011011110001000000000 n
b10101011110011011110000000000000 ;
b10101011110011011110000000000000 V
b10 O
b111001001100011010111110110000100111101010100000100001100101100001000000111001101110010011000110101111101100010001111010110100101101101011011010011101000100000001100000111100000110010001100000011000000101011001100000111100000110001001100000011000000110000 :"
b1001000000000 8"
b1001000000000 9"
#45000
18
#46000
b1111 #"
0u
b11111111111111111111111111111111 1
b11111111111111111111111111111111 Q
b11111111111111111111111111111111 v
b11111111111111111111111111111111 $"
b1111000011110000111100001111 h
b1111000011110000111100001111 ~
b1111000011110000111100001111 ""
b11110000111100001111000011110000 l
b11110000111100001111000011110000 !"
b11110000111100001111000011110000 {
b11110000111100001111000011110000 }
b100000000 ,
b100000000 X
b100000000 k
06
b0 5
b0 R
b0 ;
b0 V
b1111000011110000111100001111 #
b1111000011110000111100001111 d
0o
b1111000011110000111100001111 J
b1111000011110000111100001111 c
b1111000011110000111100001111 '"
0i
1j
b11110000111100001111000011110000 m
b11110000111100001111000011110000 H
b11110000111100001111000011110000 a
b11110000111100001111000011110000 &"
b100000000 0
b100000000 T
b100000000 t
b100000000 n
b100000000 C
b100000000 [
b11 O
b11100110111001001100011010111110110000100111101011110100110010101110010011011110010110000100000011100110111001001100011010111110110001000111101011010010110110101101101001000000010100001001100010101010100100100101001 :"
b10101011110011011110000000000000 8"
b10101011110011011110000000000000 9"
#48000
0u
b11100001111000011110000111100001 1
b11100001111000011110000111100001 Q
b11100001111000011110000111100001 v
b11100001111000011110000111100001 $"
b1 4
b1 P
b1 |
b100 O
b10000010100010001000100 :"
b11111111111111111111111111111111 8"
b11111111111111111111111111111111 9"
#50000
0u
b11111111111111111111111111111111 1
b11111111111111111111111111111111 Q
b11111111111111111111111111111111 v
b11111111111111111111111111111111 $"
b1000 4
b1000 P
b1000 |
b101 O
b10100110101010101000010 :"
b11100001111000011110000111100001 8"
b11100001111000011110000111100001 9"
08
#52000
1u
b0 1
b0 Q
b0 v
b0 $"
b1001 4
b1001 P
b1001 |
b110 O
b100111101010010 :"
b11111111111111111111111111111111 8"
b11111111111111111111111111111111 9"
#54000
0u
b11111111111111111111111111111111 1
b11111111111111111111111111111111 Q
b11111111111111111111111111111111 v
b11111111111111111111111111111111 $"
b101 4
b101 P
b101 |
b111 O
b10000010100111001000100 :"
b0 8"
b0 9"
#55000
18
#56000
b1000 #"
0u
b100000000 1
b100000000 Q
b100000000 v
b100000000 $"
b1000 h
b1000 ~
b1000 ""
b0 l
b1 !"
b1 {
b1 }
b10 4
b10 P
b10 |
b1000 #
b1000 d
b1000 J
b1000 c
b1000 '"
1i
b1 m
b1 H
b1 a
b1 &"
b1000 O
b10110000100111101010010 :"
b11111111111111111111111111111111 8"
b11111111111111111111111111111111 9"
#58000
b11111111000000000000000000000000 l
b11111111000000000000000000000000 !"
b11111111000000000000000000000000 {
b11111111000000000000000000000000 }
0u
b111111110000000000000000 1
b111111110000000000000000 Q
b111111110000000000000000 v
b111111110000000000000000 $"
0i
b11111111000000000000000000000000 m
b11111111000000000000000000000000 H
b11111111000000000000000000000000 a
b11111111000000000000000000000000 &"
b110 4
b110 P
b110 |
b1001 O
b10100110100110001001100001110100010000000110001001111000011110000111000 :"
b100000000 8"
b100000000 9"
#60000
0u
b11111111111111110000000000000000 1
b11111111111111110000000000000000 Q
b11111111111111110000000000000000 v
b11111111111111110000000000000000 $"
b111 4
b111 P
b111 |
b1010 O
b1010011010100100100110000111010001000000110110001101111011001110110100101100011011000010110110000100000001111100011111000111000 :"
b111111110000000000000000 8"
b111111110000000000000000 9"
08
#62000
b101 #"
0u
b1 1
b1 Q
b1 v
b1 $"
b101 h
b101 ~
b101 ""
b10 l
b11 !"
b11 {
b11 }
b11 4
b11 P
b11 |
b101 #
b101 d
b101 J
b101 c
b101 '"
1i
b11 m
b11 H
b11 a
b11 &"
b1011 O
b11101000100000011000010111001001101001011101000110100000100000001111100011111000111000001000000010100001110011011010010110011101101110001000000110001001101001011101000010000001110000011100100110010101110011011001010111001001110110011001010110010000101001 :"
b11111111111111110000000000000000 8"
b11111111111111110000000000000000 9"
#64000
0u
b1 1
b1 Q
b1 v
b1 $"
b100 4
b100 P
b100 |
b1100 O
b10100110100110001010100001110100010000000110011001111000011010100100000011100110110100101100111011011100110010101100100 :"
b1 8"
b1 9"
#65000
18
#66000
b1 &
b1 g
b111 #"
1.
0u
b1110 1
b1110 Q
b1110 v
b1110 $"
b111 h
b111 ~
b111 ""
1z
b110 l
b111 !"
b111 {
b111 }
1<
b0 4
b0 P
b0 |
b111 #
b111 d
1o
0i
0j
b111 J
b111 c
b111 '"
b111 m
b111 H
b111 a
b111 &"
b1101 O
b10100110100110001010100010101010011101000100000001100110011110000110101001000000111010101101110011100110110100101100111011011100110010101100100 :"
#68000
b0 &
b0 g
0u
b1111 1
b1111 Q
b1111 v
b1111 $"
b1000 #"
0.
b1000 h
b1000 ~
b1000 ""
0z
b1000 #
b1000 d
0o
1i
1j
b1000 J
b1000 c
b1000 '"
b1111 O
b10000100100010101010001001000000110010101110001011101010110000101101100001110100010000001110000011000110101111101110011011100100110001100111101011000100111001001100001011011100110001101101000 :"
#70000
b1 &
b1 g
1.
1z
b1 7
b1 S
b10000 O
b1000010010001010101000100100000011011100110111101110100001011010110010101110001011101010110000101101100001110100010000001100110011011000111010101110011011010000011110100110000 :"
b0 8"
b0 9"
08
#72000
b101 #"
0u
b1000 1
b1000 Q
b1000 v
b1000 $"
1z
b101 h
b101 ~
b101 ""
b10 l
b11 !"
b11 {
b11 }
b100 7
b100 S
b101 #
b101 d
b101 J
b101 c
b101 '"
b11 m
b11 H
b11 a
b11 &"
b10001 O
b1000010010011100100010100100000011011100110111101110100001011010110010101110001011101010110000101101100001110100010000001100110011011000111010101110011011010000011110100110001 :"
b1 8"
b1 9"
#74000
b1 #"
1u
b0 1
b0 Q
b0 v
b0 $"
b1 h
b1 ~
b1 ""
1z
b11111111111111111111111111111110 l
b11111111111111111111111111111111 !"
b11111111111111111111111111111111 {
b11111111111111111111111111111111 }
b1 #
b1 d
b1 J
b1 c
b1 '"
0i
b11111111111111111111111111111111 m
b11111111111111111111111111111111 H
b11111111111111111111111111111111 a
b11111111111111111111111111111111 &"
b10010 O
b1000010010011000101010000111010001000000011001100111100001101010010000001110011011010010110011101101110011001010110010000101100001000000111010001100001011010110110010101101110 :"
#75000
18
#76000
b0 &
b0 g
0.
0z
b101 7
b101 S
b10011 O
b100001001001100010101000011101000100000001011010011000100111100001100010010000001110011011010010110011101101110011001010110010000101100001000000111010001100001011010110110010101101110 :"
#78000
b1 &
b1 g
b11111 #"
1.
b11111111111111111111111111111111 h
b11111111111111111111111111111111 ~
b11111111111111111111111111111111 ""
1z
b0 l
b1 !"
b1 {
b1 }
b110 7
b110 S
b11111111111111111111111111111111 #
b11111111111111111111111111111111 d
1i
b11111111111111111111111111111111 J
b11111111111111111111111111111111 c
b11111111111111111111111111111111 '"
0o
0j
b1 m
b1 H
b1 a
b1 &"
b10100 O
b1000010010001110100010100111010001000000010110100110001001111100011110100110001001000000111001101101001011001110110111001100101011001000010110000100000010011100100111101010100001000000111010001100001011010110110010101101110 :"
b0 8"
b0 9"
#80000
b1 #"
b1 h
b1 ~
b1 ""
1z
b11111111111111111111111111111110 l
b11111111111111111111111111111111 !"
b11111111111111111111111111111111 {
b11111111111111111111111111111111 }
b111 7
b111 S
b1 #
b1 d
1j
b1 J
b1 c
b1 '"
0o
0i
b11111111111111111111111111111111 m
b11111111111111111111111111111111 H
b11111111111111111111111111111111 a
b11111111111111111111111111111111 &"
b10101 O
b10000100100110001010100010101010011101000100000001100010011110000110000011110000100011001000110010001100100011000100000011101010110111001110011011010010110011101101110011001010110010000101100001000000111010001100001011010110110010101101110 :"
b1 8"
b1 9"
08
#82000
b101 #"
0u
b1010 1
b1010 Q
b1010 v
b1010 $"
b1001000000 ,
b1001000000 X
b1001000000 k
b101 h
b101 ~
b101 ""
1z
b1000100 l
b101 !"
b101 {
b101 }
b1000000 ;
b1000000 V
b1001000000 0
b1001000000 T
b1001000000 t
b1001000000 n
b1000000000 C
b1000000000 [
b0 7
b0 S
1<
b101 #
b101 d
1o
0j
b101 J
b101 c
b101 '"
0i
b1000101 m
b101 H
b101 a
b101 &"
b10110 O
b1000010010001110100010101010101001110100010000000110000011110000100011001000110010001100100011000111110001111010011000100100000011101010110111001110011011010010110011101101110011001010110010000101100001000000111010001100001011010110110010101101110 :"
#84000
b11111111111111111111111111111100 l
b111111000 ,
b111111000 X
b111111000 k
b111111000 0
b111111000 T
b111111000 t
b11111111111111111111111111111101 m
b111111000 n
b11111111111111111111111111111000 ;
b11111111111111111111111111111000 V
b11000 O
b111000001100011010111110111001101110010011000110011110101100010011100100110000101101110011000110110100000100000011011110110111000100000011101000110000101101011011001010110111000100000010000100100010101010001 :"
b1 8"
b1 9"
#85000
18
#86000
b10 &
b10 g
b0 #"
1u
b0 1
b0 Q
b0 v
b0 $"
1-
1W
b0 h
b0 ~
b0 ""
0z
b100000000 l
b0 !"
b0 {
b0 }
b10000000000 ,
b10000000000 X
b10000000000 k
1=
0<
b100000000 ;
b100000000 V
b0 #
b0 d
b0 J
b0 c
b0 '"
1o
0i
0j
b100000000 m
b0 H
b0 a
b0 &"
b10000000000 0
b10000000000 T
b10000000000 t
b10000000000 n
b1100000000 C
b1100000000 [
b11001 O
b1100010011100100110000101101110011000110110100000100000011101000110000101110010011001110110010101110100001110100010000000110000011110000011001000110000001100000010110100111000001111010011000001111000001100010100011000111000 :"
b111111000 8"
b111111000 9"
#88000
0u
b100000000 1
b100000000 Q
b100000000 v
b100000000 $"
b100000100 l
b100000000 !"
b100000000 {
b100000000 }
b100000100 ,
b100000100 X
b100000100 k
1>
0o
b100000000 H
b100000000 a
b100000000 &"
0=
b100000101 m
b101 ;
b101 V
b100000101 0
b100000101 T
b100000101 t
b100000101 n
b100000000 C
b100000000 [
b11101 O
b100101001000001010011000011101000100000011010010111001101011111011010100111010101101101011100000011110100110001 :"
b1 8"
b1 9"
#90000
b1000010000 ,
b1000010000 X
b1000010000 k
0u
b1000000000 1
b1000000000 Q
b1000000000 v
b1000000000 $"
b1000010000 l
b1000000000 !"
b1000000000 {
b1000000000 }
b100010000 0
b100010000 T
b100010000 t
b100010000 n
b10000 ;
b10000 V
b1000010000 m
b1000000000 H
b1000000000 a
b1000000000 &"
b100000 O
b10010100100000101001100010100100011101000100000011010010111001101011111011010100111010101101101011100000011110100110001 :"
b1 8"
b1 9"
08
#92000
0.
b0 &
b0 g
0u
b11011110101011010000000000000000 1
b11011110101011010000000000000000 Q
b11011110101011010000000000000000 v
b11011110101011010000000000000000 $"
b11011110101011010000000000000000 h
b11011110101011010000000000000000 ~
b11011110101011010000000000000000 ""
0-
0W
b11011110101011010000000100000000 ,
b11011110101011010000000100000000 X
b11011110101011010000000100000000 k
b11011110101011010000000000000000 l
b0 !"
b0 {
b0 }
16
b10 5
b10 R
0>
b11011110101011010000000100000000 0
b11011110101011010000000100000000 T
b11011110101011010000000100000000 t
b11011110101011010000000100000000 n
b11011110101011010000000000000000 ;
b11011110101011010000000000000000 V
1o
b11011110101011010000000000000000 m
b0 H
b0 a
b0 &"
b100001 O
b100110001010010001000000111010001100001011100100110011101100101011101000011101000100000001010000011000001111000001100100011000000110000001010110011000001111000001100010011000000101001001001100111111000110001001111010011000001111000001100100011000100110000 :"
b1000010000 8"
b1000010000 9"
#94000
0u
b10000010000000000 1
b10000010000000000 Q
b10000010000000000 v
b10000010000000000 $"
b10000000000 !"
b10000000000 {
b10000000000 }
b10000000000000000 h
b10000000000000000 ~
b10000000000000000 ""
b10000000000000000 l
b10000010000000000 ,
b10000010000000000 X
b10000010000000000 k
b10000000000 C
b10000000000 [
16
b1 5
b1 R
b10000010000000000 0
b10000010000000000 T
b10000010000000000 t
b10000000000000000 m
b10000010000000000 n
b10000000000000000 ;
b10000000000000000 V
b100010 O
b100110001010101010010010011101000100000011100100110010101110011011101010110110001110100001000000011110100100000011010010110110101101101 :"
b11011110101011010000000000000000 8"
b11011110101011010000000000000000 9"
#95000
18
#96000
b111 #"
0u
b1101 1
b1101 Q
b1101 v
b1101 $"
b111 h
b111 ~
b111 ""
b110 l
b110 !"
b110 {
b110 }
b100000000 ,
b100000000 X
b100000000 k
b111 #
b111 d
1i
1j
b111 J
b111 c
b111 '"
0o
b110 H
b110 a
b110 &"
06
b0 5
b0 R
b110 m
b0 ;
b0 V
b100000000 0
b100000000 T
b100000000 t
b100000000 n
b100000000 C
b100000000 [
b100011 O
b1000001010101010100100101010000010000110011101000100000001100000111100000110100001100000011000000101011001100000111100000110001001100000011000000110000001100000011110100110000011110000011000100110000001101000011000000110000 :"
b10000010000000000 8"
b10000010000000000 9"
#100000
19
1:
08
#105000
1"
1s
b1 p
b1 %"
b1 7"
13"
b101010 ("
b111 5"
b110 4"
18
#110000
b1 M
0:
08
#115000
b1 2"
18
#120000
b10 M
08
#125000
b10 2"
18
#130000
b11 M
08
#135000
b11 2"
18
#140000
b100 M
08
#145000
0"
0s
1r
b10 p
b10 %"
b10 7"
b101010 /
b101010 U
b101010 q
b101010 )"
b101010 6"
18
#150000
b0 #"
1u
b0 1
b0 Q
b0 v
b0 $"
b0 h
b0 ~
b0 ""
b0 l
b0 !"
b0 {
b0 }
09
b0 #
b0 d
1o
0i
0j
b0 J
b0 c
b0 '"
b0 m
b0 H
b0 a
b0 &"
b100110 O
b11100110111010001100001011011000110110000100000011001000110010101100001011100110111001101100101011100100111010001100101011001000010000001100001011001100111010001100101011100100010000001000100010011110100111001000101 :"
b0 8"
b0 9"
08
#152000
1.
b10 &
b10 g
1-
1W
1=
b100111 O
b1110011011101000110000101101100011011000011110100110000001000000111011101101000011001010110111000100000011000110110111101101110011101100101111101110011011101000110000101110010011101000011110100110000 :"
#154000
b0 ,
b0 X
b0 k
1>
0=
b101000 O
b10010100100000101001100001110100010000000100000011010010111001101011111011010100111010101101101011100000011110100110001 :"
b1 8"
b1 9"
#155000
0r
b0 p
b0 %"
b0 7"
b101010 1"
18
#156000
0.
b0 &
b0 g
0-
0W
b100000000 ,
b100000000 X
b100000000 k
0>
b101001 O
b10010100100000101001100010100100011101000100000011010010111001101011111011010100111010101101101011100000011110100110001 :"
#158000
b1 &
b1 g
1.
1z
1<
b101010 O
b101001000101101011101000111100101110000011001010011101000100000011010010111001101011111011010100111010101101101011100000011110100110000 :"
b0 8"
b0 9"
#160000
b0 &
b0 g
0u
b11001010111111101011111011101111 1
b11001010111111101011111011101111 Q
b11001010111111101011111011101111 v
b11001010111111101011111011101111 $"
b1111 #"
0.
b11001010111111101011111011101111 h
b11001010111111101011111011101111 ~
b11001010111111101011111011101111 ""
0z
b11001010111111101011111011101111 #
b11001010111111101011111011101111 d
0o
1i
b11001010111111101011111011101111 J
b11001010111111101011111011101111 c
b11001010111111101011111011101111 '"
b10100001000 '
b10100001000 ]
b10100001000 D
b10100001000 \
b1111 %
b1111 _
b1111 E
b1111 ^
b1 !
b1 f
b1 L
b1 e
0*
0@
b1 )
b1 Z
b1 A
b1 Y
1+
1?
0<
b101011 O
b100010101010001001000000111010001100001011010110110010101101110001110100010000001101001011100110101111101101010011101010110110101110000001111010011000000100000001010000110111001101111011101000010000001100001001000000110101001110101011011010111000000101001 :"
08
#162000
b110100 O
b11001001011111011001000110000101110100011000010010000001110000011000010111001101110011001011010111010001101000011100100110111101110101011001110110100000100000001010000111001101110100011011110111001001100101001000000110010001100001011101000110000100101001 :"
b11001010111111101011111011101111 8"
b11001010111111101011111011101111 9"
