Project/tb_id_stage.vcd
$date
	Tue May  5 11:52:50 2026
$end
$version
	Icarus Verilog
$end
$timescale
	1ps
$end
$scope module tb_id_stage $end
$var wire 2 ! wb_sel_o [1:0] $end
$var wire 32 " rs2_data_o [31:0] $end
$var wire 5 # rs2_addr_o [4:0] $end
$var wire 32 $ rs1_data_o [31:0] $end
$var wire 5 % rs1_addr_o [4:0] $end
$var wire 1 & reg_write_o $end
$var wire 5 ' rd_addr_o [4:0] $end
$var wire 32 ( pc_plus4_o [31:0] $end
$var wire 32 ) pc_if_o [31:0] $end
$var wire 1 * mem_write_o $end
$var wire 2 + mem_size_o [1:0] $end
$var wire 1 , mem_sign_ext_o $end
$var wire 1 - mem_read_o $end
$var wire 1 . is_jalr_o $end
$var wire 1 / is_jal_o $end
$var wire 1 0 is_branch_o $end
$var wire 32 1 imm_o [31:0] $end
$var wire 1 2 conv_start_o $end
$var wire 1 3 conv_init_o $end
$var wire 3 4 branch_funct3_o [2:0] $end
$var wire 1 5 alu_src_b_o $end
$var wire 2 6 alu_src_a_o [1:0] $end
$var wire 4 7 alu_op_o [3:0] $end
$var parameter 4 8 ALU_ADD $end
$var parameter 4 9 ALU_AND $end
$var parameter 4 : ALU_OR $end
$var parameter 4 ; ALU_SLL $end
$var parameter 4 < ALU_SLT $end
$var parameter 4 = ALU_SLTU $end
$var parameter 4 > ALU_SRA $end
$var parameter 4 ? ALU_SRL $end
$var parameter 4 @ ALU_SUB $end
$var parameter 4 A ALU_XOR $end
$var parameter 32 B CLK_PERIOD $end
$var parameter 7 C OP_AUIPC $end
$var parameter 7 D OP_BR $end
$var parameter 7 E OP_CUSTOM0 $end
$var parameter 7 F OP_FENCE $end
$var parameter 7 G OP_I $end
$var parameter 7 H OP_JAL $end
$var parameter 7 I OP_JALR $end
$var parameter 7 J OP_LOAD $end
$var parameter 7 K OP_LUI $end
$var parameter 7 L OP_R $end
$var parameter 7 M OP_STORE $end
$var parameter 7 N OP_SYS $end
$var reg 1 O clk $end
$var reg 32 P instr_i [31:0] $end
$var reg 32 Q pc_if_i [31:0] $end
$var reg 32 R pc_plus4_i [31:0] $end
$var reg 1 S rst_n $end
$var reg 5 T wb_addr_i [4:0] $end
$var reg 32 U wb_data_i [31:0] $end
$var reg 1 V wb_we_i $end
$var integer 32 W fail_count [31:0] $end
$var integer 32 X pass_count [31:0] $end
$scope function enc_b $end
$var reg 3 Y f3 [2:0] $end
$var reg 13 Z imm [12:0] $end
$var reg 7 [ op [6:0] $end
$var reg 5 \ rs1 [4:0] $end
$var reg 5 ] rs2 [4:0] $end
$upscope $end
$scope function enc_i $end
$var reg 3 ^ f3 [2:0] $end
$var reg 12 _ imm [11:0] $end
$var reg 7 ` op [6:0] $end
$var reg 5 a rd [4:0] $end
$var reg 5 b rs1 [4:0] $end
$upscope $end
$scope function enc_j $end
$var reg 21 c imm [20:0] $end
$var reg 7 d op [6:0] $end
$var reg 5 e rd [4:0] $end
$upscope $end
$scope function enc_r $end
$var reg 3 f f3 [2:0] $end
$var reg 7 g f7 [6:0] $end
$var reg 7 h op [6:0] $end
$var reg 5 i rd [4:0] $end
$var reg 5 j rs1 [4:0] $end
$var reg 5 k rs2 [4:0] $end
$upscope $end
$scope function enc_s $end
$var reg 3 l f3 [2:0] $end
$var reg 12 m imm [11:0] $end
$var reg 7 n op [6:0] $end
$var reg 5 o rs1 [4:0] $end
$var reg 5 p rs2 [4:0] $end
$upscope $end
$scope function enc_u $end
$var reg 20 q imm [19:0] $end
$var reg 7 r op [6:0] $end
$var reg 5 s rd [4:0] $end
$upscope $end
$scope module dut $end
$var wire 4 t alu_op_o [3:0] $end
$var wire 2 u alu_src_a_o [1:0] $end
$var wire 1 5 alu_src_b_o $end
$var wire 3 v branch_funct3_o [2:0] $end
$var wire 1 O clk $end
$var wire 1 3 conv_init_o $end
$var wire 1 2 conv_start_o $end
$var wire 32 w imm_o [31:0] $end
$var wire 32 x instr_i [31:0] $end
$var wire 1 0 is_branch_o $end
$var wire 1 / is_jal_o $end
$var wire 1 . is_jalr_o $end
$var wire 1 - mem_read_o $end
$var wire 1 y mem_sign_ext $end
$var wire 1 , mem_sign_ext_o $end
$var wire 2 z mem_size_o [1:0] $end
$var wire 1 * mem_write_o $end
$var wire 32 { pc_if_i [31:0] $end
$var wire 32 | pc_if_o [31:0] $end
$var wire 32 } pc_plus4_i [31:0] $end
$var wire 32 ~ pc_plus4_o [31:0] $end
$var wire 5 !" rd_addr_o [4:0] $end
$var wire 1 & reg_write_o $end
$var wire 5 "" rs1_addr_o [4:0] $end
$var wire 32 #" rs1_data_o [31:0] $end
$var wire 5 $" rs2_addr_o [4:0] $end
$var wire 32 %" rs2_data_o [31:0] $end
$var wire 1 S rst_n $end
$var wire 5 &" wb_addr_i [4:0] $end
$var wire 32 '" wb_data_i [31:0] $end
$var wire 2 (" wb_sel_o [1:0] $end
$var wire 1 V wb_we_i $end
$var wire 32 )" rs2_data [31:0] $end
$var wire 5 *" rs2 [4:0] $end
$var wire 32 +" rs1_data [31:0] $end
$var wire 5 ," rs1 [4:0] $end
$var wire 5 -" rd [4:0] $end
$var wire 7 ." opcode [6:0] $end
$var wire 2 /" mem_size [1:0] $end
$var wire 1 0" is_store $end
$var wire 1 1" is_load $end
$var wire 1 2" is_jalr $end
$var wire 1 3" is_jal $end
$var wire 1 4" is_branch $end
$var wire 32 5" imm_u [31:0] $end
$var wire 32 6" imm_s [31:0] $end
$var wire 32 7" imm_j [31:0] $end
$var wire 32 8" imm_i [31:0] $end
$var wire 32 9" imm_b [31:0] $end
$var wire 7 :" funct7 [6:0] $end
$var wire 3 ;" funct3 [2:0] $end
$var wire 1 <" conv_start $end
$var wire 1 =" conv_init $end
$var parameter 7 >" OP_AUIPC $end
$var parameter 7 ?" OP_BRANCH $end
$var parameter 7 @" OP_CUSTOM0 $end
$var parameter 7 A" OP_FENCE $end
$var parameter 7 B" OP_I_ARITH $end
$var parameter 7 C" OP_JAL $end
$var parameter 7 D" OP_JALR $end
$var parameter 7 E" OP_LOAD $end
$var parameter 7 F" OP_LUI $end
$var parameter 7 G" OP_R $end
$var parameter 7 H" OP_STORE $end
$var parameter 7 I" OP_SYSTEM $end
$var reg 4 J" alu_op [3:0] $end
$var reg 2 K" alu_src_a [1:0] $end
$var reg 1 L" alu_src_b $end
$var reg 32 M" imm [31:0] $end
$var reg 1 N" reg_write $end
$var reg 2 O" wb_sel [1:0] $end
$scope function funct3_to_aluop $end
$var reg 3 P" f3 [2:0] $end
$var reg 1 Q" f7_5 $end
$upscope $end
$scope module u_regfile $end
$var wire 1 O clk $end
$var wire 5 R" rd_addr [4:0] $end
$var wire 32 S" rd_data [31:0] $end
$var wire 5 T" rs1_addr [4:0] $end
$var wire 5 U" rs2_addr [4:0] $end
$var wire 1 S rst_n $end
$var wire 1 V we $end
$var wire 32 V" rs2_data [31:0] $end
$var wire 32 W" rs1_data [31:0] $end
$var integer 32 X" idx [31:0] $end
$upscope $end
$upscope $end
$scope task chk $end
$var reg 32 Y" exp [31:0] $end
$var reg 32 Z" got [31:0] $end
$var reg 256 [" lbl [255:0] $end
$upscope $end
$scope task present $end
$var reg 32 \" instr [31:0] $end
$var reg 32 ]" pc [31:0] $end
$upscope $end
$scope task wb_write $end
$var reg 5 ^" addr [4:0] $end
$var reg 32 _" data [31:0] $end
$upscope $end
$upscope $end
$enddefinitions $end
$comment Show the parameter values. $end
$dumpall
b1110011 I"
b100011 H"
b110011 G"
b110111 F"
b11 E"
b1100111 D"
b1101111 C"
b10011 B"
b1111 A"
b1011 @"
b1100011 ?"
b10111 >"
b1110011 N
b100011 M
b110011 L
b110111 K
b11 J
b1100111 I
b1101111 H
b10011 G
b1111 F
b1011 E
b1100011 D
b10111 C
b1010 B
b101 A
b1 @
b110 ?
b111 >
b100 =
b11 <
b10 ;
b1000 :
b1001 9
b0 8
$end
#0
$dumpvars
bx _"
bx ^"
bx ]"
bx \"
bx ["
bx Z"
bx Y"
bx X"
b0 W"
b0 V"
b0 U"
b0 T"
b0 S"
b0 R"
0Q"
b0 P"
b0 O"
1N"
b0 M"
1L"
b0 K"
b0 J"
0="
0<"
b0 ;"
b0 :"
b0 9"
b0 8"
b0 7"
b0 6"
b0 5"
04"
03"
02"
01"
00"
b0 /"
b10011 ."
b0 -"
b0 ,"
b0 +"
b0 *"
b0 )"
b0 ("
b0 '"
b0 &"
b0 %"
b0 $"
b0 #"
b0 ""
b0 !"
b100 ~
b100 }
b0 |
b0 {
b0 z
1y
b10011 x
b0 w
b0 v
b0 u
b0 t
bx s
bx r
bx q
bx p
bx o
bx n
bx m
bx l
bx k
bx j
bx i
bx h
bx g
bx f
bx e
bx d
bx c
bx b
bx a
bx `
bx _
bx ^
bx ]
bx \
bx [
bx Z
bx Y
b0 X
b0 W
0V
b0 U
b0 T
0S
b100 R
b0 Q
b10011 P
0O
b0 7
b0 6
15
b0 4
03
02
b0 1
00
0/
0.
0-
1,
b0 +
0*
b0 )
b100 (
b0 '
1&
b0 %
b0 $
b0 #
b0 "
b0 !
$end
#5000
b100000 X"
1O
#10000
0O
#15000
b100000 X"
1O
#20000
0O
#25000
b100000 X"
1O
#30000
1S
0O
#35000
1O
#40000
05
0L"
1&
1N"
b110011 ."
b1 '
b1 !"
b1 -"
b10 %
b10 ""
b10 ,"
b10 T"
b11 #
b11 $"
b11 *"
b11 U"
b11 8"
b1 6"
b100000000000 9"
b1100010000000000000000 5"
b10000100000000010 7"
b100000100 (
b100000100 ~
b100000100 R
b100000100 }
b100000000 )
b100000000 |
b100000000 Q
b100000000 {
b1100010000000010110011 P
b1100010000000010110011 x
b100000000 ]"
b1100010000000010110011 \"
b0 g
b11 k
b10 j
b0 f
b1 i
b110011 h
0O
#42000
b1 7
b1 t
b1 J"
1Q"
b100000 :"
b10000000011 8"
b10000000001 6"
b110000000000 9"
b1000000001100010000000000000000 5"
b10000110000000010 7"
b1000000001100010000000010110011 P
b1000000001100010000000010110011 x
b1000000001100010000000010110011 \"
b100000 g
b101 X
b10000010100010001000100001110100010000001110111011000100101111101110011011001010110110000111101010000010100110001010101 ["
b0 Y"
b0 Z"
#44000
b1 +
b1 z
b1 /"
b10 7
b10 t
b10 J"
b1 P"
0Q"
b1 4
b1 v
b1 ;"
b0 :"
b11 8"
b1 6"
b100000000000 9"
b1100010001000000000000 5"
b10001100000000010 7"
b1100010001000010110011 P
b1100010001000010110011 x
b1100010001000010110011 \"
b0 g
b1 f
b110 X
b10100110101010101000010001110100010000001100001011011000111010101011111011011110111000000111101010100110101010101000010 ["
b1 Y"
b1 Z"
#45000
1O
#46000
b10 +
b10 z
b10 /"
b11 7
b11 t
b11 J"
b10 P"
b10 4
b10 v
b10 ;"
b1100010010000000000000 5"
b10010100000000010 7"
b1100010010000010110011 P
b1100010010000010110011 x
b1100010010000010110011 \"
b10 f
b111 X
b10100110100110001001100001110100010000001100001011011000111010101011111011011110111000000111101010100110100110001001100 ["
b10 Y"
b10 Z"
#48000
b11 +
b11 z
b11 /"
b100 7
b100 t
b100 J"
b11 P"
b11 4
b11 v
b11 ;"
b1100010011000000000000 5"
b10011100000000010 7"
b1100010011000010110011 P
b1100010011000010110011 x
b1100010011000010110011 \"
b11 f
b1000 X
b10100110100110001010100001110100010000001100001011011000111010101011111011011110111000000111101010100110100110001010100 ["
b11 Y"
b11 Z"
#50000
0,
0y
b0 +
b0 z
b0 /"
b101 7
b101 t
b101 J"
b100 P"
b100 4
b100 v
b100 ;"
b1100010100000000000000 5"
b10100100000000010 7"
b1100010100000010110011 P
b1100010100000010110011 x
b1100010100000010110011 \"
b100 f
b1001 X
b101001101001100010101000101010100111010001000000110000101101100011101010101111101101111011100000011110101010011010011000101010001010101 ["
b100 Y"
b100 Z"
0O
#52000
b1 +
b1 z
b1 /"
b110 7
b110 t
b110 J"
b101 P"
b101 4
b101 v
b101 ;"
b1100010101000000000000 5"
b10101100000000010 7"
b1100010101000010110011 P
b1100010101000010110011 x
b1100010101000010110011 \"
b101 f
b1010 X
b10110000100111101010010001110100010000001100001011011000111010101011111011011110111000000111101010110000100111101010010 ["
b101 Y"
b101 Z"
#54000
b111 7
b111 t
b111 J"
1Q"
b100000 :"
b10000000011 8"
b10000000001 6"
b110000000000 9"
b1000000001100010101000000000000 5"
b10101110000000010 7"
b1000000001100010101000010110011 P
b1000000001100010101000010110011 x
b1000000001100010101000010110011 \"
b100000 g
b1011 X
b10100110101001001001100001110100010000001100001011011000111010101011111011011110111000000111101010100110101001001001100 ["
b110 Y"
b110 Z"
#55000
1O
#56000
b10 +
b10 z
b10 /"
b1000 7
b1000 t
b1000 J"
b110 P"
0Q"
b110 4
b110 v
b110 ;"
b0 :"
b11 8"
b1 6"
b100000000000 9"
b1100010110000000000000 5"
b10110100000000010 7"
b1100010110000010110011 P
b1100010110000010110011 x
b1100010110000010110011 \"
b0 g
b110 f
b1100 X
b10100110101001001000001001110100010000001100001011011000111010101011111011011110111000000111101010100110101001001000001 ["
b111 Y"
b111 Z"
#58000
b11 +
b11 z
b11 /"
b1001 7
b1001 t
b1001 J"
b111 P"
b111 4
b111 v
b111 ;"
b1100010111000000000000 5"
b10111100000000010 7"
b1100010111000010110011 P
b1100010111000010110011 x
b1100010111000010110011 \"
b111 f
b1101 X
b1001111010100100011101000100000011000010110110001110101010111110110111101110000001111010100111101010010 ["
b1000 Y"
b1000 Z"
#60000
1,
1y
1&
1N"
15
1L"
b0 +
b0 z
b0 /"
13
1="
b0 7
b0 t
b0 J"
b0 P"
b1100100 1
b1100100 w
b1100100 M"
b10011 ."
b0 4
b0 v
b0 ;"
b100 #
b100 $"
b100 *"
b100 U"
b11 :"
b1100100 8"
b1100001 6"
b100001100000 9"
b110010000010000000000000000 5"
b10000000001100100 7"
b110010000010000000010010011 P
b110010000010000000010010011 x
b110010000010000000010010011 \"
b1100100 _
b10 b
b0 ^
b1 a
b10011 `
b1110 X
b10000010100111001000100001110100010000001100001011011000111010101011111011011110111000000111101010000010100111001000100 ["
b1001 Y"
b1001 Z"
0O
#62000
b10 +
b10 z
b10 /"
b11 7
b11 t
b11 J"
b10 P"
b110010 1
b110010 w
b110010 M"
b10 4
b10 v
b10 ;"
b10010 #
b10010 $"
b10010 *"
b10010 U"
b1 :"
b110010 8"
b100001 6"
b100000100000 9"
b11001000010010000000000000 5"
b10010000000110010 7"
b11001000010010000010010011 P
b11001000010010000010010011 x
b11001000010010000010010011 \"
b110010 _
b10 ^
b10010 X
b100000101000100010001000100100100111010001000000111001001100101011001110101111101110111011100100110100101110100011001010011110100110001 ["
b1 Y"
b1 Z"
#64000
b11 +
b11 z
b11 /"
b100 7
b100 t
b100 J"
b11 P"
b11 4
b11 v
b11 ;"
b11001000010011000000000000 5"
b10011000000110010 7"
b11001000010011000010010011 P
b11001000010011000010010011 x
b11001000010011000010010011 \"
b11 ^
b10011 X
b1010011010011000101010001001001001110100010000001100001011011000111010101011111011011110111000000111101010100110100110001010100 ["
b11 Y"
b11 Z"
#65000
1O
#66000
0,
0y
b0 +
b0 z
b0 /"
b101 7
b101 t
b101 J"
b100 P"
b11111111111111111111111111111111 1
b11111111111111111111111111111111 w
b11111111111111111111111111111111 M"
b100 4
b100 v
b100 ;"
b11111 #
b11111 $"
b11111 *"
b11111 U"
b1111111 :"
b11111111111111111111111111111111 8"
b11111111111111111111111111100001 6"
b11111111111111111111111111100000 9"
b11111111111100010100000000000000 5"
b11111111111100010100111111111110 7"
b11111111111100010100000010010011 P
b11111111111100010100000010010011 x
b11111111111100010100000010010011 \"
b111111111111 _
b100 ^
b10100 X
b10100110100110001010100010010010101010100111010001000000110000101101100011101010101111101101111011100000011110101010011010011000101010001010101 ["
b100 Y"
b100 Z"
#68000
b10 +
b10 z
b10 /"
03
0="
b1000 7
b1000 t
b1000 J"
b110 P"
b11111111111111111111111100001111 1
b11111111111111111111111100001111 w
b11111111111111111111111100001111 M"
b110 4
b110 v
b110 ;"
b1111 #
b1111 $"
b1111 *"
b1111 U"
b1111000 :"
b11111111111111111111111100001111 8"
b11111111111111111111111100000001 6"
b11111111111111111111111100000000 9"
b11110000111100010110000000000000 5"
b11111111111100010110111100001110 7"
b11110000111100010110000010010011 P
b11110000111100010110000010010011 x
b11110000111100010110000010010011 \"
b111100001111 _
b110 ^
b10101 X
b1011000010011110101001001001001001110100010000001100001011011000111010101011111011011110111000000111101010110000100111101010010 ["
b101 Y"
b101 Z"
#70000
b11 +
b11 z
b11 /"
13
1="
b1001 7
b1001 t
b1001 J"
b111 P"
b11111111 1
b11111111 w
b11111111 M"
b111 4
b111 v
b111 ;"
b11111 #
b11111 $"
b11111 *"
b11111 U"
b111 :"
b11111111 8"
b11100001 6"
b100011100000 9"
b1111111100010111000000000000 5"
b10111100011111110 7"
b1111111100010111000010010011 P
b1111111100010111000010010011 x
b1111111100010111000010010011 \"
b11111111 _
b111 ^
b10110 X
b100111101010010010010010011101000100000011000010110110001110101010111110110111101110000001111010100111101010010 ["
b1000 Y"
b1000 Z"
0O
#72000
1,
1y
b1 +
b1 z
b1 /"
03
0="
b10 7
b10 t
b10 J"
b1 P"
b101 1
b101 w
b101 M"
b1 4
b1 v
b1 ;"
b101 #
b101 $"
b101 *"
b101 U"
b0 :"
b101 8"
b1 6"
b100000000000 9"
b10100010001000000000000 5"
b10001100000000100 7"
b10100010001000010010011 P
b10100010001000010010011 x
b10100010001000010010011 \"
b101 _
b1 ^
b10111 X
b1000001010011100100010001001001001110100010000001100001011011000111010101011111011011110111000000111101010000010100111001000100 ["
b1001 Y"
b1001 Z"
#74000
0,
0y
b110 7
b110 t
b110 J"
b101 P"
b11 1
b11 w
b11 M"
b101 4
b101 v
b101 ;"
b11 #
b11 $"
b11 *"
b11 U"
b11 8"
b1100010101000000000000 5"
b10101100000000010 7"
b1100010101000010010011 P
b1100010101000010010011 x
b1100010101000010010011 \"
b11 _
b101 ^
b11000 X
b1010011010011000100110001001001001110100010000001100001011011000111010101011111011011110111000000111101010100110100110001001100 ["
b10 Y"
b10 Z"
#75000
1O
#76000
b111 7
b111 t
b111 J"
1Q"
b10000000011 1
b10000000011 w
b10000000011 M"
b100000 :"
b10000000011 8"
b10000000001 6"
b110000000000 9"
b1000000001100010101000000000000 5"
b10101110000000010 7"
b1000000001100010101000010010011 P
b1000000001100010101000010010011 x
b1000000001100010101000010010011 \"
b10000000011 _
b11001 X
b1010011010100100100110001001001001110100010000001100001011011000111010101011111011011110111000000111101010100110101001001001100 ["
b110 Y"
b110 Z"
#78000
1,
1y
b1 !
b1 ("
b1 O"
1&
1N"
b0 +
b0 z
b0 /"
b0 7
b0 t
b0 J"
b100 1
b100 w
b100 M"
1-
11"
b11 ."
b0 4
b0 v
b0 ;"
b100 #
b100 $"
b100 *"
b100 U"
b0 :"
b100 8"
b1 6"
b100000000000 9"
b10000010000000000000000 5"
b10000000000000100 7"
b10000010000000010000011 P
b10000010000000010000011 x
b10000010000000010000011 \"
b100 _
b0 ^
b11 `
b11010 X
b1010011010100100100000101001001001110100010000001100001011011000111010101011111011011110111000000111101010100110101001001000001 ["
b111 Y"
b111 Z"
#80000
b1 +
b1 z
b1 /"
b1 4
b1 v
b1 ;"
b10000010001000000000000 5"
b10001000000000100 7"
b10000010001000010000011 P
b10000010001000010000011 x
b10000010001000010000011 \"
b1 ^
b100000 X
b10011000100001000111010001000000111001001100101011001110101111101110111011100100110100101110100011001010011110100110001 ["
b1 Y"
b1 Z"
0O
#82000
b10 +
b10 z
b10 /"
b10 4
b10 v
b10 ;"
b10000010010000000000000 5"
b10010000000000100 7"
b10000010010000010000011 P
b10000010010000010000011 x
b10000010010000010000011 \"
b10 ^
b100010 X
b100110001001000001110100010000001110011011010010110011101101110010111110110010101111000011101000011110100110001 ["
#84000
0,
0y
b0 +
b0 z
b0 /"
b100 4
b100 v
b100 ;"
b10000010100000000000000 5"
b10100000000000100 7"
b10000010100000010000011 P
b10000010100000010000011 x
b10000010100000010000011 \"
b100 ^
b100011 X
b1001100010101110011101000100000011100110110100101111010011001010011110101110111011011110111001001100100 ["
b10 Y"
b10 Z"
#85000
1O
#86000
b1 +
b1 z
b1 /"
b101 4
b101 v
b101 ;"
b10000010101000000000000 5"
b10101000000000100 7"
b10000010101000010000011 P
b10000010101000010000011 x
b10000010101000010000011 \"
b101 ^
b100101 X
b10011000100001001010101001110100010000001110011011010010110011101101110010111110110010101111000011101000011110100110000 ["
b0 Y"
b0 Z"
#88000
1,
1y
0&
0N"
b0 !
b0 ("
b0 O"
b10 +
b10 z
b10 /"
b1000 1
b1000 w
b1000 M"
0-
01"
1*
10"
b100011 ."
b1000 '
b1000 !"
b1000 -"
b10 4
b10 v
b10 ;"
b11 #
b11 $"
b11 *"
b11 U"
b11 8"
b1000 6"
b1000 9"
b1100010010000000000000 5"
b10010100000000010 7"
b1100010010010000100011 P
b1100010010010000100011 x
b1100010010010000100011 \"
b1000 m
b11 p
b10 o
b10 l
b100011 n
b100111 X
b10011000100100001010101001110100010000001110011011010010110011101101110010111110110010101111000011101000011110100110000 ["
b0 Y"
b0 Z"
#90000
b1 +
b1 z
b1 /"
b1 4
b1 v
b1 ;"
b1100010001000000000000 5"
b10001100000000010 7"
b1100010001010000100011 P
b1100010001010000100011 x
b1100010001010000100011 \"
b1 l
b101100 X
b1010011010101110011101000100000011100110111001001100011010111110110001000111101011010010110110101101101001000000010100001010011001011010111010001111001011100000110010100101001 ["
b1 Y"
b1 Z"
0O
#92000
b0 +
b0 z
b0 /"
b0 4
b0 v
b0 ;"
b1100010000000000000000 5"
b10000100000000010 7"
b1100010000010000100011 P
b1100010000010000100011 x
b1100010000010000100011 \"
b0 l
b101101 X
b1010011010010000011101000100000011100110110100101111010011001010011110101101000011000010110110001100110 ["
#94000
05
0L"
0*
00"
10
14"
b1100011 ."
b1 %
b1 ""
b1 ,"
b1 T"
b10 #
b10 $"
b10 *"
b10 U"
b10 8"
b1000001000000000000000 5"
b1000000000000010 7"
b1000001000010001100011 P
b1000001000010001100011 x
b1000001000010001100011 \"
b1000 Z
b10 ]
b1 \
b0 Y
b1100011 [
b101110 X
b1010011010000100011101000100000011100110110100101111010011001010011110101100010011110010111010001100101 ["
b0 Y"
b0 Z"
#95000
1O
#96000
b1 +
b1 z
b1 /"
b1 4
b1 v
b1 ;"
b1000001001000000000000 5"
b1001000000000010 7"
b1000001001010001100011 P
b1000001001010001100011 x
b1000001001010001100011 \"
b1 Y
b110011 X
b100001001000101010100010011101000100000011100110111001001100011010111110110001000111101011100100111001100110010 ["
b0 Y"
b0 Z"
#98000
0,
0y
b0 +
b0 z
b0 /"
b100 4
b100 v
b100 ;"
b1000001100000000000000 5"
b1100000000000010 7"
b1000001100010001100011 P
b1000001100010001100011 x
b1000001100010001100011 \"
b100 Y
b110100 X
b10000100100111001000101001110100010000001100110011101010110111001100011011101000011001100111101001100000011000000110001 ["
b1 Y"
b1 Z"
#100000
b1 +
b1 z
b1 /"
b101 4
b101 v
b101 ;"
b1000001101000000000000 5"
b1101000000000010 7"
b1000001101010001100011 P
b1000001101010001100011 x
b1000001101010001100011 \"
b101 Y
b110101 X
b10000100100110001010100001110100010000001100110011101010110111001100011011101000011001100111101001100010011000000110000 ["
b100 Y"
b100 Z"
0O
#102000
b10 +
b10 z
b10 /"
b110 4
b110 v
b110 ;"
b1000001110000000000000 5"
b1110000000000010 7"
b1000001110010001100011 P
b1000001110010001100011 x
b1000001110010001100011 \"
b110 Y
b110110 X
b10000100100011101000101001110100010000001100110011101010110111001100011011101000011001100111101001100010011000000110001 ["
b101 Y"
b101 Z"
#104000
b11 +
b11 z
b11 /"
b111 4
b111 v
b111 ;"
b1000001111000000000000 5"
b1111000000000010 7"
b1000001111010001100011 P
b1000001111010001100011 x
b1000001111010001100011 \"
b111 Y
b110111 X
b1000010010011000101010001010101001110100010000001100110011101010110111001100011011101000011001100111101001100010011000100110000 ["
b110 Y"
b110 Z"
#105000
1O
#106000
1,
1y
1&
1N"
15
1L"
b0 +
b0 z
b0 /"
13
1="
b1100100 1
b1100100 w
b1100100 M"
00
04"
1/
13"
b1101111 ."
b1 '
b1 !"
b1 -"
b0 4
b0 v
b0 ;"
b0 %
b0 ""
b0 ,"
b0 T"
b100 #
b100 $"
b100 *"
b100 U"
b11 :"
b1100100 8"
b1100001 6"
b100001100000 9"
b110010000000000000000000000 5"
b1100100 7"
b1000000100 (
b1000000100 ~
b1000000100 R
b1000000100 }
b1000000000 )
b1000000000 |
b1000000000 Q
b1000000000 {
b110010000000000000011101111 P
b110010000000000000011101111 x
b1000000000 ]"
b110010000000000000011101111 \"
b1100100 c
b1 e
b1101111 d
b111000 X
b1000010010001110100010101010101001110100010000001100110011101010110111001100011011101000011001100111101001100010011000100110001 ["
b111 Y"
b111 Z"
#108000
1&
1N"
03
0="
b100 1
b100 w
b100 M"
0/
03"
1.
12"
b1100111 ."
b10 %
b10 ""
b10 ,"
b10 T"
b0 :"
b100 8"
b1 6"
b100000000000 9"
b10000010000000000000000 5"
b10000000000000100 7"
b10000010000000011100111 P
b10000010000000011100111 x
b10000010000000011100111 \"
b0 ^
b1100111 `
b111101 X
b1001010010000010100110000111010001000000111001001100100001111010111100000110001 ["
b1 Y"
b1 Z"
#110000
0,
0y
1&
1N"
b10 6
b10 u
b10 K"
b10 +
b10 z
b10 /"
13
1="
b10101011110011011110000000000000 1
b10101011110011011110000000000000 w
b10101011110011011110000000000000 M"
0.
02"
b110111 ."
b110 4
b110 v
b110 ;"
b11011 %
b11011 ""
b11011 ,"
b11011 T"
b11100 #
b11100 $"
b11100 *"
b11100 U"
b1010101 :"
b11111111111111111111101010111100 8"
b11111111111111111111101010100001 6"
b11111111111111111111101010100000 9"
b10101011110011011110000000000000 5"
b11111111111111011110001010111100 7"
b1100000100 (
b1100000100 ~
b1100000100 R
b1100000100 }
b1100000000 )
b1100000000 |
b1100000000 Q
b1100000000 {
b10101011110011011110000010110111 P
b10101011110011011110000010110111 x
b1100000000 ]"
b10101011110011011110000010110111 \"
b10101011110011011110 q
b1 s
b110111 r
b1 Y"
b1 Z"
b1000001 X
b10010100100000101001100010100100011101000100000011100110111001001100011010111110110001000111101011010010110110101101101 ["
0O
#112000
1,
1y
b1 6
b1 u
b1 K"
1&
1N"
b0 +
b0 z
b0 /"
03
0="
b10000000000000000000000000000 1
b10000000000000000000000000000 w
b10000000000000000000000000000 M"
b10111 ."
b0 4
b0 v
b0 ;"
b0 %
b0 ""
b0 ,"
b0 T"
b0 #
b0 $"
b0 *"
b0 U"
b1000 :"
b100000000 8"
b100000001 6"
b100100000000 9"
b10000000000000000000000000000 5"
b100000000 7"
b10000000000000000000010010111 P
b10000000000000000000010010111 x
b10000000000000000000010010111 \"
b10000000000000000 q
b10111 r
b1000101 X
b1001100010101010100100100111010001000000111001001100101011001110101111101110111011100100110100101110100011001010011110100110001 ["
b1 Y"
b1 Z"
#114000
0&
0N"
b0 6
b0 u
b0 K"
b0 1
b0 w
b0 M"
b1111 ."
b0 '
b0 !"
b0 -"
b0 :"
b0 8"
b0 6"
b0 9"
b0 5"
b0 7"
b10000000100 (
b10000000100 ~
b10000000100 R
b10000000100 }
b10000000000 )
b10000000000 |
b10000000000 Q
b10000000000 {
b1111 P
b1111 x
b10000000000 ]"
b1111 \"
b1 Y"
b1 Z"
b1001010 X
b10000010101010101001001010100000100001100111010001000000111001001100101011001110101111101110111011100100110100101110100011001010011110100110001 ["
#115000
1O
#116000
b1110011 ."
b1110011 P
b1110011 x
b1110011 \"
b1001101 X
b10001100100010101001110010000110100010100111010001000000110110101100101011011010101111101110111011100100110100101110100011001010011110100110000 ["
b0 Y"
b0 Z"
#118000
b1 #
b1 $"
b1 *"
b1 U"
b1 8"
b100000000000000000000 5"
b100000000000 7"
b100000000000001110011 P
b100000000000001110011 x
b100000000000001110011 \"
b1001111 X
b10001010100001101000001010011000100110000111010001000000110110101100101011011010101111101110111011100100110100101110100011001010011110100110000 ["
#120000
1&
1N"
b10 !
b10 ("
b10 O"
12
1<"
b1011 ."
b101 '
b101 !"
b101 -"
b11 %
b11 ""
b11 ,"
b11 T"
b100 #
b100 $"
b100 *"
b100 U"
b100 8"
b101 6"
b100000000100 9"
b10000011000000000000000 5"
b11000000000000100 7"
b10100000100 (
b10100000100 ~
b10100000100 R
b10100000100 }
b10100000000 )
b10100000000 |
b10100000000 Q
b10100000000 {
b10000011000001010001011 P
b10000011000001010001011 x
b10100000000 ]"
b10000011000001010001011 \"
b100 k
b11 j
b0 f
b101 i
b1011 h
b1010000 X
b1000101010000100101001001000101010000010100101100111010001000000111001001100101011001110101111101110111011100100110100101110100011001010011110100110000 ["
0O
#122000
13
1="
b1 :"
b100100 8"
b100101 6"
b100000100100 9"
b10010000011000000000000000 5"
b11000000000100100 7"
b10010000011000001010001011 P
b10010000011000001010001011 x
b10010000011000001010001011 \"
b1 g
b1010111 X
b100001101001111010011100101011000111010001000000111001001100100001111010111100000110101 ["
b101 Y"
b101 Z"
#124000
05
0L"
1&
1N"
b0 !
b0 ("
b0 O"
03
0="
b0 P"
0Q"
02
0<"
b110011 ."
b1 '
b1 !"
b1 -"
b10 %
b10 ""
b10 ,"
b10 T"
b11 #
b11 $"
b11 *"
b11 U"
b0 :"
b11 8"
b1 6"
b100000000000 9"
b1100010000000000000000 5"
b10000100000000010 7"
b1100010000000010110011 P
b1100010000000010110011 x
b1100010000000010110011 \"
b0 g
b11 k
b10 j
b1 i
b110011 h
b1011001 X
b10000110100111101001110010101100011101000100000011000110110111101101110011101100101111101101001011011100110100101110100001111010011000100100000001010000110100101101110011010010111010000101001 ["
b1 Y"
b1 Z"
#125000
1O
