Lab_6/dump.vcd
$date
	Tue Apr 14 21:48:29 2026
$end
$version
	Icarus Verilog
$end
$timescale
	1ps
$end
$scope module LUT_tb $end
$var wire 1 ! y_reg $end
$var wire 1 " y_comb $end
$var reg 1 # clk $end
$var reg 1 $ in0 $end
$var reg 1 % in1 $end
$var reg 1 & rst_n $end
$var reg 2 ' shift_amt [1:0] $end
$var integer 32 ( f [31:0] $end
$var integer 32 ) i [31:0] $end
$scope function expected_y $end
$var reg 1 * a $end
$var reg 1 + b $end
$var reg 2 , func_sel [1:0] $end
$upscope $end
$scope module dut_comb $end
$var wire 1 # clk $end
$var wire 1 $ in0 $end
$var wire 1 % in1 $end
$var wire 1 & rst_n $end
$var wire 2 - shift_amt [1:0] $end
$var wire 1 " y $end
$var wire 2 . sel [1:0] $end
$var wire 1 / comb_y $end
$var parameter 32 0 REGISTERED $end
$var reg 4 1 selected_lut [3:0] $end
$var reg 1 2 y_reg $end
$upscope $end
$scope module dut_reg $end
$var wire 1 # clk $end
$var wire 1 $ in0 $end
$var wire 1 % in1 $end
$var wire 1 & rst_n $end
$var wire 2 3 shift_amt [1:0] $end
$var wire 1 ! y $end
$var wire 2 4 sel [1:0] $end
$var wire 1 5 comb_y $end
$var parameter 32 6 REGISTERED $end
$var reg 4 7 selected_lut [3:0] $end
$var reg 1 8 y_reg $end
$upscope $end
$scope task apply_and_check $end
$var reg 1 9 a $end
$var reg 1 : b $end
$var reg 1 ; exp $end
$var reg 2 < func_sel [1:0] $end
$upscope $end
$upscope $end
$enddefinitions $end
$comment Show the parameter values. $end
$dumpall
b1 6
b0 0
$end
#0
$dumpvars
bx <
x;
x:
x9
08
b1000 7
05
b0 4
b0 3
02
b1000 1
0/
b0 .
b0 -
bx ,
x+
x*
bx )
bx (
b0 '
0&
0%
0$
0#
0"
0!
$end
#5000
1#
#10000
0#
#12000
0;
b0 ,
0*
0+
0:
09
b0 <
b0 )
b0 (
1&
#15000
1#
#16000
b1 .
b1 4
1$
1*
19
b1 )
#20000
0#
#25000
1#
#26000
b10 .
b10 4
1%
0$
0*
1+
1:
09
b10 )
#30000
0#
#35000
1#
#36000
1"
1/
b11 .
15
b11 4
1$
1;
1*
19
b11 )
#40000
0#
#45000
1!
18
12
1#
#46000
0"
0/
b0 .
05
b0 4
b1110 1
b1110 7
0%
0$
b1 '
b1 -
b1 3
0;
b1 ,
0*
0+
0:
09
b1 <
b1 (
b0 )
#50000
0#
#55000
02
0!
08
1#
#56000
1"
1/
b1 .
15
b1 4
1$
1;
1*
19
b1 )
#60000
0#
#65000
1!
18
12
1#
#66000
b10 .
b10 4
1%
0$
0*
1+
1:
09
b10 )
#70000
0#
#75000
1#
#76000
b11 .
b11 4
1$
1*
19
b11 )
#80000
0#
#85000
1#
#86000
b0 .
b0 4
15
b111 7
1"
1/
b111 1
0%
0$
b10 '
b10 -
b10 3
b10 ,
0*
0+
0:
09
b10 <
b10 (
b0 )
#90000
0#
#95000
1#
#96000
b1 .
b1 4
1$
1*
19
b1 )
#100000
0#
#105000
1#
#106000
b10 .
b10 4
1%
0$
0*
1+
1:
09
b10 )
#110000
0#
#115000
1#
#116000
0"
0/
b11 .
05
b11 4
1$
0;
1*
19
b11 )
#120000
0#
#125000
0!
08
02
1#
#126000
1"
1/
b0 .
15
b0 4
b1 1
b1 7
0%
0$
b11 '
b11 -
b11 3
1;
b11 ,
0*
0+
0:
09
b11 <
b11 (
b0 )
#130000
0#
#135000
12
1!
18
1#
#136000
0"
0/
b1 .
05
b1 4
1$
0;
1*
19
b1 )
#140000
0#
#145000
0!
08
02
1#
#146000
b10 .
b10 4
1%
0$
0*
1+
1:
09
b10 )
#150000
0#
#155000
1#
#156000
b11 .
b11 4
1$
1*
19
b11 )
#160000
0#
#165000
1#
#166000
15
b1110 7
1"
1/
b1110 1
b1 '
b1 -
b1 3
b100 (
b100 )
#170000
0#
#175000
12
1!
18
1#
#176000
0!
08
02
0&
#180000
0#
#185000
1#
#186000
1&
#190000
0#
#195000
1!
18
12
1#
